[
  {
    "comment": "start",
    "type": "MultiNuNet",
    "T": ["create", "receive application", "open file"],
    "P": ["p1", "p2"],
    "F": {
      "[([i])]": [["create", "p1"], ["p1", "receive application"], ["receive application", "p2"], ["p2", "open file"]]
    },
    "O": {"I": ["i_001", "..", "i_100"]},
    "V": {"I": ["i"]},
    "m_i": "",
    "m_f": ""
  },
  {
    "comment": "agents",
    "type": "MultiNuNet",
    "T": ["start_agent", "stop_agent"],
    "P": ["p_a_off", "p_a_on"],
    "F": {
      "[([a])]": [["p_a_off", "start_agent"], ["start_agent", "p_a_on"], ["p_a_on", "stop_agent"], ["stop_agent", "p_a_off"]]
    },
    "O": {"A": ["Charles", "Mary"]},
    "V": {"A": ["a"]},
    "m_i": "[[([Charles]),([Mary])]·p_a_off]",
    "m_f": "[[([Charles]),([Mary])]·p_a_off]"
  },
  {
    "comment": "managers",
    "type": "MultiNuNet",
    "T": ["start_manager", "stop_manager"],
    "P": ["p_m_off", "p_m_on"],
    "F": {
      "[([m])]": [["p_m_off", "start_manager"], ["start_manager", "p_m_on"], ["p_m_on", "stop_manager"], ["stop_manager", "p_m_off"]]
    },
    "O": {"M": ["Joey"]},
    "V": {"M": ["m"]},
    "m_i": "[[([Joey])]·p_m_off]",
    "m_f": "[[([Joey])]·p_m_off]"
  },
  {
    "comment": "handle1",
    "type": "MultiNuNet",
    "T": ["open file", "add meter details", "add customer details", "cancel previous contract", "skip_cancel(tau)", "close file"],
    "P": ["p_a_on", "p3", "p4", "p5", "p6", "p7", "p8", "p_continue", "p_true", "p_false"],
    "F": {
      "[([a])]": [["p_a_on", "open file"], ["close file", "p_a_on"]],
      "[([i],[a])]": [["open file", "p3"], ["open file", "p4"], ["open file", "p5"],
                      ["p4", "add meter details"], ["p3", "add customer details"], ["p5", "cancel previous contract"], ["p5", "skip_cancel(tau)"],
                      ["add meter details", "p6"], ["add customer details", "p7"],
                      ["p6", "close file"], ["p7", "close file"]
      ],
      "[([i],[a],[b])]": [["cancel previous contract", "p8"], ["skip_cancel(tau)", "p8"], ["p8", "close file"]],
      "[([b])]": [["p_true", "cancel previous contract"], ["cancel previous contract", "p_true"],
                  ["p_false", "skip_cancel(tau)"], ["skip_cancel(tau)", "p_false"]],
      "[([i],[b])]": [["close file", "p_continue"]]
    },
    "O": {"B": ["T", "F"]},
    "V": {"I": ["i"], "A": ["a"], "B":  ["b"]},
    "m_i": "[[([T])]·p_true, [([F])]·p_false]",
    "m_f": "[[([T])]·p_true, [([F])]·p_false]"
  },
  {
    "comment": "handle2",
    "type": "MultiNuNet",
    "T": ["start cancellation", "open file2(open file)", "cancel previous contract2(cancel previous contract)", "close file2(close file)"],
    "P": ["p_a_on", "p_continue", "p_false", "p11", "p12", "p13", "p14"],
    "F": {
      "[([b])]": [["p_false", "start cancellation"], ["start cancellation", "p_false"]],
      "[([i],[b])]": [["p_continue", "start cancellation"]],
      "[([i])]": [["start cancellation", "p11"], ["p11", "open file2(open file)"], ["close file2(close file)", "p14"]],
      "[([a])]": [["p_a_on", "open file2(open file)"], ["close file2(close file)", "p_a_on"]],
      "[([i],[a])]": [["open file2(open file)", "p12"], ["p12", "cancel previous contract2(cancel previous contract)"], ["cancel previous contract2(cancel previous contract)", "p13"], ["p13", "close file2(close file)"]]
    },
    "O": {},
    "V": {"I": ["i"], "A": ["a"], "B":  ["b"]},
    "m_i": "[[([T])]·p_true, [([F])]·p_false]",
    "m_f": "[[([T])]·p_true, [([F])]·p_false]"
  },
  {
    "comment": "move_to_sign",
    "type": "MultiNuNet",
    "T": ["tau1(tau)", "tau2(tau)", "start signing"],
    "P": ["p14", "p_continue", "p_approve", "p_empty"],
    "F": {
      "[([i],[b])]": [["p_continue", "tau1(tau)"]],
      "[([i])]": [["p14", "tau2(tau)"]],
      "[(I)]": [["p_approve", "tau1(tau)"], ["p_approve", "tau2(tau)"], ["p_approve", "start signing"]],
      "[(I+{i: 1})]": [["tau1(tau)", "p_approve"], ["tau2(tau)", "p_approve"]],
      "[(Y)]": [["start signing", "p_approve"], ["p_empty", "start signing"], ["start signing", "p_empty"]]
    },
    "O": {},
    "V": {"I": ["i", "I", "Y"], "B":  ["b"]},
    "m_i": "[[([])]·p_approve, [([])]·p_empty]",
    "m_f": "[[([])]·p_approve, [([])]·p_empty]"
  },
  {
    "comment": "approval",
    "type": "MultiNuNet",
    "T": ["start signing", "done", "approve contract"],
    "P": ["p_empty", "p_m_on", "p_to_sign", "p_end"],
    "F": {
      "[([m])]": [["p_m_on", "start signing"], ["done", "p_m_on"]],
      "[(I,[m])]": [["start signing", "p_to_sign"], ["p_to_sign", "done"], ["approve contract", "p_to_sign"]],
      "[(I+{i: 1},[m])]": [["p_to_sign", "approve contract"]],
      "[([i])]": [["approve contract", "p_end"]],
      "[(I)]": [["p_empty", "done"], ["done", "p_empty"]]
    },
    "O": {},
    "V": {"I": ["i", "I"], "M":  ["m"]},
    "m_i": "",
    "m_f": ""
  },
  {
    "comment": "resource memory",
    "type": "MultiNuNet",
    "T": ["open file", "tau1(tau)", "open file2(open file)"],
    "P": ["p_res_mem"],
    "F": {
      "[([i],[a])]": [["open file", "p_res_mem"], ["p_res_mem", "tau1(tau)"], ["p_res_mem", "open file2(open file)"]]
    },
    "O": {},
    "V": {"I": ["i"], "A":  ["a"]},
    "m_i": "",
    "m_f": ""
  },
  {
    "comment": "",
    "type": "MultiNuNet",
    "T": ["create", "tau1", "empty"],
    "P": ["p1", "p2"],
    "F": {
      "[([x])]": [["create", "p1"], ["p1", "tau1"]],
      "[(X)]": [["p2", "tau1"], ["empty", "p2"]],
      "[(X+[x])]": [["tau1", "p2"], ["p2", "empty"]]
    },
    "O": {"P": ["a"]},
    "V": {"P": ["x", "X"]},
    "m_i": "[[([])]·p2]",
    "m_f": "[[([])]·p2]"
  }
]