{
  "type": "tPNID",
  "T": ["create", "A_start", "A_complete", "B_start", "B_complete", "C_start", "C_complete", "D_start", "D_complete", "E_start", "E_complete", "F_start", "F_complete", "G_start", "G_complete",
        "tau_A", "tau_B", "tau_C", "tau_D", "tau_E", "tau_F", "tau_G", "tau_end"],
  "P": ["p_a", "p_a_1", "p_a_2", "p_b", "p_b_1", "p_b_2", "p_c", "p_c_1", "p_c_2", "p_d", "p_d_1", "p_d_2",
        "p_e", "p_e_1", "p_e_2", "p_f", "p_f_1", "p_f_2","p_g", "p_g_1", "p_g_2", "p_h", "p_end",
        "p_a_c", "p_b_c", "p_c_c", "p_d_c", "p_e_c", "p_f_c", "p_g_c", "p_o1", "p_o2", "p_o3"],
  "F": {
    "[([p])]": [
      ["create", "p_a"],
      ["p_a", "A_start"], ["A_complete", "p_b"], ["p_b", "B_start"], ["B_complete", "p_c"], ["p_c", "C_start"], ["C_complete", "p_d"],
      ["p_d", "D_start"], ["D_complete", "p_e"], ["p_e", "E_start"], ["E_complete", "p_f"], ["p_f", "F_start"], ["F_complete", "p_g"],
      ["p_g", "G_start"], ["G_complete", "p_h"], ["p_h", "tau_end"], ["tau_end", "p_end"],
      ["p_b", "tau_A"], ["tau_A", "p_a"], ["p_c", "tau_B"], ["tau_B", "p_b"], ["p_d", "tau_C"], ["tau_C", "p_c"], ["p_e", "tau_D"], ["tau_D", "p_d"],
      ["p_f", "tau_E"], ["tau_E", "p_e"], ["p_g", "tau_F"], ["tau_F", "p_f"], ["p_h", "tau_G"], ["tau_G", "p_g"]
    ],
    "[([c])]": [
      ["p_a_c", "A_start"], ["A_complete", "p_a_c"], ["p_b_c", "B_start"], ["B_complete", "p_b_c"], ["p_c_c", "C_start"], ["C_complete", "p_c_c"],
      ["p_d_c", "D_start"], ["D_complete", "p_d_c"], ["p_e_c", "E_start"], ["E_complete", "p_e_c"], ["p_f_c", "F_start"], ["F_complete", "p_f_c"],
      ["p_g_c", "G_start"], ["G_complete", "p_g_c"]
    ],
    "[([o1])]": [
      ["p_o1", "A_start"], ["A_complete", "p_o1"], ["p_o1", "G_start"], ["G_complete", "p_o1"]
    ],
    "[([o2])]": [
      ["p_o2", "B_start"], ["B_complete", "p_o2"], ["p_o2", "F_start"], ["F_complete", "p_o2"]
    ],
    "[([o3])]": [
      ["p_o3", "C_start"], ["C_complete", "p_o3"], ["p_o3", "D_start"], ["D_complete", "p_o3"], ["p_o3", "E_start"], ["E_complete", "p_o3"]

    ],
    "[([p], [c])]": [
      ["A_start", "p_a_1"], ["p_a_1", "A_complete"], ["B_start", "p_b_1"], ["p_b_1", "B_complete"], ["C_start", "p_c_1"], ["p_c_1", "C_complete"],
      ["D_start", "p_d_1"], ["p_d_1", "D_complete"], ["E_start", "p_e_1"], ["p_e_1", "E_complete"], ["F_start", "p_f_1"], ["p_f_1", "F_complete"],
      ["G_start", "p_g_1"], ["p_g_1", "G_complete"]
    ],
    "[([p], [o1])]": [
      ["A_start", "p_a_2"], ["p_a_2", "A_complete"], ["G_start", "p_g_2"], ["p_g_2", "G_complete"]
    ],
    "[([p], [o2])]": [
      ["B_start", "p_b_2"], ["p_b_2", "B_complete"], ["F_start", "p_f_2"], ["p_f_2", "F_complete"]
    ],
    "[([p], [o3])]": [
      ["C_start", "p_c_2"], ["p_c_2", "C_complete"], ["D_start", "p_d_2"], ["p_d_2", "D_complete"], ["E_start", "p_e_2"], ["p_e_2", "E_complete"]
    ]
  },
  "O": {"P": ["p_001", "..", "p_100"], "O1": ["o1"], "O2": ["o2"], "O3": ["o3"], "C":  ["c_a", "c_b", "c_c", "c_d", "c_e", "c_g", "c_g"]},
  "V": {"P": ["p"], "O1":  ["o1"], "O2":  ["o2"], "O3":  ["o3"], "C": ["c"]},
  "m_i": "[[([o1])]·p_o1, [([o2])]·p_o2, [([o3])]·p_o3, [([c_a])]·p_a_c, [([c_b])]·p_b_c, [([c_c])]·p_c_c, [([c_d])]·p_d_c, [([c_e])]·p_e_c, [([c_f])]·p_f_c, [([c_g])]·p_g_c]",
  "m_f": "[[([o1])]·p_o1, [([o2])]·p_o2, [([o3])]·p_o3, [([c_a])]·p_a_c, [([c_b])]·p_b_c, [([c_c])]·p_c_c, [([c_d])]·p_d_c, [([c_e])]·p_e_c, [([c_f])]·p_f_c, [([c_g])]·p_g_c]"
}