{
  "comment": "M has filtered out p_004 events opposed to M_original, r is for M_original.",
  "M": [
    ["start", "start", "model", {"d": "d1"}, "[[([d1])]\u00b7p_d_off]", "[[([d1])]\u00b7p_d_on]", "2024-04-08 09:00:00"],
    ["start", "start", "model", {"d": "d2"}, "[[([d2])]\u00b7p_d_off]", "[[([d2])]\u00b7p_d_on]", "2024-04-08 09:00:00"],
    ["tau_p_v_ava_-", null, "model", {"v_v": "v1"}, "[[([v1])]\u00b7p_v_ava]", "[[([v1])]\u00b7p_v_ava_-_temp]", "2024-04-08 09:00:00"],
    ["create", "create", "model", {"p": "p_001"}, "[]", "[[([p_001])]\u00b7p1]", "2024-04-08 09:08:42.476073"],
    ["order depot", "order depot", "model", {"p": "p_001", "y": "y"}, "[[([p_001])]\u00b7p1,[([y])]\u00b7q1]", "[[([p_001])]\u00b7p12,[([p_001])]\u00b7p2,[([p_001])]\u00b7p8,[([p_001], [y])]\u00b7q1_]", "2024-04-08 09:08:42.476073"],
    ["register depot", "register depot", "model", {"w": "w2", "p": "p_001"}, "[[([p_001])]\u00b7p8,[([w2])]\u00b7p_w]", "[[([p_001], [w2])]\u00b7p7,[([w2])]\u00b7p_w]", "2024-04-08 09:08:42.476073"],
    ["tau_change_memory_P_W", null, "model", {"v_p1": "p_001", "v_w1": "w2", "v_w2": "w1"}, "[[([p_001], [w2])]\u00b7p7,[([w1]),([w2])]\u00b7p_w]", "[[([p_001], [w1])]\u00b7p7,[([w1]),([w2])]\u00b7p_w,[([p_001], [w1])]\u00b7ps_p7PW]", "2024-04-08 09:08:42.476073"],
    ["tau_queue1", null, "model", {"y": "y", "p": "p_001"}, "[[([p_001], [y])]\u00b7q1_,[([y])]\u00b7q2]", "[[([y])]\u00b7q1,[([p_001], [y])]\u00b7q2_]", "2024-04-08 09:08:42.476073"],
    ["tau_queue2", null, "model", {"p": "p_001", "y": "y"}, "[[([p_001], [y])]\u00b7q2_,[([y])]\u00b7q3]", "[[([y])]\u00b7q2,[([p_001], [y])]\u00b7q3_]", "2024-04-08 09:08:42.476073"],
    ["pick package", "pick package", "model", {"e": "e1", "p": "p_001", "y": "y"}, "[[([p_001])]\u00b7p2,[([e1])]\u00b7p_we,[([p_001], [y])]\u00b7q3_]", "[[([p_001], [e1])]\u00b7p3,[([y])]\u00b7q3]", "2024-04-08 09:08:42.476073"],
    ["create", "create", "model", {"p": "p_002"}, "[]", "[[([p_002])]\u00b7p1]", "2024-04-08 09:14:06.756778"],
    ["order home", "order home", "model", {"p": "p_002", "y": "y"}, "[[([p_002])]\u00b7p1,[([y])]\u00b7q1]", "[[([p_002])]\u00b7p11,[([p_002])]\u00b7p2,[([p_002], [y])]\u00b7q1_]", "2024-04-08 09:14:06.756778"],
    ["tau_queue1", null, "model", {"y": "y", "p": "p_002"}, "[[([p_002], [y])]\u00b7q1_,[([y])]\u00b7q2]", "[[([y])]\u00b7q1,[([p_002], [y])]\u00b7q2_]", "2024-04-08 09:14:06.756778"],
    ["tau_queue2", null, "model", {"p": "p_002", "y": "y"}, "[[([p_002], [y])]\u00b7q2_,[([y])]\u00b7q3]", "[[([y])]\u00b7q2,[([p_002], [y])]\u00b7q3_]", "2024-04-08 09:14:06.756778"],
    ["load in truck", "load in truck", "model", {"p": "p_001", "e": "e1", "v": "v2"}, "[[([p_001], [e1])]\u00b7p3,[([v2])]\u00b7p_v_ava]", "[[([p_001], [v2])]\u00b7p4,[([p_001], [v2])]\u00b7p_v_occ,[([v2])]\u00b7p_v_occ_v,[([e1])]\u00b7p_we]", "2024-04-08 09:25:53.043074"],
    ["pick package", "pick package", "model", {"e": "e1", "p": "p_002", "y": "y"}, "[[([p_002])]\u00b7p2,[([e1])]\u00b7p_we,[([p_002], [y])]\u00b7q3_]", "[[([p_002], [e1])]\u00b7p3,[([y])]\u00b7q3]", "2024-04-08 09:25:53.043074"],
    ["create", "create", "model", {"p": "p_003"}, "[]", "[[([p_003])]\u00b7p1]", "2024-04-08 09:41:36.076838"],
    ["order home", "order home", "model", {"p": "p_003", "y": "y"}, "[[([p_003])]\u00b7p1,[([y])]\u00b7q1]", "[[([p_003])]\u00b7p11,[([p_003])]\u00b7p2,[([p_003], [y])]\u00b7q1_]", "2024-04-08 09:41:36.076838"],
    ["tau_queue1", null, "model", {"y": "y", "p": "p_003"}, "[[([p_003], [y])]\u00b7q1_,[([y])]\u00b7q2]", "[[([y])]\u00b7q1,[([p_003], [y])]\u00b7q2_]", "2024-04-08 09:41:36.076838"],
    ["tau_queue2", null, "model", {"p": "p_003", "y": "y"}, "[[([p_003], [y])]\u00b7q2_,[([y])]\u00b7q3]", "[[([y])]\u00b7q2,[([p_003], [y])]\u00b7q3_]", "2024-04-08 09:41:36.076838"],
    ["load in truck", "load in truck", "model", {"p": "p_002", "e": "e1", "v": "v2"}, "[[([p_002], [e1])]\u00b7p3,[([v2])]\u00b7p_v_ava]", "[[([p_002], [v2])]\u00b7p4,[([p_002], [v2])]\u00b7p_v_occ,[([v2])]\u00b7p_v_occ_v,[([e1])]\u00b7p_we]", "2024-04-08 09:43:59.183090"],
    ["tau_d_1", null, "model", {"p": "p_001", "v": "v2", "d": "d1"}, "[[([p_001], [v2])]\u00b7p4,[([d1])]\u00b7p_d_on]", "[[([p_001], [d1])]\u00b7p6,[([v2], [d1])]\u00b7p_v_d,[([v2])]\u00b7p_v_transit]", "2024-04-08 09:43:59.183090"],
    ["pick package", "pick package", "model", {"e": "e1", "p": "p_003", "y": "y"}, "[[([p_003])]\u00b7p2,[([e1])]\u00b7p_we,[([p_003], [y])]\u00b7q3_]", "[[([p_003], [e1])]\u00b7p3,[([y])]\u00b7q3]", "2024-04-08 09:43:59.183090"],
    ["load in truck", "load in truck", "model", {"p": "p_003", "e": "e1", "v": "v1"}, "[[([p_003], [e1])]\u00b7p3,[([v1])]\u00b7p_v_ava]", "[[([p_003], [v1])]\u00b7p4,[([p_003], [v1])]\u00b7p_v_occ,[([v1])]\u00b7p_v_occ_v,[([e1])]\u00b7p_we]", "2024-04-08 10:00:01.491973"],
    ["tau_d_1", null, "model", {"p": "p_003", "v": "v1", "d": "d2"}, "[[([p_003], [v1])]\u00b7p4,[([d2])]\u00b7p_d_on]", "[[([p_003], [d2])]\u00b7p6,[([v1], [d2])]\u00b7p_v_d,[([v1])]\u00b7p_v_transit]", "2024-04-08 10:00:01.491973"],
    ["tau_swap_correlation_PDV", null, "model", {"v_p1": "p_003", "v_v1": "v1", "v_p2": "p_001", "v_v2": "v2"}, "[[([p_001], [v2]),([p_003], [v1])]\u00b7p_v_occ]", "[[([p_003], [v2]),([p_001], [v1])]\u00b7p_v_occ,[([p_001], [v1]),([p_003], [v2])]\u00b7ps_p_v_occPV]", "2024-04-08 10:00:01.491973"],
    ["deliver depot", "deliver depot", "model", {"v": "v1", "p": "p_001", "w": "w1", "d": "d1"}, "[[([p_001])]\u00b7p12,[([p_001], [d1])]\u00b7p6,[([p_001], [w1])]\u00b7p7,[([p_001], [v1])]\u00b7p_v_occ,[([v1])]\u00b7p_v_occ_v,[([w1])]\u00b7p_w]", "[[([p_001], [w1])]\u00b7p9,[([d1])]\u00b7p_d_on,[([v1])]\u00b7p_v_free]", "2024-04-08 10:11:00.075903"],
    ["tau_free", null, "model", {"v": "v1", "d": "d2"}, "[[([v1], [d2])]\u00b7p_v_d,[([v1])]\u00b7p_v_free,[([v1])]\u00b7p_v_transit]", "[[([v1])]\u00b7p_v_ava]", "2024-04-08 10:18:34.214057"],
    ["ring", "ring", "model", {"p": "p_003", "d": "d2"}, "[[([p_003])]\u00b7p11,[([p_003], [d2])]\u00b7p6]", "[[([p_003], [d2])]\u00b7p5]", "2024-04-08 10:20:40.937855"],
    ["deliver home", "deliver home", "model", {"p": "p_003", "d": "d2", "v": "v2"}, "[[([p_003], [d2])]\u00b7p5,[([p_003], [v2])]\u00b7p_v_occ,[([v2])]\u00b7p_v_occ_v]", "[[([p_003])]\u00b7p10,[([d2])]\u00b7p_d_on,[([v2])]\u00b7p_v_free]", "2024-04-08 10:24:50.051524"],
    ["destroy", "destroy", "model", {"p": "p_003"}, "[[([p_003])]\u00b7p10]", "[]", "2024-04-08 10:24:50.051524"],
    ["tau_d_2", null, "model", {"p": "p_002", "v": "v2", "d": "d1"}, "[[([p_002], [v2])]\u00b7p4,[([d1])]\u00b7p_d_on,[([v2], [d1])]\u00b7p_v_d,[([v2])]\u00b7p_v_transit]", "[[([p_002], [d1])]\u00b7p6,[2\u00b7([v2], [d1])]\u00b7p_v_d,[2\u00b7([v2])]\u00b7p_v_transit]", "2024-04-08 10:25:37.075139"],
    ["deliver home_pos_ring", "deliver home", "model", {"p": "p_002", "d": "d1"}, "[[([p_002])]\u00b7p11,[([p_002], [d1])]\u00b7p6]", "[[([p_002], [d1])]\u00b7p5__]", "2024-04-08 10:25:37.075139"],
    ["ring_pos_deliver home", "ring", "model", {"p": "p_002", "v": "v2", "d": "d1"}, "[[([p_002], [d1])]\u00b7p5__,[([p_002], [v2])]\u00b7p_v_occ,[([v2])]\u00b7p_v_occ_v]", "[[([p_002])]\u00b7p10,[([d1])]\u00b7p_d_on,[([v2])]\u00b7p_v_free]", "2024-04-08 10:25:37.075139"],
    ["tau_free", null, "model", {"v": "v2", "d": "d1"}, "[[([v2], [d1])]\u00b7p_v_d,[([v2])]\u00b7p_v_free,[([v2])]\u00b7p_v_transit]", "[[([v2])]\u00b7p_v_ava]", "2024-04-08 10:25:37.075139"],
    ["destroy", "destroy", "model", {"p": "p_002"}, "[[([p_002])]\u00b7p10]", "[]", "2024-04-08 10:25:37.075139"],
    ["tau_free", null, "model", {"v": "v2", "d": "d1"}, "[[([v2], [d1])]\u00b7p_v_d,[([v2])]\u00b7p_v_free,[([v2])]\u00b7p_v_transit]", "[[([v2])]\u00b7p_v_ava]", "2024-04-08 10:34:20.961414"],
    ["tau_p_v_ava_-_undo", null, "model", {"v_v": "v1"}, "[[([v1])]\u00b7p_v_ava_-_temp]", "[[([v1])]\u00b7p_v_ava]", "2024-04-08 12:00:00"],
    ["collect", "collect", "model", {"p": "p_001", "w": "w1"}, "[[([p_001], [w1])]\u00b7p9]", "[[([p_001])]\u00b7p10,[([w1])]\u00b7p_w]", "2024-04-08 16:01:19.117122"],
    ["destroy", "destroy", "model", {"p": "p_001"}, "[[([p_001])]\u00b7p10]", "[]", "2024-04-08 16:01:19.117122"],
    ["stop", "stop", "model", {"d": "d1"}, "[[([d1])]\u00b7p_d_on]", "[[([d1])]\u00b7p_d_off]", "2024-04-08 18:00:00"],
    ["stop", "stop", "model", {"d": "d2"}, "[[([d2])]\u00b7p_d_on]", "[[([d2])]\u00b7p_d_off]", "2024-04-08 18:00:00"]
  ],
  "M_original": [
    ["start", "start", "model", {"d": "d1"}, "[[([d1])]\u00b7p_d_off]", "[[([d1])]\u00b7p_d_on]", "2024-04-08 09:00:00"],
    ["start", "start", "model", {"d": "d2"}, "[[([d2])]\u00b7p_d_off]", "[[([d2])]\u00b7p_d_on]", "2024-04-08 09:00:00"],
    ["tau_p_v_ava_-", null, "model", {"v_v": "v1"}, "[[([v1])]\u00b7p_v_ava]", "[[([v1])]\u00b7p_v_ava_-_temp]", "2024-04-08 09:00:00"],
    ["create", "create", "model", {"p": "p_001"}, "[]", "[[([p_001])]\u00b7p1]", "2024-04-08 09:08:42.476073"],
    ["order depot", "order depot", "model", {"p": "p_001", "y": "y"}, "[[([p_001])]\u00b7p1,[([y])]\u00b7q1]", "[[([p_001])]\u00b7p12,[([p_001])]\u00b7p2,[([p_001])]\u00b7p8,[([p_001], [y])]\u00b7q1_]", "2024-04-08 09:08:42.476073"],
    ["register depot", "register depot", "model", {"w": "w2", "p": "p_001"}, "[[([p_001])]\u00b7p8,[([w2])]\u00b7p_w]", "[[([p_001], [w2])]\u00b7p7,[([w2])]\u00b7p_w]", "2024-04-08 09:08:42.476073"],
    ["tau_change_memory_P_W", null, "model", {"v_p1": "p_001", "v_w1": "w2", "v_w2": "w1"}, "[[([p_001], [w2])]\u00b7p7,[([w1]),([w2])]\u00b7p_w]", "[[([p_001], [w1])]\u00b7p7,[([w1]),([w2])]\u00b7p_w,[([p_001], [w1])]\u00b7ps_p7PW]", "2024-04-08 09:08:42.476073"],
    ["tau_queue1", null, "model", {"y": "y", "p": "p_001"}, "[[([p_001], [y])]\u00b7q1_,[([y])]\u00b7q2]", "[[([y])]\u00b7q1,[([p_001], [y])]\u00b7q2_]", "2024-04-08 09:08:42.476073"],
    ["tau_queue2", null, "model", {"p": "p_001", "y": "y"}, "[[([p_001], [y])]\u00b7q2_,[([y])]\u00b7q3]", "[[([y])]\u00b7q2,[([p_001], [y])]\u00b7q3_]", "2024-04-08 09:08:42.476073"],
    ["pick package", "pick package", "model", {"e": "e1", "p": "p_001", "y": "y"}, "[[([p_001])]\u00b7p2,[([e1])]\u00b7p_we,[([p_001], [y])]\u00b7q3_]", "[[([p_001], [e1])]\u00b7p3,[([y])]\u00b7q3]", "2024-04-08 09:08:42.476073"],
    ["create", "create", "model", {"p": "p_002"}, "[]", "[[([p_002])]\u00b7p1]", "2024-04-08 09:14:06.756778"],
    ["order home", "order home", "model", {"p": "p_002", "y": "y"}, "[[([p_002])]\u00b7p1,[([y])]\u00b7q1]", "[[([p_002])]\u00b7p11,[([p_002])]\u00b7p2,[([p_002], [y])]\u00b7q1_]", "2024-04-08 09:14:06.756778"],
    ["tau_queue1", null, "model", {"y": "y", "p": "p_002"}, "[[([p_002], [y])]\u00b7q1_,[([y])]\u00b7q2]", "[[([y])]\u00b7q1,[([p_002], [y])]\u00b7q2_]", "2024-04-08 09:14:06.756778"],
    ["tau_queue2", null, "model", {"p": "p_002", "y": "y"}, "[[([p_002], [y])]\u00b7q2_,[([y])]\u00b7q3]", "[[([y])]\u00b7q2,[([p_002], [y])]\u00b7q3_]", "2024-04-08 09:14:06.756778"],
    ["load in truck", "load in truck", "model", {"p": "p_001", "e": "e1", "v": "v2"}, "[[([p_001], [e1])]\u00b7p3,[([v2])]\u00b7p_v_ava]", "[[([p_001], [v2])]\u00b7p4,[([p_001], [v2])]\u00b7p_v_occ,[([v2])]\u00b7p_v_occ_v,[([e1])]\u00b7p_we]", "2024-04-08 09:25:53.043074"],
    ["pick package", "pick package", "model", {"e": "e1", "p": "p_002", "y": "y"}, "[[([p_002])]\u00b7p2,[([e1])]\u00b7p_we,[([p_002], [y])]\u00b7q3_]", "[[([p_002], [e1])]\u00b7p3,[([y])]\u00b7q3]", "2024-04-08 09:25:53.043074"],
    ["create", "create", "model", {"p": "p_003"}, "[]", "[[([p_003])]\u00b7p1]", "2024-04-08 09:41:36.076838"],
    ["order home", "order home", "model", {"p": "p_003", "y": "y"}, "[[([p_003])]\u00b7p1,[([y])]\u00b7q1]", "[[([p_003])]\u00b7p11,[([p_003])]\u00b7p2,[([p_003], [y])]\u00b7q1_]", "2024-04-08 09:41:36.076838"],
    ["tau_queue1", null, "model", {"y": "y", "p": "p_003"}, "[[([p_003], [y])]\u00b7q1_,[([y])]\u00b7q2]", "[[([y])]\u00b7q1,[([p_003], [y])]\u00b7q2_]", "2024-04-08 09:41:36.076838"],
    ["tau_queue2", null, "model", {"p": "p_003", "y": "y"}, "[[([p_003], [y])]\u00b7q2_,[([y])]\u00b7q3]", "[[([y])]\u00b7q2,[([p_003], [y])]\u00b7q3_]", "2024-04-08 09:41:36.076838"],
    ["load in truck", "load in truck", "model", {"p": "p_002", "e": "e1", "v": "v2"}, "[[([p_002], [e1])]\u00b7p3,[([v2])]\u00b7p_v_ava]", "[[([p_002], [v2])]\u00b7p4,[([p_002], [v2])]\u00b7p_v_occ,[([v2])]\u00b7p_v_occ_v,[([e1])]\u00b7p_we]", "2024-04-08 09:43:59.183090"],
    ["tau_d_1", null, "model", {"p": "p_001", "v": "v2", "d": "d1"}, "[[([p_001], [v2])]\u00b7p4,[([d1])]\u00b7p_d_on]", "[[([p_001], [d1])]\u00b7p6,[([v2], [d1])]\u00b7p_v_d,[([v2])]\u00b7p_v_transit]", "2024-04-08 09:43:59.183090"],
    ["pick package", "pick package", "model", {"e": "e1", "p": "p_003", "y": "y"}, "[[([p_003])]\u00b7p2,[([e1])]\u00b7p_we,[([p_003], [y])]\u00b7q3_]", "[[([p_003], [e1])]\u00b7p3,[([y])]\u00b7q3]", "2024-04-08 09:43:59.183090"],
    ["load in truck", "load in truck", "model", {"p": "p_003", "e": "e1", "v": "v1"}, "[[([p_003], [e1])]\u00b7p3,[([v1])]\u00b7p_v_ava]", "[[([p_003], [v1])]\u00b7p4,[([p_003], [v1])]\u00b7p_v_occ,[([v1])]\u00b7p_v_occ_v,[([e1])]\u00b7p_we]", "2024-04-08 10:00:01.491973"],
    ["tau_d_1", null, "model", {"p": "p_003", "v": "v1", "d": "d2"}, "[[([p_003], [v1])]\u00b7p4,[([d2])]\u00b7p_d_on]", "[[([p_003], [d2])]\u00b7p6,[([v1], [d2])]\u00b7p_v_d,[([v1])]\u00b7p_v_transit]", "2024-04-08 10:00:01.491973"],
    ["tau_swap_correlation_PDV", null, "model", {"v_p1": "p_003", "v_v1": "v1", "v_p2": "p_001", "v_v2": "v2"}, "[[([p_001], [v2]),([p_003], [v1])]\u00b7p_v_occ]", "[[([p_003], [v2]),([p_001], [v1])]\u00b7p_v_occ,[([p_001], [v1]),([p_003], [v2])]\u00b7ps_p_v_occPV]", "2024-04-08 10:00:01.491973"],
    ["deliver depot", "deliver depot", "model", {"v": "v1", "p": "p_001", "w": "w1", "d": "d1"}, "[[([p_001])]\u00b7p12,[([p_001], [d1])]\u00b7p6,[([p_001], [w1])]\u00b7p7,[([p_001], [v1])]\u00b7p_v_occ,[([v1])]\u00b7p_v_occ_v,[([w1])]\u00b7p_w]", "[[([p_001], [w1])]\u00b7p9,[([d1])]\u00b7p_d_on,[([v1])]\u00b7p_v_free]", "2024-04-08 10:11:00.075903"],
    ["tau_free", null, "model", {"v": "v1", "d": "d2"}, "[[([v1], [d2])]\u00b7p_v_d,[([v1])]\u00b7p_v_free,[([v1])]\u00b7p_v_transit]", "[[([v1])]\u00b7p_v_ava]", "2024-04-08 10:18:34.214057"],
    ["ring", "ring", "model", {"p": "p_003", "d": "d2"}, "[[([p_003])]\u00b7p11,[([p_003], [d2])]\u00b7p6]", "[[([p_003], [d2])]\u00b7p5]", "2024-04-08 10:20:40.937855"],
    ["create", "create", "model", {"p": "p_004"}, "[]", "[[([p_004])]\u00b7p1]", "2024-04-08 10:22:41.291343"],
    ["order home", "order home", "model", {"p": "p_004", "y": "y"}, "[[([p_004])]\u00b7p1,[([y])]\u00b7q1]", "[[([p_004])]\u00b7p11,[([p_004])]\u00b7p2,[([p_004], [y])]\u00b7q1_]", "2024-04-08 10:22:41.291343"],
    ["tau_queue1", null, "model", {"y": "y", "p": "p_004"}, "[[([p_004], [y])]\u00b7q1_,[([y])]\u00b7q2]", "[[([y])]\u00b7q1,[([p_004], [y])]\u00b7q2_]", "2024-04-08 10:22:41.291343"],
    ["tau_queue2", null, "model", {"p": "p_004", "y": "y"}, "[[([p_004], [y])]\u00b7q2_,[([y])]\u00b7q3]", "[[([y])]\u00b7q2,[([p_004], [y])]\u00b7q3_]", "2024-04-08 10:22:41.291343"],
    ["pick package", "pick package", "model", {"e": "e1", "p": "p_004", "y": "y"}, "[[([p_004])]\u00b7p2,[([e1])]\u00b7p_we,[([p_004], [y])]\u00b7q3_]", "[[([p_004], [e1])]\u00b7p3,[([y])]\u00b7q3]", "2024-04-08 10:22:41.291343"],
    ["deliver home", "deliver home", "model", {"p": "p_003", "d": "d2", "v": "v2"}, "[[([p_003], [d2])]\u00b7p5,[([p_003], [v2])]\u00b7p_v_occ,[([v2])]\u00b7p_v_occ_v]", "[[([p_003])]\u00b7p10,[([d2])]\u00b7p_d_on,[([v2])]\u00b7p_v_free]", "2024-04-08 10:24:50.051524"],
    ["destroy", "destroy", "model", {"p": "p_003"}, "[[([p_003])]\u00b7p10]", "[]", "2024-04-08 10:24:50.051524"],
    ["tau_d_2", null, "model", {"p": "p_002", "v": "v2", "d": "d1"}, "[[([p_002], [v2])]\u00b7p4,[([d1])]\u00b7p_d_on,[([v2], [d1])]\u00b7p_v_d,[([v2])]\u00b7p_v_transit]", "[[([p_002], [d1])]\u00b7p6,[2\u00b7([v2], [d1])]\u00b7p_v_d,[2\u00b7([v2])]\u00b7p_v_transit]", "2024-04-08 10:25:37.075139"],
    ["deliver home_pos_ring", "deliver home", "model", {"p": "p_002", "d": "d1"}, "[[([p_002])]\u00b7p11,[([p_002], [d1])]\u00b7p6]", "[[([p_002], [d1])]\u00b7p5__]", "2024-04-08 10:25:37.075139"],
    ["ring_pos_deliver home", "ring", "model", {"p": "p_002", "v": "v2", "d": "d1"}, "[[([p_002], [d1])]\u00b7p5__,[([p_002], [v2])]\u00b7p_v_occ,[([v2])]\u00b7p_v_occ_v]", "[[([p_002])]\u00b7p10,[([d1])]\u00b7p_d_on,[([v2])]\u00b7p_v_free]", "2024-04-08 10:25:37.075139"],
    ["tau_free", null, "model", {"v": "v2", "d": "d1"}, "[[([v2], [d1])]\u00b7p_v_d,[([v2])]\u00b7p_v_free,[([v2])]\u00b7p_v_transit]", "[[([v2])]\u00b7p_v_ava]", "2024-04-08 10:25:37.075139"],
    ["destroy", "destroy", "model", {"p": "p_002"}, "[[([p_002])]\u00b7p10]", "[]", "2024-04-08 10:25:37.075139"],
    ["tau_free", null, "model", {"v": "v2", "d": "d1"}, "[[([v2], [d1])]\u00b7p_v_d,[([v2])]\u00b7p_v_free,[([v2])]\u00b7p_v_transit]", "[[([v2])]\u00b7p_v_ava]", "2024-04-08 10:34:20.961414"],
    ["load in truck", "load in truck", "model", {"p": "p_004", "e": "e1", "v": "v2"}, "[[([p_004], [e1])]\u00b7p3,[([v2])]\u00b7p_v_ava]", "[[([p_004], [v2])]\u00b7p4,[([p_004], [v2])]\u00b7p_v_occ,[([v2])]\u00b7p_v_occ_v,[([e1])]\u00b7p_we]", "2024-04-08 10:35:18.066839"],
    ["tau_p_v_ava_-_undo", null, "model", {"v_v": "v1"}, "[[([v1])]\u00b7p_v_ava_-_temp]", "[[([v1])]\u00b7p_v_ava]", "2024-04-08 12:00:00"],
    ["collect", "collect", "model", {"p": "p_001", "w": "w1"}, "[[([p_001], [w1])]\u00b7p9]", "[[([p_001])]\u00b7p10,[([w1])]\u00b7p_w]", "2024-04-08 16:01:19.117122"],
    ["destroy", "destroy", "model", {"p": "p_001"}, "[[([p_001])]\u00b7p10]", "[]", "2024-04-08 16:01:19.117122"],
    ["stop", "stop", "model", {"d": "d1"}, "[[([d1])]\u00b7p_d_on]", "[[([d1])]\u00b7p_d_off]", "2024-04-08 18:00:00"],
    ["stop", "stop", "model", {"d": "d2"}, "[[([d2])]\u00b7p_d_on]", "[[([d2])]\u00b7p_d_off]", "2024-04-08 18:00:00"]
  ],
  "r": [
    [0, 0, 0, 0, 0, 0, 1, 0, 0, 0, 0, 0, 0, 0, 0, 0, 0, 0, 0, 0, 0, 1, 0, 0, 1, 1, 1, 1, 1, 0, 0, 0, 0, 0, 1, 1, 1, 1, 1, 1, 1, 1, 1, 0, 1, 1, 1, 1],
    [0, 0, 0, 0, 0, 0, 1, 0, 0, 0, 0, 0, 0, 0, 0, 0, 0, 0, 0, 0, 0, 1, 0, 0, 1, 1, 1, 1, 1, 0, 0, 0, 0, 0, 1, 1, 1, 1, 1, 1, 1, 1, 1, 0, 1, 1, 1, 1],
    [0, 0, 0, 0, 0, 0, 1, 0, 0, 0, 0, 0, 0, 0, 0, 0, 0, 0, 0, 0, 0, 1, 0, 0, 1, 1, 1, 1, 1, 0, 0, 0, 0, 0, 1, 1, 1, 1, 1, 1, 1, 1, 1, 1, 1, 1, 1, 1],
    [0, 0, 0, 0, 1, 1, 1, 1, 1, 1, 0, 1, 1, 1, 1, 1, 0, 1, 1, 1, 1, 1, 1, 1, 1, 1, 1, 1, 1, 0, 1, 1, 1, 1, 1, 1, 1, 1, 1, 1, 1, 1, 1, 0, 1, 1, 1, 1],
    [0, 0, 0, 0, 0, 1, 1, 1, 1, 1, 0, 1, 1, 1, 1, 1, 0, 1, 1, 1, 1, 1, 1, 1, 1, 1, 1, 1, 1, 0, 1, 1, 1, 1, 1, 1, 1, 1, 1, 1, 1, 1, 1, 0, 1, 1, 1, 1],
    [0, 0, 0, 0, 0, 0, 1, 0, 0, 0, 0, 0, 0, 0, 0, 0, 0, 0, 0, 0, 0, 1, 0, 0, 1, 1, 1, 1, 1, 0, 0, 0, 0, 0, 1, 1, 1, 1, 1, 1, 1, 1, 1, 0, 1, 1, 1, 1],
    [0, 0, 0, 0, 0, 0, 0, 0, 0, 0, 0, 0, 0, 0, 0, 0, 0, 0, 0, 0, 0, 1, 0, 0, 1, 1, 1, 1, 1, 0, 0, 0, 0, 0, 1, 1, 1, 1, 1, 1, 1, 1, 1, 0, 1, 1, 1, 1],
    [0, 0, 0, 0, 0, 0, 0, 0, 1, 1, 0, 1, 1, 1, 1, 1, 0, 1, 1, 1, 1, 1, 1, 1, 1, 1, 1, 1, 1, 0, 1, 1, 1, 1, 1, 1, 1, 1, 1, 1, 1, 1, 1, 0, 1, 1, 1, 1],
    [0, 0, 0, 0, 0, 0, 0, 0, 0, 1, 0, 0, 1, 1, 1, 1, 0, 1, 1, 1, 1, 1, 1, 1, 1, 1, 1, 1, 1, 0, 1, 1, 1, 1, 1, 1, 1, 1, 1, 1, 1, 1, 1, 0, 1, 1, 1, 1],
    [0, 0, 0, 0, 0, 0, 0, 0, 0, 0, 0, 0, 0, 1, 1, 1, 0, 0, 1, 1, 1, 1, 1, 1, 1, 1, 1, 1, 1, 0, 1, 1, 1, 1, 1, 1, 1, 1, 1, 1, 1, 1, 1, 0, 1, 1, 1, 1],
    [0, 0, 0, 0, 0, 0, 0, 0, 0, 0, 0, 1, 1, 1, 0, 1, 0, 1, 1, 1, 1, 1, 1, 1, 1, 1, 1, 1, 1, 0, 1, 1, 1, 1, 1, 1, 1, 1, 1, 1, 1, 1, 1, 0, 1, 1, 1, 1],
    [0, 0, 0, 0, 0, 0, 0, 0, 0, 0, 0, 0, 1, 1, 0, 1, 0, 1, 1, 1, 1, 1, 1, 1, 1, 1, 1, 1, 1, 0, 1, 1, 1, 1, 1, 1, 1, 1, 1, 1, 1, 1, 1, 0, 1, 1, 1, 1],
    [0, 0, 0, 0, 0, 0, 0, 0, 0, 0, 0, 0, 0, 1, 0, 1, 0, 1, 1, 1, 1, 1, 1, 1, 1, 1, 1, 1, 1, 0, 1, 1, 1, 1, 1, 1, 1, 1, 1, 1, 1, 1, 1, 0, 1, 1, 1, 1],
    [0, 0, 0, 0, 0, 0, 0, 0, 0, 0, 0, 0, 0, 0, 0, 1, 0, 0, 1, 1, 1, 1, 1, 1, 1, 1, 1, 1, 1, 0, 1, 1, 1, 1, 1, 1, 1, 1, 1, 1, 1, 1, 1, 0, 1, 1, 1, 1],
    [0, 0, 0, 0, 0, 0, 0, 0, 0, 0, 0, 0, 0, 0, 0, 1, 0, 0, 0, 1, 1, 1, 1, 1, 1, 1, 1, 1, 1, 0, 0, 1, 1, 1, 1, 1, 1, 1, 1, 1, 1, 1, 1, 0, 1, 1, 1, 1],
    [0, 0, 0, 0, 0, 0, 0, 0, 0, 0, 0, 0, 0, 0, 0, 0, 0, 0, 0, 1, 1, 1, 1, 1, 1, 1, 1, 1, 1, 0, 0, 1, 1, 1, 1, 1, 1, 1, 1, 1, 1, 1, 1, 0, 1, 1, 1, 1],
    [0, 0, 0, 0, 0, 0, 0, 0, 0, 0, 0, 0, 0, 0, 0, 0, 0, 1, 1, 1, 0, 1, 1, 1, 1, 1, 1, 1, 1, 0, 1, 1, 1, 1, 1, 1, 1, 1, 1, 1, 1, 1, 1, 0, 1, 1, 1, 1],
    [0, 0, 0, 0, 0, 0, 0, 0, 0, 0, 0, 0, 0, 0, 0, 0, 0, 0, 1, 1, 0, 1, 1, 1, 1, 1, 1, 1, 1, 0, 1, 1, 1, 1, 1, 1, 1, 1, 1, 1, 1, 1, 1, 0, 1, 1, 1, 1],
    [0, 0, 0, 0, 0, 0, 0, 0, 0, 0, 0, 0, 0, 0, 0, 0, 0, 0, 0, 1, 0, 1, 1, 1, 1, 1, 1, 1, 1, 0, 1, 1, 1, 1, 1, 1, 1, 1, 1, 1, 1, 1, 1, 0, 1, 1, 1, 1],
    [0, 0, 0, 0, 0, 0, 0, 0, 0, 0, 0, 0, 0, 0, 0, 0, 0, 0, 0, 0, 0, 1, 1, 1, 1, 1, 1, 1, 1, 0, 0, 1, 1, 1, 1, 1, 1, 1, 1, 1, 1, 1, 1, 0, 1, 1, 1, 1],
    [0, 0, 0, 0, 0, 0, 0, 0, 0, 0, 0, 0, 0, 0, 0, 0, 0, 0, 0, 0, 0, 1, 1, 1, 1, 1, 1, 1, 1, 0, 0, 0, 1, 1, 1, 1, 1, 1, 1, 1, 1, 1, 1, 0, 1, 1, 1, 1],
    [0, 0, 0, 0, 0, 0, 0, 0, 0, 0, 0, 0, 0, 0, 0, 0, 0, 0, 0, 0, 0, 0, 0, 0, 1, 1, 1, 1, 1, 0, 0, 0, 0, 0, 1, 1, 1, 1, 1, 1, 1, 1, 1, 0, 1, 1, 1, 1],
    [0, 0, 0, 0, 0, 0, 0, 0, 0, 0, 0, 0, 0, 0, 0, 0, 0, 0, 0, 0, 0, 0, 0, 1, 1, 1, 1, 1, 1, 0, 0, 0, 1, 1, 1, 1, 1, 1, 1, 1, 1, 1, 1, 0, 1, 1, 1, 1],
    [0, 0, 0, 0, 0, 0, 0, 0, 0, 0, 0, 0, 0, 0, 0, 0, 0, 0, 0, 0, 0, 0, 0, 0, 1, 1, 1, 1, 1, 0, 0, 0, 0, 1, 1, 1, 1, 1, 1, 1, 1, 1, 1, 0, 1, 1, 1, 1],
    [0, 0, 0, 0, 0, 0, 0, 0, 0, 0, 0, 0, 0, 0, 0, 0, 0, 0, 0, 0, 0, 0, 0, 0, 0, 1, 1, 1, 1, 0, 0, 0, 0, 0, 1, 1, 1, 1, 1, 1, 1, 1, 1, 0, 1, 1, 1, 1],
    [0, 0, 0, 0, 0, 0, 0, 0, 0, 0, 0, 0, 0, 0, 0, 0, 0, 0, 0, 0, 0, 0, 0, 0, 0, 0, 1, 1, 0, 0, 0, 0, 0, 0, 1, 1, 1, 1, 1, 1, 1, 1, 1, 0, 1, 1, 1, 1],
    [0, 0, 0, 0, 0, 0, 0, 0, 0, 0, 0, 0, 0, 0, 0, 0, 0, 0, 0, 0, 0, 0, 0, 0, 0, 0, 0, 1, 0, 0, 0, 0, 0, 0, 0, 0, 1, 1, 1, 1, 1, 1, 1, 0, 1, 1, 1, 0],
    [0, 0, 0, 0, 0, 0, 0, 0, 0, 0, 0, 0, 0, 0, 0, 0, 0, 0, 0, 0, 0, 0, 0, 0, 0, 0, 0, 0, 0, 0, 0, 0, 0, 0, 0, 0, 0, 0, 0, 0, 0, 0, 1, 0, 0, 0, 0, 0],
    [0, 0, 0, 0, 0, 0, 0, 0, 0, 0, 0, 0, 0, 0, 0, 0, 0, 0, 0, 0, 0, 0, 0, 0, 0, 0, 0, 0, 0, 0, 0, 0, 0, 0, 1, 1, 0, 0, 0, 1, 0, 1, 1, 0, 0, 0, 0, 1],
    [0, 0, 0, 0, 0, 0, 0, 0, 0, 0, 0, 0, 0, 0, 0, 0, 0, 0, 0, 0, 0, 0, 0, 0, 0, 0, 0, 0, 0, 0, 1, 1, 1, 1, 0, 0, 0, 0, 0, 0, 0, 0, 1, 0, 0, 0, 0, 0],
    [0, 0, 0, 0, 0, 0, 0, 0, 0, 0, 0, 0, 0, 0, 0, 0, 0, 0, 0, 0, 0, 0, 0, 0, 0, 0, 0, 0, 0, 0, 0, 1, 1, 1, 0, 0, 0, 0, 0, 0, 0, 0, 1, 0, 0, 0, 0, 0],
    [0, 0, 0, 0, 0, 0, 0, 0, 0, 0, 0, 0, 0, 0, 0, 0, 0, 0, 0, 0, 0, 0, 0, 0, 0, 0, 0, 0, 0, 0, 0, 0, 1, 1, 0, 0, 0, 0, 0, 0, 0, 0, 1, 0, 0, 0, 0, 0],
    [0, 0, 0, 0, 0, 0, 0, 0, 0, 0, 0, 0, 0, 0, 0, 0, 0, 0, 0, 0, 0, 0, 0, 0, 0, 0, 0, 0, 0, 0, 0, 0, 0, 1, 0, 0, 0, 0, 0, 0, 0, 0, 1, 0, 0, 0, 0, 0],
    [0, 0, 0, 0, 0, 0, 0, 0, 0, 0, 0, 0, 0, 0, 0, 0, 0, 0, 0, 0, 0, 0, 0, 0, 0, 0, 0, 0, 0, 0, 0, 0, 0, 0, 0, 0, 0, 0, 0, 0, 0, 0, 1, 0, 0, 0, 0, 0],
    [0, 0, 0, 0, 0, 0, 0, 0, 0, 0, 0, 0, 0, 0, 0, 0, 0, 0, 0, 0, 0, 0, 0, 0, 0, 0, 0, 0, 0, 0, 0, 0, 0, 0, 0, 1, 0, 0, 0, 1, 0, 1, 1, 0, 0, 0, 0, 1],
    [0, 0, 0, 0, 0, 0, 0, 0, 0, 0, 0, 0, 0, 0, 0, 0, 0, 0, 0, 0, 0, 0, 0, 0, 0, 0, 0, 0, 0, 0, 0, 0, 0, 0, 0, 0, 0, 0, 0, 0, 0, 0, 0, 0, 0, 0, 0, 0],
    [0, 0, 0, 0, 0, 0, 0, 0, 0, 0, 0, 0, 0, 0, 0, 0, 0, 0, 0, 0, 0, 0, 0, 0, 0, 0, 0, 0, 0, 0, 0, 0, 0, 0, 0, 0, 0, 1, 1, 1, 1, 1, 1, 0, 0, 0, 1, 0],
    [0, 0, 0, 0, 0, 0, 0, 0, 0, 0, 0, 0, 0, 0, 0, 0, 0, 0, 0, 0, 0, 0, 0, 0, 0, 0, 0, 0, 0, 0, 0, 0, 0, 0, 0, 0, 0, 0, 1, 1, 1, 1, 1, 0, 0, 0, 1, 0],
    [0, 0, 0, 0, 0, 0, 0, 0, 0, 0, 0, 0, 0, 0, 0, 0, 0, 0, 0, 0, 0, 0, 0, 0, 0, 0, 0, 0, 0, 0, 0, 0, 0, 0, 0, 0, 0, 0, 0, 1, 1, 1, 1, 0, 0, 0, 1, 0],
    [0, 0, 0, 0, 0, 0, 0, 0, 0, 0, 0, 0, 0, 0, 0, 0, 0, 0, 0, 0, 0, 0, 0, 0, 0, 0, 0, 0, 0, 0, 0, 0, 0, 0, 0, 0, 0, 0, 0, 0, 0, 0, 1, 0, 0, 0, 0, 0],
    [0, 0, 0, 0, 0, 0, 0, 0, 0, 0, 0, 0, 0, 0, 0, 0, 0, 0, 0, 0, 0, 0, 0, 0, 0, 0, 0, 0, 0, 0, 0, 0, 0, 0, 0, 0, 0, 0, 0, 0, 0, 0, 0, 0, 0, 0, 0, 0],
    [0, 0, 0, 0, 0, 0, 0, 0, 0, 0, 0, 0, 0, 0, 0, 0, 0, 0, 0, 0, 0, 0, 0, 0, 0, 0, 0, 0, 0, 0, 0, 0, 0, 0, 0, 0, 0, 0, 0, 0, 0, 0, 1, 0, 0, 0, 0, 0],
    [0, 0, 0, 0, 0, 0, 0, 0, 0, 0, 0, 0, 0, 0, 0, 0, 0, 0, 0, 0, 0, 0, 0, 0, 0, 0, 0, 0, 0, 0, 0, 0, 0, 0, 0, 0, 0, 0, 0, 0, 0, 0, 0, 0, 0, 0, 0, 0],
    [0, 0, 0, 0, 0, 0, 0, 0, 0, 0, 0, 0, 0, 0, 0, 0, 0, 0, 0, 0, 0, 0, 0, 0, 0, 0, 0, 0, 0, 0, 0, 0, 0, 0, 0, 0, 0, 0, 0, 0, 0, 0, 0, 0, 0, 0, 0, 0],
    [0, 0, 0, 0, 0, 0, 0, 0, 0, 0, 0, 0, 0, 0, 0, 0, 0, 0, 0, 0, 0, 0, 0, 0, 0, 0, 0, 0, 0, 0, 0, 0, 0, 0, 0, 0, 0, 0, 0, 0, 0, 0, 0, 0, 0, 1, 0, 0],
    [0, 0, 0, 0, 0, 0, 0, 0, 0, 0, 0, 0, 0, 0, 0, 0, 0, 0, 0, 0, 0, 0, 0, 0, 0, 0, 0, 0, 0, 0, 0, 0, 0, 0, 0, 0, 0, 0, 0, 0, 0, 0, 0, 0, 0, 0, 0, 0],
    [0, 0, 0, 0, 0, 0, 0, 0, 0, 0, 0, 0, 0, 0, 0, 0, 0, 0, 0, 0, 0, 0, 0, 0, 0, 0, 0, 0, 0, 0, 0, 0, 0, 0, 0, 0, 0, 0, 0, 0, 0, 0, 0, 0, 0, 0, 0, 0],
    [0, 0, 0, 0, 0, 0, 0, 0, 0, 0, 0, 0, 0, 0, 0, 0, 0, 0, 0, 0, 0, 0, 0, 0, 0, 0, 0, 0, 0, 0, 0, 0, 0, 0, 0, 0, 0, 0, 0, 0, 0, 0, 0, 0, 0, 0, 0, 0]
  ],
  "m_i": "[[([d2]),([d1])]\u00b7p_d_off,[2\u00b7([v1]),2·([v2])]\u00b7p_v_ava,[([w1]),([w2])]\u00b7p_w,[([e1])]\u00b7p_we,[([y])]\u00b7q1,[([y])]\u00b7q2,[([y])]\u00b7q3]",
  "Pi": {
    "incorrect position": 1,
    "diff res mem warehouse": 1,
    "neglect batching": 1,
    "swap correlationPD": 1,
    "swap correlationPV": 0
  }
}