{
  "M": [
    ["start", "start", "model", {"d": "d1"}, "[[([d1])]\u00b7p_d_off]", "[[([d1])]\u00b7p_d_on]", "2024-04-08 09:00:00"],
    ["start", "start", "model", {"d": "d2"}, "[[([d2])]\u00b7p_d_off]", "[[([d2])]\u00b7p_d_on]", "2024-04-08 09:00:00"],
    ["tau_p_w_-", null, "model", {"v_w": "w1"}, "[[([w1])]\u00b7p_w]", "[[([w1])]\u00b7p_w_-_temp]", "2024-04-08 09:00:00"],
    ["create", "create", "model", {"p": "p_001"}, "[]", "[[([p_001])]\u00b7p1]", "2024-04-08 09:23:57.283849"],
    ["order home", "order home", "model", {"p": "p_001", "y": "y"}, "[[([p_001])]\u00b7p1,[([y])]\u00b7q1]", "[[([p_001])]\u00b7p11,[([p_001])]\u00b7p2,[([p_001], [y])]\u00b7q1_]", "2024-04-08 09:23:57.283849"],
    ["tau_queue1", null, "model", {"p": "p_001", "y": "y"}, "[[([p_001], [y])]\u00b7q1_,[([y])]\u00b7q2]", "[[([y])]\u00b7q1,[([p_001], [y])]\u00b7q2_]", "2024-04-08 09:23:57.283849"],
    ["tau_queue2", null, "model", {"p": "p_001", "y": "y"}, "[[([p_001], [y])]\u00b7q2_,[([y])]\u00b7q3]", "[[([y])]\u00b7q2,[([p_001], [y])]\u00b7q3_]", "2024-04-08 09:23:57.283849"],
    ["pick package", "pick package", "model", {"p": "p_001", "y": "y", "e": "e1"}, "[[([p_001])]\u00b7p2,[([e1])]\u00b7p_we,[([p_001], [y])]\u00b7q3_]", "[[([p_001], [e1])]\u00b7p3,[([y])]\u00b7q3]", "2024-04-08 09:23:57.283849"],
    ["tau_load in truck_incorrect_V", null, "model", {"v_": "v1", "v": "v2", "p": "p_001", "e": "e1", "v_x": "0"}, "[[([p_001], [e1])]\u00b7p3,[([v2])]\u00b7p_v_ava,[([v2]),([v1])]\u00b7p_v_ava__]", "[[([p_001], [e1])]\u00b7p3_,[([v1])]\u00b7p_v_ava_,[([v2]),([v1])]\u00b7p_v_ava__,[([v1], [0]),([v2], [0])]\u00b7p_v_ava_cr_]", "2024-04-08 09:33:45.953604"],
    ["load in truck_incorrect_V", "load in truck", "model", {"v_": "v1", "p": "p_001", "e": "e1"}, "[[([p_001], [e1])]\u00b7p3_,[([v1])]\u00b7p_v_ava_]", "[[([p_001], [v1])]\u00b7p4_,[([p_001], [v1])]\u00b7p_v_occ_,[([v1])]\u00b7p_v_occ_v_,[([e1])]\u00b7p_we_]", "2024-04-08 09:33:45.953604"],
    ["tau2_load in truck_incorrect_V", null, "model", {"p": "p_001", "v_": "v1", "v_x": "0", "e": "e1", "v": "v2"}, "[[([p_001], [v1])]\u00b7p4_,[([v2], [0]),([v1], [0])]\u00b7p_v_ava_cr_,[([p_001], [v1])]\u00b7p_v_occ_,[([v1])]\u00b7p_v_occ_v_,[([e1])]\u00b7p_we_]", "[[([p_001], [v2])]\u00b7p4,[([p_001], [v2])]\u00b7p_v_occ,[([v2])]\u00b7p_v_occ_v,[([e1])]\u00b7p_we]", "2024-04-08 09:33:45.953604"],
    ["tau_d_1", null, "model", {"d": "d1", "p": "p_001", "v": "v2"}, "[[([p_001], [v2])]\u00b7p4,[([d1])]\u00b7p_d_on]", "[[([p_001], [d1])]\u00b7p6,[([v2], [d1])]\u00b7p_v_d,[([v2])]\u00b7p_v_transit]", "2024-04-08 09:33:45.953604"],
    ["create", "create", "model", {"p": "p_002"}, "[]", "[[([p_002])]\u00b7p1]", "2024-04-08 09:49:34.040246"],
    ["order depot", "order depot", "model", {"p": "p_002", "y": "y"}, "[[([p_002])]\u00b7p1,[([y])]\u00b7q1]", "[[([p_002])]\u00b7p12,[([p_002])]\u00b7p2,[([p_002])]\u00b7p8,[([p_002], [y])]\u00b7q1_]", "2024-04-08 09:49:34.040246"],
    ["tau_queue1", null, "model", {"p": "p_002", "y": "y"}, "[[([p_002], [y])]\u00b7q1_,[([y])]\u00b7q2]", "[[([y])]\u00b7q1,[([p_002], [y])]\u00b7q2_]", "2024-04-08 09:49:34.040246"],
    ["tau_queue2", null, "model", {"p": "p_002", "y": "y"}, "[[([p_002], [y])]\u00b7q2_,[([y])]\u00b7q3]", "[[([y])]\u00b7q2,[([p_002], [y])]\u00b7q3_]", "2024-04-08 09:49:34.040246"],
    ["register depot", "register depot", "model", {"w": "w1", "p": "p_002"}, "[[([p_002])]\u00b7p8,[([w1])]\u00b7p_w]", "[[([p_002], [w1])]\u00b7p7,[([w1])]\u00b7p_w]", "2024-04-08 09:49:34.040246"],
    ["pick package", "pick package", "model", {"p": "p_002", "y": "y", "e": "e1"}, "[[([p_002])]\u00b7p2,[([e1])]\u00b7p_we,[([p_002], [y])]\u00b7q3_]", "[[([p_002], [e1])]\u00b7p3,[([y])]\u00b7q3]", "2024-04-08 09:49:34.040246"],
    ["ring", "ring", "model", {"p": "p_001", "d": "d1"}, "[[([p_001])]\u00b7p11,[([p_001], [d1])]\u00b7p6]", "[[([p_001], [d1])]\u00b7p5]", "2024-04-08 10:04:07.807036"],
    ["tau_2", null, "model", {"p": "p_001", "d": "d1"}, "[[([p_001], [d1])]\u00b7p5]", "[[([p_001])]\u00b7p12,[([p_001], [d1])]\u00b7p6,[([p_001])]\u00b7p8]", "2024-04-08 10:08:00.072497"],
    ["register depot", "register depot", "model", {"w": "w1", "p": "p_001"}, "[[([p_001])]\u00b7p8,[([w1])]\u00b7p_w]", "[[([p_001], [w1])]\u00b7p7,[([w1])]\u00b7p_w]", "2024-04-08 10:08:00.072497"],
    ["load in truck", "load in truck", "model", {"v": "v1", "p": "p_002", "e": "e1"}, "[[([p_002], [e1])]\u00b7p3,[([v1])]\u00b7p_v_ava]", "[[([p_002], [v1])]\u00b7p4,[([p_002], [v1])]\u00b7p_v_occ,[([v1])]\u00b7p_v_occ_v,[([e1])]\u00b7p_we]", "2024-04-08 10:11:57.782368"],
    ["tau_d_1", null, "model", {"d": "d2", "p": "p_002", "v": "v1"}, "[[([p_002], [v1])]\u00b7p4,[([d2])]\u00b7p_d_on]", "[[([p_002], [d2])]\u00b7p6,[([v1], [d2])]\u00b7p_v_d,[([v1])]\u00b7p_v_transit]", "2024-04-08 10:11:57.782368"],
    ["deliver depot", "deliver depot", "model", {"p": "p_001", "v": "v2", "w": "w1", "d": "d1"}, "[[([p_001])]\u00b7p12,[([p_001], [d1])]\u00b7p6,[([p_001], [w1])]\u00b7p7,[([p_001], [v2])]\u00b7p_v_occ,[([v2])]\u00b7p_v_occ_v,[([w1])]\u00b7p_w]", "[[([p_001], [w1])]\u00b7p9,[([d1])]\u00b7p_d_on,[([v2])]\u00b7p_v_free]", "2024-04-08 10:12:48.729553"],
    ["tau_free", null, "model", {"v": "v2", "d": "d1"}, "[[([v2], [d1])]\u00b7p_v_d,[([v2])]\u00b7p_v_free,[([v2])]\u00b7p_v_transit]", "[[([v2])]\u00b7p_v_ava]", "2024-04-08 10:20:52.472466"],
    ["tau_destroy^p6\u21be{D}_{P}", null, "model", {"p": "p_002", "d": "d2"}, "[[([p_002])]\u00b7p12,[([p_002], [d2])]\u00b7p6]", "[[([p_002])]\u00b7p12,[([d2])]\u00b7p6\u21be{D},[([p_002])]\u00b7p6\u21be{P}]", "2024-04-08 10:21:26.365578"],
    ["tau_p_w_-_undo", null, "model", {"v_w": "w1"}, "[[([w1])]\u00b7p_w_-_temp]", "[[([w1])]\u00b7p_w]", "2024-04-08 15:00:00"],
    ["deliver depot_neglect_D", "deliver depot", "model", {"p": "p_002", "v": "v1", "w": "w1"}, "[[([p_002])]\u00b7p12,[([p_002])]\u00b7p6\u21be{P},[([p_002], [w1])]\u00b7p7,[([p_002], [v1])]\u00b7p_v_occ,[([v1])]\u00b7p_v_occ_v,[([w1])]\u00b7p_w]", "[[([p_002])]\u00b7p12_,[([p_002])]\u00b7p6\u21be{P}_,[([p_002], [w1])]\u00b7p7_,[([p_002], [w1])]\u00b7p9,[([v1])]\u00b7p_v_free,[([p_002], [v1])]\u00b7p_v_occ_,[([v1])]\u00b7p_v_occ_v_,[([w1])]\u00b7p_w_]", "2024-04-08 15:00:00"],
    ["tau_deliver depot_D", null, "model", {"p": "p_002", "v": "v1", "d": "d2", "w": "w1"}, "[[([p_002])]\u00b7p12_,[([d2])]\u00b7p6\u21be{D},[([p_002])]\u00b7p6\u21be{P}_,[([p_002], [w1])]\u00b7p7_,[([p_002], [v1])]\u00b7p_v_occ_,[([v1])]\u00b7p_v_occ_v_,[([w1])]\u00b7p_w_]", "[[([d2])]\u00b7p_d_on]", "2024-04-08 15:00:00"],
    ["tau_free", null, "model", {"v": "v1", "d": "d2"}, "[[([v1], [d2])]\u00b7p_v_d,[([v1])]\u00b7p_v_free,[([v1])]\u00b7p_v_transit]", "[[([v1])]\u00b7p_v_ava]", "2024-04-08 15:12:06.899216"],
    ["stop", "stop", "model", {"d": "d1"}, "[[([d1])]\u00b7p_d_on]", "[[([d1])]\u00b7p_d_off]", "2024-04-08 18:00:00"],
    ["stop", "stop", "model", {"d": "d2"}, "[[([d2])]\u00b7p_d_on]", "[[([d2])]\u00b7p_d_off]", "2024-04-08 18:00:00"],
    ["collect", "collect", "model", {"p": "p_001", "w": "w1"}, "[[([p_001], [w1])]\u00b7p9]", "[[([p_001])]\u00b7p10,[([w1])]\u00b7p_w]", "2024-04-08 19:14:10.309093"],
    ["destroy", "destroy", "model", {"p": "p_001"}, "[[([p_001])]\u00b7p10]", "[]", "2024-04-08 19:14:10.309093"],
    ["collect", "collect", "model", {"p": "p_002", "w": "w1"}, "[[([p_002], [w1])]\u00b7p9]", "[[([p_002])]\u00b7p10,[([w1])]\u00b7p_w]", "2024-04-08 21:47:06.146006"],
    ["destroy", "destroy", "model", {"p": "p_002"}, "[[([p_002])]\u00b7p10]", "[]", "2024-04-08 21:47:06.146006"]
  ],
  "r": [
    [0, 0, 0, 0, 0, 0, 0, 0, 0, 0, 0, 1, 0, 0, 0, 0, 0, 0, 1, 1, 1, 0, 1, 1, 1, 1, 0, 1, 1, 1, 1, 1, 1, 1, 1, 1],
    [0, 0, 0, 0, 0, 0, 0, 0, 0, 0, 0, 1, 0, 0, 0, 0, 0, 0, 1, 1, 1, 0, 1, 1, 1, 1, 0, 1, 1, 1, 1, 1, 1, 1, 1, 1],
    [0, 0, 0, 0, 0, 0, 0, 0, 0, 0, 0, 1, 0, 0, 0, 0, 0, 0, 1, 1, 1, 0, 1, 1, 1, 1, 1, 1, 1, 1, 1, 1, 1, 1, 1, 1],
    [0, 0, 0, 0, 1, 1, 1, 1, 1, 1, 1, 1, 0, 1, 1, 1, 1, 1, 1, 1, 1, 1, 1, 1, 1, 1, 0, 1, 1, 1, 1, 1, 1, 1, 1, 1],
    [0, 0, 0, 0, 0, 1, 1, 1, 1, 1, 1, 1, 0, 1, 1, 1, 1, 1, 1, 1, 1, 1, 1, 1, 1, 1, 0, 1, 1, 1, 1, 1, 1, 1, 1, 1],
    [0, 0, 0, 0, 0, 0, 1, 1, 1, 1, 1, 1, 0, 1, 1, 1, 1, 1, 1, 1, 1, 1, 1, 1, 1, 1, 0, 1, 1, 1, 1, 1, 1, 1, 1, 1],
    [0, 0, 0, 0, 0, 0, 0, 1, 1, 1, 1, 1, 0, 0, 1, 1, 0, 1, 1, 1, 1, 1, 1, 1, 1, 1, 0, 1, 1, 1, 1, 1, 1, 1, 1, 1],
    [0, 0, 0, 0, 0, 0, 0, 0, 1, 1, 1, 1, 0, 0, 0, 1, 0, 1, 1, 1, 1, 1, 1, 1, 1, 1, 0, 1, 1, 1, 1, 1, 1, 1, 1, 1],
    [0, 0, 0, 0, 0, 0, 0, 0, 0, 1, 1, 1, 0, 0, 0, 0, 0, 1, 1, 1, 1, 1, 1, 1, 1, 1, 0, 1, 1, 1, 1, 1, 1, 1, 1, 1],
    [0, 0, 0, 0, 0, 0, 0, 0, 0, 0, 1, 1, 0, 0, 0, 0, 0, 1, 1, 1, 1, 1, 1, 1, 1, 1, 0, 1, 1, 1, 1, 1, 1, 1, 1, 1],
    [0, 0, 0, 0, 0, 0, 0, 0, 0, 0, 0, 1, 0, 0, 0, 0, 0, 1, 1, 1, 1, 1, 1, 1, 1, 1, 0, 1, 1, 1, 1, 1, 1, 1, 1, 1],
    [0, 0, 0, 0, 0, 0, 0, 0, 0, 0, 0, 0, 0, 0, 0, 0, 0, 0, 1, 1, 1, 0, 1, 1, 1, 1, 0, 1, 1, 1, 1, 1, 1, 1, 1, 1],
    [0, 0, 0, 0, 0, 0, 0, 0, 0, 0, 0, 0, 0, 1, 1, 1, 1, 1, 0, 0, 1, 1, 1, 1, 1, 1, 0, 1, 1, 1, 1, 1, 1, 1, 1, 1],
    [0, 0, 0, 0, 0, 0, 0, 0, 0, 0, 0, 0, 0, 0, 1, 1, 1, 1, 0, 0, 1, 1, 1, 1, 1, 1, 0, 1, 1, 1, 1, 1, 1, 1, 1, 1],
    [0, 0, 0, 0, 0, 0, 0, 0, 0, 0, 0, 0, 0, 0, 0, 1, 0, 1, 0, 0, 0, 1, 1, 0, 0, 1, 0, 1, 1, 1, 0, 1, 0, 0, 1, 1],
    [0, 0, 0, 0, 0, 0, 0, 0, 0, 0, 0, 0, 0, 0, 0, 0, 0, 1, 0, 0, 0, 1, 1, 0, 0, 1, 0, 1, 1, 1, 0, 1, 0, 0, 1, 1],
    [0, 0, 0, 0, 0, 0, 0, 0, 0, 0, 0, 0, 0, 0, 0, 0, 0, 0, 0, 0, 1, 0, 1, 1, 1, 1, 0, 1, 1, 1, 1, 1, 1, 1, 1, 1],
    [0, 0, 0, 0, 0, 0, 0, 0, 0, 0, 0, 0, 0, 0, 0, 0, 0, 0, 0, 0, 0, 1, 1, 0, 0, 1, 0, 1, 1, 1, 0, 1, 0, 0, 1, 1],
    [0, 0, 0, 0, 0, 0, 0, 0, 0, 0, 0, 0, 0, 0, 0, 0, 0, 0, 0, 1, 1, 0, 1, 1, 1, 1, 0, 1, 1, 1, 1, 1, 1, 1, 1, 1],
    [0, 0, 0, 0, 0, 0, 0, 0, 0, 0, 0, 0, 0, 0, 0, 0, 0, 0, 0, 0, 1, 0, 1, 1, 1, 1, 0, 1, 1, 1, 1, 1, 1, 1, 1, 1],
    [0, 0, 0, 0, 0, 0, 0, 0, 0, 0, 0, 0, 0, 0, 0, 0, 0, 0, 0, 0, 0, 0, 1, 1, 1, 1, 0, 1, 1, 1, 1, 1, 1, 1, 1, 1],
    [0, 0, 0, 0, 0, 0, 0, 0, 0, 0, 0, 0, 0, 0, 0, 0, 0, 0, 0, 0, 0, 0, 1, 0, 0, 1, 0, 1, 1, 1, 0, 1, 0, 0, 1, 1],
    [0, 0, 0, 0, 0, 0, 0, 0, 0, 0, 0, 0, 0, 0, 0, 0, 0, 0, 0, 0, 0, 0, 0, 0, 0, 1, 0, 1, 1, 1, 0, 1, 0, 0, 1, 1],
    [0, 0, 0, 0, 0, 0, 0, 0, 0, 0, 0, 0, 0, 0, 0, 0, 0, 0, 0, 0, 0, 0, 0, 0, 1, 0, 0, 0, 0, 1, 1, 0, 1, 1, 0, 0],
    [0, 0, 0, 0, 0, 0, 0, 0, 0, 0, 0, 0, 0, 0, 0, 0, 0, 0, 0, 0, 0, 0, 0, 0, 0, 0, 0, 0, 0, 0, 0, 0, 0, 0, 0, 0],
    [0, 0, 0, 0, 0, 0, 0, 0, 0, 0, 0, 0, 0, 0, 0, 0, 0, 0, 0, 0, 0, 0, 0, 0, 0, 0, 0, 1, 1, 1, 0, 1, 0, 0, 1, 1],
    [0, 0, 0, 0, 0, 0, 0, 0, 0, 0, 0, 0, 0, 0, 0, 0, 0, 0, 0, 0, 0, 0, 0, 0, 0, 0, 0, 1, 1, 1, 0, 1, 0, 0, 1, 1],
    [0, 0, 0, 0, 0, 0, 0, 0, 0, 0, 0, 0, 0, 0, 0, 0, 0, 0, 0, 0, 0, 0, 0, 0, 0, 0, 0, 0, 1, 1, 0, 1, 0, 0, 1, 1],
    [0, 0, 0, 0, 0, 0, 0, 0, 0, 0, 0, 0, 0, 0, 0, 0, 0, 0, 0, 0, 0, 0, 0, 0, 0, 0, 0, 0, 0, 0, 0, 1, 0, 0, 0, 0],
    [0, 0, 0, 0, 0, 0, 0, 0, 0, 0, 0, 0, 0, 0, 0, 0, 0, 0, 0, 0, 0, 0, 0, 0, 0, 0, 0, 0, 0, 0, 0, 0, 0, 0, 0, 0],
    [0, 0, 0, 0, 0, 0, 0, 0, 0, 0, 0, 0, 0, 0, 0, 0, 0, 0, 0, 0, 0, 0, 0, 0, 0, 0, 0, 0, 0, 0, 0, 0, 0, 0, 0, 0],
    [0, 0, 0, 0, 0, 0, 0, 0, 0, 0, 0, 0, 0, 0, 0, 0, 0, 0, 0, 0, 0, 0, 0, 0, 0, 0, 0, 0, 0, 0, 0, 0, 0, 0, 0, 0],
    [0, 0, 0, 0, 0, 0, 0, 0, 0, 0, 0, 0, 0, 0, 0, 0, 0, 0, 0, 0, 0, 0, 0, 0, 0, 0, 0, 0, 0, 0, 0, 0, 0, 1, 0, 0],
    [0, 0, 0, 0, 0, 0, 0, 0, 0, 0, 0, 0, 0, 0, 0, 0, 0, 0, 0, 0, 0, 0, 0, 0, 0, 0, 0, 0, 0, 0, 0, 0, 0, 0, 0, 0],
    [0, 0, 0, 0, 0, 0, 0, 0, 0, 0, 0, 0, 0, 0, 0, 0, 0, 0, 0, 0, 0, 0, 0, 0, 0, 0, 0, 0, 0, 0, 0, 0, 0, 0, 0, 1],
    [0, 0, 0, 0, 0, 0, 0, 0, 0, 0, 0, 0, 0, 0, 0, 0, 0, 0, 0, 0, 0, 0, 0, 0, 0, 0, 0, 0, 0, 0, 0, 0, 0, 0, 0, 0]
  ],
  "m_i": "[[([d2]),([d1])]\u00b7p_d_off,[([v2]),([v1])]\u00b7p_v_ava,[2\u00b7([w1])]\u00b7p_w,[([e1])]\u00b7p_we,[([y])]\u00b7q1,[([y])]\u00b7q2,[([y])]\u00b7q3]",
  "Pi": {
    "incorrect V object": 1,
    "neglect deliverer deliver depot": 1,
    "decrease warehouse cap": 0
  }
}