{
  "events": [
    ["o_p",  1, ["a1"]],
    ["o_a",  1, ["a1"]],
    ["o_so", 1, ["d1"]],
    ["o_p",  2, ["a1"]],
    ["o_a",  2, ["a1"]],
    ["o_sc", 2, ["d1"]],
    ["o_c",  2, ["d1"]]
  ],
  "<": "all",
  "||": []
}