{
  "events": [
    ["i_s",  1, ["d1"]],
    ["o_p",  1, ["d1", "a1"]],
    ["i_m",  1, ["a2"]],
    ["p_w",  1, ["d2"]],
    ["w_e",  1, []],
    ["w_l",  1, []]
  ],
  "<": [[0,1], [1,2], [2,3], [3,4], [4,5]],
  "||": []
}
