{
  "events": [
    ["i_s",  1, ["d1"]],
    ["i_p",  2, ["d1"]],
    ["o_p",  1, ["d1", "a1"]],
    ["i_m",  1, ["a2"]],
    ["o_s",  2, ["d1"]],
    ["p_w",  1, ["d2"]],
    ["o_a",  2, ["a1"]],
    ["o_f",  2, ["d1", "a1"]],
    ["w_e",  1, []],
    ["p_w",  2, []],
    ["w_e",  2, []],
    ["w_l",  2, []],
    ["w_l",  1, []],
    ["p_r",  2, []]
  ],
  "<": [[0,2], [2,3], [3,5], [5,8], [8,12],
    [1,4], [4,6], [4,7], [6,9], [7,9], [9,10],[10,11],[11,13],
    [0,1], [1,2],[3,4], [4,5], [5,6], [5,7], [6,8], [7,8], [8,9], [11,12]],
  "||": []
}
