{
  "N": "./datasets/nets/delivery_extended_relaxed.json",
  "L": "./datasets/logs/delivery_extended/log_unhindered_col_3_small.json",
  "info": {
    "cost": 11018003,
    "visited": 30482,
    "queued": 710503,
    "traversed": 710503,
    "lp_solved": 368884,
    "enabled_check": 318271,
    "duration": 1483.494693994522
  },
  "exact": true,
  "relaxed": true,
  "m_i": "[[([d1]),([d2])]\u00b7p_d_off,[2\u00b7([v1])]\u00b7p_v_ava,[([w1])]\u00b7p_w,[([e1])]\u00b7p_we,[([y])]\u00b7q1,[([y])]\u00b7q2,[([y])]\u00b7q3]",
  "m_f": "[[([d1]),([d2])]\u00b7p_d_off,[2\u00b7([v1])]\u00b7p_v_ava,[([w1])]\u00b7p_w,[([e1])]\u00b7p_we,[([y])]\u00b7q1,[([y])]\u00b7q2,[([y])]\u00b7q3]",
  "M": [
    ["tau_start_0", null, "log", {"d1": "d1"}, "[[([d1])]\u00b7p_D^(0)]", "[[([d1])]\u00b7p_D^(.0)]"],
    ["start_0-start", "start", "synchronous", {"d": "d1"}, "[[([d1])]\u00b7p_D^(.0),[([d1])]\u00b7p_d_off]", "[[([d1])]\u00b7p_D^(0,1),[([d1])]\u00b7p_d_on]"],
    ["tau_start_1", null, "log", {"d2": "d2", "d1": "d1"}, "[[([d1])]\u00b7p_D^(0,1),[([d2])]\u00b7p_D^(1)]", "[[([d2])]\u00b7p_D^(.1)]"],
    ["start_1-start", "start", "synchronous", {"d": "d2"}, "[[([d2])]\u00b7p_D^(.1),[([d2])]\u00b7p_d_off]", "[[([d2])]\u00b7p_D^(1,2),[([d2])]\u00b7p_d_on]"],
    ["tau_create_2", null, "log", {"p_001": "p_001", "d2": "d2"}, "[[([d2])]\u00b7p_D^(1,2),[([p_001])]\u00b7p_P^(2)]", "[[([p_001])]\u00b7p_P^(.2)]"],
    ["create_2-create", "create", "synchronous", {"p": "p_001"}, "[[([p_001])]\u00b7p_P^(.2)]", "[[([p_001])]\u00b7p1,[([p_001])]\u00b7p_P^(2,3)]"],
    ["tau_order home_3", null, "log", {"p_001": "p_001", "y": "y"}, "[[([p_001])]\u00b7p_P^(2,3),[([p_001])]\u00b7p_P^(3),[([y])]\u00b7p_Y^(3)]", "[[([p_001])]\u00b7p_P^(.3),[([y])]\u00b7p_Y^(.3)]"],
    ["order home_3-order home", "order home", "synchronous", {"y": "y", "p": "p_001"}, "[[([p_001])]\u00b7p1,[([p_001])]\u00b7p_P^(.3),[([y])]\u00b7p_Y^(.3),[([y])]\u00b7q1]", "[[([p_001])]\u00b7p11,[([p_001])]\u00b7p2,[([p_001])]\u00b7p_P^(3,4),[([y])]\u00b7p_Y^(3,4),[([p_001], [y])]\u00b7q1_]"],
    ["tau_queue1", null, "model", {"p": "p_001", "y": "y"}, "[[([p_001], [y])]\u00b7q1_,[([y])]\u00b7q2]", "[[([y])]\u00b7q1,[([p_001], [y])]\u00b7q2_]"],
    ["tau_queue2", null, "model", {"y": "y", "p": "p_001"}, "[[([p_001], [y])]\u00b7q2_,[([y])]\u00b7q3]", "[[([y])]\u00b7q2,[([p_001], [y])]\u00b7q3_]"],
    ["tau_pick package_4", null, "log", {"y": "y", "e1": "e1", "p_001": "p_001"}, "[[([e1])]\u00b7p_E^(4),[([p_001])]\u00b7p_P^(3,4),[([p_001])]\u00b7p_P^(4),[([y])]\u00b7p_Y^(3,4),[([y])]\u00b7p_Y^(4)]", "[[([e1])]\u00b7p_E^(.4),[([p_001])]\u00b7p_P^(.4),[([y])]\u00b7p_Y^(.4)]"],
    ["pick package_4-pick package", "pick package", "synchronous", {"p": "p_001", "e": "e1", "y": "y"}, "[[([p_001])]\u00b7p2,[([e1])]\u00b7p_E^(.4),[([p_001])]\u00b7p_P^(.4),[([y])]\u00b7p_Y^(.4),[([e1])]\u00b7p_we,[([p_001], [y])]\u00b7q3_]", "[[([p_001], [e1])]\u00b7p3,[([e1])]\u00b7p_E^(4,5),[([p_001])]\u00b7p_P^(4,5),[([y])]\u00b7p_Y^(4,5),[([y])]\u00b7q3]"],
    ["load in truck\u21be{e,p}", "load in truck\u21be{e,p}", "model", {"p": "p_001", "e": "e1"}, "[[([p_001], [e1])]\u00b7p3]", "[[([p_001])]\u00b7p4\u21be{P},[([p_001])]\u00b7p_v_occ\u21be{P},[([e1])]\u00b7p_we]"],
    ["tau_load in truck_missing_V_5", null, "log", {"e1": "e1", "y": "y", "p_001": "p_001"}, "[[([e1])]\u00b7p_E^(4,5),[([e1])]\u00b7p_E^(5),[([p_001])]\u00b7p_P^(4,5),[([p_001])]\u00b7p_P^(5),[([y])]\u00b7p_Y^(4,5)]", "[[([e1])]\u00b7p_E^(.5),[([p_001])]\u00b7p_P^(.5)]"],
    ["load in truck_missing_V_5", "load in truck_missing_V", "log", {"e1": "e1", "p_001": "p_001"}, "[[([e1])]\u00b7p_E^(.5),[([p_001])]\u00b7p_P^(.5)]", "[[([e1])]\u00b7p_E^(5,6),[([p_001])]\u00b7p_P^(5,6)]"],
    ["tau_create_6", null, "log", {"p_002": "p_002", "e1": "e1", "p_001": "p_001"}, "[[([e1])]\u00b7p_E^(5,6),[([p_001])]\u00b7p_P^(5,6),[([p_002])]\u00b7p_P^(6)]", "[[([p_002])]\u00b7p_P^(.6)]"],
    ["create_6-create", "create", "synchronous", {"p": "p_002"}, "[[([p_002])]\u00b7p_P^(.6)]", "[[([p_002])]\u00b7p1,[([p_002])]\u00b7p_P^(6,7)]"],
    ["tau_order depot_7", null, "log", {"p_002": "p_002", "y": "y"}, "[[([p_002])]\u00b7p_P^(6,7),[([p_002])]\u00b7p_P^(7),[([y])]\u00b7p_Y^(7)]", "[[([p_002])]\u00b7p_P^(.7),[([y])]\u00b7p_Y^(.7)]"],
    ["order depot_7-order depot", "order depot", "synchronous", {"p": "p_002", "y": "y"}, "[[([p_002])]\u00b7p1,[([p_002])]\u00b7p_P^(.7),[([y])]\u00b7p_Y^(.7),[([y])]\u00b7q1]", "[[([p_002])]\u00b7p12,[([p_002])]\u00b7p2,[([p_002])]\u00b7p8,[([p_002])]\u00b7p_P^(7,8),[([y])]\u00b7p_Y^(7,8),[([p_002], [y])]\u00b7q1_]"],
    ["tau_queue1", null, "model", {"p": "p_002", "y": "y"}, "[[([p_002], [y])]\u00b7q1_,[([y])]\u00b7q2]", "[[([y])]\u00b7q1,[([p_002], [y])]\u00b7q2_]"],
    ["tau_queue2", null, "model", {"y": "y", "p": "p_002"}, "[[([p_002], [y])]\u00b7q2_,[([y])]\u00b7q3]", "[[([y])]\u00b7q2,[([p_002], [y])]\u00b7q3_]"],
    ["tau_register depot_8", null, "log", {"p_002": "p_002", "y": "y", "w1": "w1"}, "[[([p_002])]\u00b7p_P^(7,8),[([p_002])]\u00b7p_P^(8),[([w1])]\u00b7p_W^(8),[([y])]\u00b7p_Y^(7,8)]", "[[([p_002])]\u00b7p_P^(.8),[([w1])]\u00b7p_W^(.8)]"],
    ["register depot_8-register depot", "register depot", "synchronous", {"p": "p_002", "w": "w1"}, "[[([p_002])]\u00b7p8,[([p_002])]\u00b7p_P^(.8),[([w1])]\u00b7p_W^(.8),[([w1])]\u00b7p_w]", "[[([p_002], [w1])]\u00b7p7,[([p_002])]\u00b7p_P^(8,9),[([w1])]\u00b7p_W^(8,9),[([w1])]\u00b7p_w]"],
    ["tau_pick package_9", null, "log", {"y": "y", "p_002": "p_002", "e1": "e1", "w1": "w1"}, "[[([e1])]\u00b7p_E^(9),[([p_002])]\u00b7p_P^(8,9),[([p_002])]\u00b7p_P^(9),[([w1])]\u00b7p_W^(8,9),[([y])]\u00b7p_Y^(9)]", "[[([e1])]\u00b7p_E^(.9),[([p_002])]\u00b7p_P^(.9),[([y])]\u00b7p_Y^(.9)]"],
    ["pick package_9-pick package", "pick package", "synchronous", {"e": "e1", "y": "y", "p": "p_002"}, "[[([p_002])]\u00b7p2,[([e1])]\u00b7p_E^(.9),[([p_002])]\u00b7p_P^(.9),[([y])]\u00b7p_Y^(.9),[([e1])]\u00b7p_we,[([p_002], [y])]\u00b7q3_]", "[[([p_002], [e1])]\u00b7p3,[([e1])]\u00b7p_E^(9,10),[([p_002])]\u00b7p_P^(9,10),[([y])]\u00b7p_Y^(9,10),[([y])]\u00b7q3]"],
    ["tau_load in truck_10", null, "log", {"p_002": "p_002", "v1": "v1", "y": "y", "e1": "e1"}, "[[([e1])]\u00b7p_E^(10),[([e1])]\u00b7p_E^(9,10),[([p_002])]\u00b7p_P^(10),[([p_002])]\u00b7p_P^(9,10),[([v1])]\u00b7p_V^(10),[([y])]\u00b7p_Y^(9,10)]", "[[([e1])]\u00b7p_E^(.10),[([p_002])]\u00b7p_P^(.10),[([v1])]\u00b7p_V^(.10)]"],
    ["load in truck_10-load in truck", "load in truck", "synchronous", {"e": "e1", "p": "p_002", "v": "v1"}, "[[([p_002], [e1])]\u00b7p3,[([e1])]\u00b7p_E^(.10),[([p_002])]\u00b7p_P^(.10),[([v1])]\u00b7p_V^(.10),[([v1])]\u00b7p_v_ava]", "[[([p_002], [v1])]\u00b7p4,[([e1])]\u00b7p_E^(10,11),[([p_002])]\u00b7p_P^(10,11),[([v1])]\u00b7p_V^(10,11),[([p_002], [v1])]\u00b7p_v_occ,[([v1])]\u00b7p_v_occ_v,[([e1])]\u00b7p_we]"],
    ["tau_d_1\u21be{p,v}", null, "model", {"p": "p_002", "v": "v1"}, "[[([p_002], [v1])]\u00b7p4]", "[[([p_002])]\u00b7p6\u21be{P},[([v1])]\u00b7p_v_d\u21be{V},[([v1])]\u00b7p_v_transit]"],
    ["tau_d_1\u21be{d,p}", null, "model", {"d": "d1", "p": "p_001"}, "[[([p_001])]\u00b7p4\u21be{P},[([d1])]\u00b7p_d_on]", "[[([p_001], [d1])]\u00b7p6,[([d1])]\u00b7p_v_d\u21be{D}]"],
    ["tau_ring_11", null, "log", {"d1": "d1", "p_002": "p_002", "p_001": "p_001", "e1": "e1", "v1": "v1"}, "[[([d1])]\u00b7p_D^(11),[([e1])]\u00b7p_E^(10,11),[([p_002])]\u00b7p_P^(10,11),[([p_001])]\u00b7p_P^(11),[([v1])]\u00b7p_V^(10,11)]", "[[([d1])]\u00b7p_D^(.11),[([p_001])]\u00b7p_P^(.11)]"],
    ["ring_11-ring", "ring", "synchronous", {"d": "d1", "p": "p_001"}, "[[([p_001])]\u00b7p11,[([p_001], [d1])]\u00b7p6,[([d1])]\u00b7p_D^(.11),[([p_001])]\u00b7p_P^(.11)]", "[[([p_001], [d1])]\u00b7p5,[([d1])]\u00b7p_D^(11,12),[([p_001])]\u00b7p_P^(11,12)]"],
    ["tau_2", null, "model", {"p": "p_001", "d": "d1"}, "[[([p_001], [d1])]\u00b7p5]", "[[([p_001])]\u00b7p12,[([p_001], [d1])]\u00b7p6,[([p_001])]\u00b7p8]"],
    ["t_create^", "p_v_d,{{V},{D}}", "model", {"v": "v1", "d": "d1"}, "[[([d1])]\u00b7p_v_d\u21be{D},[([v1])]\u00b7p_v_d\u21be{V}]", "[[([v1], [d1])]\u00b7p_v_d]"],
    ["tau_deliver depot_12", null, "log", {"p_002": "p_002", "w1": "w1", "d1": "d1", "v1": "v1", "p_001": "p_001"}, "[[([d1])]\u00b7p_D^(11,12),[([d1])]\u00b7p_D^(12),[([p_001])]\u00b7p_P^(11,12),[([p_002])]\u00b7p_P^(12),[([v1])]\u00b7p_V^(12),[([w1])]\u00b7p_W^(12)]", "[[([d1])]\u00b7p_D^(.12),[([p_002])]\u00b7p_P^(.12),[([v1])]\u00b7p_V^(.12),[([w1])]\u00b7p_W^(.12)]"],
    ["t_destroy^", "p6,{{P},{D}}", "model", {"p": "p_001", "d": "d1"}, "[[([p_001], [d1])]\u00b7p6]", "[[([d1])]\u00b7p6\u21be{D},[([p_001])]\u00b7p6\u21be{P}]"],
    ["t_create^", "p6,{{P},{D}}", "model", {"d": "d1", "p": "p_002"}, "[[([d1])]\u00b7p6\u21be{D},[([p_002])]\u00b7p6\u21be{P}]", "[[([p_002], [d1])]\u00b7p6]"],
    ["deliver depot_12-deliver depot", "deliver depot", "synchronous", {"p": "p_002", "d": "d1", "w": "w1", "v": "v1"}, "[[([p_002])]\u00b7p12,[([p_002], [d1])]\u00b7p6,[([p_002], [w1])]\u00b7p7,[([d1])]\u00b7p_D^(.12),[([p_002])]\u00b7p_P^(.12),[([v1])]\u00b7p_V^(.12),[([w1])]\u00b7p_W^(.12),[([p_002], [v1])]\u00b7p_v_occ,[([v1])]\u00b7p_v_occ_v,[([w1])]\u00b7p_w]", "[[([p_002], [w1])]\u00b7p9,[([d1])]\u00b7p_D^(12,13),[([p_002])]\u00b7p_P^(12,13),[([v1])]\u00b7p_V^(12,13),[([w1])]\u00b7p_W^(12,13),[([d1])]\u00b7p_d_on,[([v1])]\u00b7p_v_free,[([v1])]\u00b7p_v_free_imm]"],
    ["tau_register depot_13", null, "log", {"v1": "v1", "w1": "w1", "p_002": "p_002", "d1": "d1", "p_001": "p_001"}, "[[([d1])]\u00b7p_D^(12,13),[([p_002])]\u00b7p_P^(12,13),[([p_001])]\u00b7p_P^(13),[([v1])]\u00b7p_V^(12,13),[([w1])]\u00b7p_W^(12,13),[([w1])]\u00b7p_W^(13)]", "[[([p_001])]\u00b7p_P^(.13),[([w1])]\u00b7p_W^(.13)]"],
    ["register depot_13\u21be{p_001}-register depot\u21be{p}", "register depot\u21be{p_001}", "synchronous", {"p": "p_001"}, "[[([p_001])]\u00b7p8,[([p_001])]\u00b7p_P^(.13)]", "[[([p_001])]\u00b7p7\u21be{P},[([p_001])]\u00b7p_P^(13,14)]"],
    ["register depot_13\u21be{w1}", "register depot\u21be{w1}", "log", {"w1": "w1"}, "[[([w1])]\u00b7p_W^(.13)]", "[[([w1])]\u00b7p_W^(13,14)]"],
    ["tau_deliver depot_incorrect_W_14", null, "log", {"v1": "v1", "p_001": "p_001", "w1": "w1", "w2": "w2", "d1": "d1"}, "[[([d1])]\u00b7p_D^(14),[([p_001])]\u00b7p_P^(13,14),[([p_001])]\u00b7p_P^(14),[([v1])]\u00b7p_V^(14),[([w1])]\u00b7p_W^(13,14),[([w2])]\u00b7p_W^(14)]", "[[([d1])]\u00b7p_D^(.14),[([p_001])]\u00b7p_P^(.14),[([v1])]\u00b7p_V^(.14),[([w2])]\u00b7p_W^(.14)]"],
    ["deliver depot_incorrect_W_14", "deliver depot_incorrect_W", "log", {"d1": "d1", "p_001": "p_001", "v1": "v1", "w2": "w2"}, "[[([d1])]\u00b7p_D^(.14),[([p_001])]\u00b7p_P^(.14),[([v1])]\u00b7p_V^(.14),[([w2])]\u00b7p_W^(.14)]", "[[([d1])]\u00b7p_D^(14,15),[([p_001])]\u00b7p_P^(14,15),[([v1])]\u00b7p_V^(14,15),[([w2])]\u00b7p_W^(14,15)]"],
    ["deliver depot\u21be{p}", "deliver depot\u21be{p}", "model", {"p": "p_001"}, "[[([p_001])]\u00b7p12,[([p_001])]\u00b7p6\u21be{P},[([p_001])]\u00b7p7\u21be{P},[([p_001])]\u00b7p_v_occ\u21be{P}]", "[[([p_001])]\u00b7p9\u21be{P}]"],
    ["tau_free", null, "model", {"v": "v1", "d": "d1"}, "[[([v1], [d1])]\u00b7p_v_d,[([v1])]\u00b7p_v_free,[([v1])]\u00b7p_v_free_imm,[([v1])]\u00b7p_v_transit]", "[[([v1])]\u00b7p_v_ava]"],
    ["tau_collect_15", null, "log", {"p_002": "p_002", "w1": "w1", "v1": "v1", "d1": "d1", "w2": "w2", "p_001": "p_001"}, "[[([d1])]\u00b7p_D^(14,15),[([p_001])]\u00b7p_P^(14,15),[([p_002])]\u00b7p_P^(15),[([v1])]\u00b7p_V^(14,15),[([w2])]\u00b7p_W^(14,15),[([w1])]\u00b7p_W^(15)]", "[[([p_002])]\u00b7p_P^(.15),[([w1])]\u00b7p_W^(.15)]"],
    ["collect_15-collect", "collect", "synchronous", {"p": "p_002", "w": "w1"}, "[[([p_002], [w1])]\u00b7p9,[([p_002])]\u00b7p_P^(.15),[([w1])]\u00b7p_W^(.15)]", "[[([p_002])]\u00b7p10,[([p_002])]\u00b7p_P^(15,16),[([w1])]\u00b7p_W^(15,16),[([w1])]\u00b7p_w]"],
    ["tau_destroy_16", null, "log", {"p_002": "p_002", "w1": "w1"}, "[[([p_002])]\u00b7p_P^(15,16),[([p_002])]\u00b7p_P^(16),[([w1])]\u00b7p_W^(15,16)]", "[[([p_002])]\u00b7p_P^(.16)]"],
    ["destroy_16-destroy", "destroy", "synchronous", {"p": "p_002"}, "[[([p_002])]\u00b7p10,[([p_002])]\u00b7p_P^(.16)]", "[[([p_002])]\u00b7p_P^(16,17)]"],
    ["tau_stop_17", null, "log", {"p_002": "p_002", "d1": "d1"}, "[[([d1])]\u00b7p_D^(17),[([p_002])]\u00b7p_P^(16,17)]", "[[([d1])]\u00b7p_D^(.17)]"],
    ["stop_17-stop", "stop", "synchronous", {"d": "d1"}, "[[([d1])]\u00b7p_D^(.17),[([d1])]\u00b7p_d_on]", "[[([d1])]\u00b7p_D^(17,18),[([d1])]\u00b7p_d_off]"],
    ["tau_stop_18", null, "log", {"d2": "d2", "d1": "d1"}, "[[([d1])]\u00b7p_D^(17,18),[([d2])]\u00b7p_D^(18)]", "[[([d2])]\u00b7p_D^(.18)]"],
    ["stop_18-stop", "stop", "synchronous", {"d": "d2"}, "[[([d2])]\u00b7p_D^(.18),[([d2])]\u00b7p_d_on]", "[[([d2])]\u00b7p_D^(18,19),[([d2])]\u00b7p_d_off]"],
    ["tau_collect_19", null, "log", {"p_001": "p_001", "w1": "w1", "d2": "d2"}, "[[([d2])]\u00b7p_D^(18,19),[([p_001])]\u00b7p_P^(19),[([w1])]\u00b7p_W^(19)]", "[[([p_001])]\u00b7p_P^(.19),[([w1])]\u00b7p_W^(.19)]"],
    ["collect_19\u21be{w1}", "collect\u21be{w1}", "log", {"w1": "w1"}, "[[([w1])]\u00b7p_W^(.19)]", "[[([w1])]\u00b7p_W^(19,20)]"],
    ["collect_19\u21be{p_001}-collect\u21be{p}", "collect\u21be{p_001}", "synchronous", {"p": "p_001"}, "[[([p_001])]\u00b7p9\u21be{P},[([p_001])]\u00b7p_P^(.19)]", "[[([p_001])]\u00b7p10,[([p_001])]\u00b7p_P^(19,20)]"],
    ["tau_destroy_20", null, "log", {"w1": "w1", "p_001": "p_001"}, "[[([p_001])]\u00b7p_P^(19,20),[([p_001])]\u00b7p_P^(20),[([w1])]\u00b7p_W^(19,20)]", "[[([p_001])]\u00b7p_P^(.20)]"],
    ["destroy_20-destroy", "destroy", "synchronous", {"p": "p_001"}, "[[([p_001])]\u00b7p10,[([p_001])]\u00b7p_P^(.20)]", "[]"]
  ],
  "r": [
    [0, 1, 1, 1, 1, 1, 1, 1, 1, 1, 1, 1, 1, 1, 1, 1, 1, 1, 1, 1, 1, 1, 1, 1, 1, 1, 1, 1, 1, 1, 1, 1, 1, 1, 1, 1, 1, 1, 1, 1, 1, 1, 1, 1, 1, 1, 1, 1, 1, 1, 1, 1, 1, 1, 1, 1, 1],
    [0, 0, 1, 1, 1, 1, 1, 1, 1, 1, 1, 1, 1, 1, 1, 1, 1, 1, 1, 1, 1, 1, 1, 1, 1, 1, 1, 1, 1, 1, 1, 1, 1, 1, 1, 1, 1, 1, 1, 1, 1, 1, 1, 1, 1, 1, 1, 1, 1, 1, 1, 1, 1, 1, 1, 1, 1],
    [0, 0, 0, 1, 1, 1, 1, 1, 1, 1, 1, 1, 1, 1, 1, 1, 1, 1, 1, 1, 1, 1, 1, 1, 1, 1, 1, 1, 1, 1, 1, 1, 1, 1, 1, 1, 1, 1, 1, 1, 1, 1, 1, 1, 1, 1, 1, 1, 1, 1, 1, 1, 1, 1, 1, 1, 1],
    [0, 0, 0, 0, 1, 1, 1, 1, 1, 1, 1, 1, 1, 1, 1, 1, 1, 1, 1, 1, 1, 1, 1, 1, 1, 1, 1, 1, 1, 1, 1, 1, 1, 1, 1, 1, 1, 1, 1, 1, 1, 1, 1, 1, 1, 1, 1, 1, 1, 1, 1, 1, 1, 1, 1, 1, 1],
    [0, 0, 0, 0, 0, 1, 1, 1, 1, 1, 1, 1, 1, 1, 1, 1, 1, 1, 1, 1, 1, 1, 1, 1, 1, 1, 1, 1, 1, 1, 1, 1, 1, 1, 1, 1, 1, 1, 1, 1, 1, 1, 1, 1, 1, 1, 1, 1, 1, 1, 1, 1, 1, 1, 1, 1, 1],
    [0, 0, 0, 0, 0, 0, 1, 1, 1, 1, 1, 1, 1, 1, 1, 1, 1, 1, 1, 1, 1, 1, 1, 1, 1, 1, 1, 1, 1, 1, 1, 1, 1, 1, 1, 1, 1, 1, 1, 1, 1, 1, 1, 1, 1, 1, 1, 1, 1, 1, 1, 1, 1, 1, 1, 1, 1],
    [0, 0, 0, 0, 0, 0, 0, 1, 1, 1, 1, 1, 1, 1, 1, 1, 1, 1, 1, 1, 1, 1, 1, 1, 1, 1, 1, 1, 1, 1, 1, 1, 1, 1, 1, 1, 1, 1, 1, 1, 1, 1, 1, 1, 1, 1, 1, 1, 1, 1, 1, 1, 1, 1, 1, 1, 1],
    [0, 0, 0, 0, 0, 0, 0, 0, 1, 1, 1, 1, 1, 1, 1, 1, 1, 1, 1, 1, 1, 1, 1, 1, 1, 1, 1, 1, 1, 1, 1, 1, 1, 1, 1, 1, 1, 1, 1, 1, 1, 1, 1, 1, 1, 1, 1, 1, 1, 1, 1, 1, 1, 1, 1, 1, 1],
    [0, 0, 0, 0, 0, 0, 0, 0, 0, 1, 0, 1, 1, 1, 1, 1, 1, 1, 1, 1, 1, 1, 1, 1, 1, 1, 1, 1, 1, 1, 1, 1, 1, 1, 1, 1, 1, 1, 1, 1, 1, 1, 1, 1, 1, 1, 1, 1, 1, 1, 1, 1, 1, 1, 1, 1, 1],
    [0, 0, 0, 0, 0, 0, 0, 0, 0, 0, 0, 1, 1, 1, 1, 1, 1, 1, 1, 1, 1, 1, 1, 1, 1, 1, 1, 1, 1, 1, 1, 1, 1, 1, 1, 1, 1, 1, 1, 1, 1, 1, 1, 1, 1, 1, 1, 1, 1, 1, 1, 1, 1, 1, 1, 1, 1],
    [0, 0, 0, 0, 0, 0, 0, 0, 0, 0, 0, 1, 1, 1, 1, 1, 1, 1, 1, 1, 1, 1, 1, 1, 1, 1, 1, 1, 1, 1, 1, 1, 1, 1, 1, 1, 1, 1, 1, 1, 1, 1, 1, 1, 1, 1, 1, 1, 1, 1, 1, 1, 1, 1, 1, 1, 1],
    [0, 0, 0, 0, 0, 0, 0, 0, 0, 0, 0, 0, 1, 1, 1, 1, 1, 1, 1, 1, 1, 1, 1, 1, 1, 1, 1, 1, 1, 1, 1, 1, 1, 1, 1, 1, 1, 1, 1, 1, 1, 1, 1, 1, 1, 1, 1, 1, 1, 1, 1, 1, 1, 1, 1, 1, 1],
    [0, 0, 0, 0, 0, 0, 0, 0, 0, 0, 0, 0, 0, 0, 0, 0, 0, 0, 0, 0, 0, 0, 0, 0, 1, 1, 1, 1, 1, 1, 1, 1, 1, 1, 1, 1, 1, 1, 1, 1, 1, 1, 1, 1, 1, 1, 1, 1, 1, 1, 1, 1, 1, 1, 1, 1, 1],
    [0, 0, 0, 0, 0, 0, 0, 0, 0, 0, 0, 0, 0, 0, 1, 1, 1, 1, 1, 1, 1, 1, 1, 1, 1, 1, 1, 1, 0, 1, 1, 1, 1, 1, 1, 1, 1, 1, 1, 1, 1, 1, 1, 1, 1, 1, 1, 1, 1, 1, 1, 1, 1, 1, 1, 1, 1],
    [0, 0, 0, 0, 0, 0, 0, 0, 0, 0, 0, 0, 0, 0, 0, 1, 1, 1, 1, 1, 1, 1, 1, 1, 1, 1, 1, 1, 0, 1, 1, 1, 1, 1, 1, 1, 1, 1, 1, 1, 1, 1, 1, 1, 1, 1, 1, 1, 1, 1, 1, 1, 1, 1, 1, 1, 1],
    [0, 0, 0, 0, 0, 0, 0, 0, 0, 0, 0, 0, 0, 0, 0, 0, 1, 1, 1, 1, 1, 1, 1, 1, 1, 1, 1, 1, 0, 1, 1, 1, 1, 1, 1, 1, 1, 1, 1, 1, 1, 1, 1, 1, 1, 1, 1, 1, 1, 1, 1, 1, 1, 1, 1, 1, 1],
    [0, 0, 0, 0, 0, 0, 0, 0, 0, 0, 0, 0, 0, 0, 0, 0, 0, 1, 1, 1, 1, 1, 1, 1, 1, 1, 1, 1, 0, 1, 1, 1, 1, 1, 1, 1, 1, 1, 1, 1, 1, 1, 1, 1, 1, 1, 1, 1, 1, 1, 1, 1, 1, 1, 1, 1, 1],
    [0, 0, 0, 0, 0, 0, 0, 0, 0, 0, 0, 0, 0, 0, 0, 0, 0, 0, 1, 1, 1, 1, 1, 1, 1, 1, 1, 1, 0, 1, 1, 1, 1, 1, 1, 1, 1, 1, 1, 1, 1, 1, 1, 1, 1, 1, 1, 1, 1, 1, 1, 1, 1, 1, 1, 1, 1],
    [0, 0, 0, 0, 0, 0, 0, 0, 0, 0, 0, 0, 0, 0, 0, 0, 0, 0, 0, 1, 1, 1, 1, 1, 1, 1, 1, 1, 0, 1, 1, 1, 1, 1, 1, 1, 1, 1, 1, 1, 1, 1, 1, 1, 1, 1, 1, 1, 1, 1, 1, 1, 1, 1, 1, 1, 1],
    [0, 0, 0, 0, 0, 0, 0, 0, 0, 0, 0, 0, 0, 0, 0, 0, 0, 0, 0, 0, 1, 0, 0, 0, 1, 1, 1, 1, 0, 1, 1, 1, 1, 1, 1, 1, 1, 1, 1, 1, 1, 1, 1, 1, 1, 1, 1, 1, 1, 1, 1, 1, 1, 1, 1, 1, 1],
    [0, 0, 0, 0, 0, 0, 0, 0, 0, 0, 0, 0, 0, 0, 0, 0, 0, 0, 0, 0, 0, 0, 0, 0, 1, 1, 1, 1, 0, 1, 1, 1, 1, 1, 1, 1, 1, 1, 1, 1, 1, 1, 1, 1, 1, 1, 1, 1, 1, 1, 1, 1, 1, 1, 1, 1, 1],
    [0, 0, 0, 0, 0, 0, 0, 0, 0, 0, 0, 0, 0, 0, 0, 0, 0, 0, 0, 0, 0, 0, 1, 1, 1, 1, 1, 1, 0, 1, 1, 1, 1, 1, 1, 1, 1, 1, 1, 1, 1, 1, 1, 1, 1, 1, 1, 1, 1, 1, 1, 1, 1, 1, 1, 1, 1],
    [0, 0, 0, 0, 0, 0, 0, 0, 0, 0, 0, 0, 0, 0, 0, 0, 0, 0, 0, 0, 0, 0, 0, 1, 1, 1, 1, 1, 0, 1, 1, 1, 1, 1, 1, 1, 1, 1, 1, 1, 1, 1, 1, 1, 1, 1, 1, 1, 1, 1, 1, 1, 1, 1, 1, 1, 1],
    [0, 0, 0, 0, 0, 0, 0, 0, 0, 0, 0, 0, 0, 0, 0, 0, 0, 0, 0, 0, 0, 0, 0, 0, 1, 1, 1, 1, 0, 1, 1, 1, 1, 1, 1, 1, 1, 1, 1, 1, 1, 1, 1, 1, 1, 1, 1, 1, 1, 1, 1, 1, 1, 1, 1, 1, 1],
    [0, 0, 0, 0, 0, 0, 0, 0, 0, 0, 0, 0, 0, 0, 0, 0, 0, 0, 0, 0, 0, 0, 0, 0, 0, 1, 1, 1, 0, 1, 1, 1, 1, 1, 1, 1, 1, 1, 1, 1, 1, 1, 1, 1, 1, 1, 1, 1, 1, 1, 1, 1, 1, 1, 1, 1, 1],
    [0, 0, 0, 0, 0, 0, 0, 0, 0, 0, 0, 0, 0, 0, 0, 0, 0, 0, 0, 0, 0, 0, 0, 0, 0, 0, 1, 1, 0, 1, 1, 1, 1, 1, 1, 1, 1, 1, 1, 1, 1, 1, 1, 1, 1, 1, 1, 1, 1, 1, 1, 1, 1, 1, 1, 1, 1],
    [0, 0, 0, 0, 0, 0, 0, 0, 0, 0, 0, 0, 0, 0, 0, 0, 0, 0, 0, 0, 0, 0, 0, 0, 0, 0, 0, 1, 0, 1, 1, 1, 1, 1, 1, 1, 1, 1, 1, 1, 1, 1, 1, 1, 1, 1, 1, 1, 1, 1, 1, 1, 1, 1, 1, 1, 1],
    [0, 0, 0, 0, 0, 0, 0, 0, 0, 0, 0, 0, 0, 0, 0, 0, 0, 0, 0, 0, 0, 0, 0, 0, 0, 0, 0, 0, 0, 0, 0, 0, 1, 0, 0, 1, 1, 1, 1, 1, 1, 1, 1, 1, 1, 1, 1, 1, 1, 1, 1, 1, 1, 1, 1, 1, 1],
    [0, 0, 0, 0, 0, 0, 0, 0, 0, 0, 0, 0, 0, 0, 0, 0, 0, 0, 0, 0, 0, 0, 0, 0, 0, 0, 0, 0, 0, 0, 1, 1, 1, 1, 1, 1, 1, 1, 1, 1, 1, 1, 1, 1, 1, 1, 1, 1, 1, 1, 1, 1, 1, 1, 1, 1, 1],
    [0, 0, 0, 0, 0, 0, 0, 0, 0, 0, 0, 0, 0, 0, 0, 0, 0, 0, 0, 0, 0, 0, 0, 0, 0, 0, 0, 0, 0, 0, 1, 1, 0, 1, 1, 1, 1, 1, 1, 1, 1, 1, 1, 1, 1, 1, 1, 1, 1, 1, 1, 1, 1, 1, 1, 1, 1],
    [0, 0, 0, 0, 0, 0, 0, 0, 0, 0, 0, 0, 0, 0, 0, 0, 0, 0, 0, 0, 0, 0, 0, 0, 0, 0, 0, 0, 0, 0, 0, 1, 0, 1, 1, 1, 1, 1, 1, 1, 1, 1, 1, 1, 1, 1, 1, 1, 1, 1, 1, 1, 1, 1, 1, 1, 1],
    [0, 0, 0, 0, 0, 0, 0, 0, 0, 0, 0, 0, 0, 0, 0, 0, 0, 0, 0, 0, 0, 0, 0, 0, 0, 0, 0, 0, 0, 0, 0, 0, 0, 0, 1, 1, 1, 1, 1, 1, 1, 1, 1, 1, 1, 1, 1, 1, 1, 1, 1, 1, 1, 1, 1, 1, 1],
    [0, 0, 0, 0, 0, 0, 0, 0, 0, 0, 0, 0, 0, 0, 0, 0, 0, 0, 0, 0, 0, 0, 0, 0, 0, 0, 0, 0, 0, 0, 0, 0, 0, 0, 0, 0, 0, 0, 0, 0, 0, 0, 0, 1, 0, 0, 0, 0, 0, 0, 0, 0, 0, 0, 0, 0, 0],
    [0, 0, 0, 0, 0, 0, 0, 0, 0, 0, 0, 0, 0, 0, 0, 0, 0, 0, 0, 0, 0, 0, 0, 0, 0, 0, 0, 0, 0, 0, 0, 0, 0, 0, 0, 0, 1, 1, 1, 1, 1, 1, 1, 1, 1, 1, 1, 1, 1, 1, 1, 1, 1, 1, 1, 1, 1],
    [0, 0, 0, 0, 0, 0, 0, 0, 0, 0, 0, 0, 0, 0, 0, 0, 0, 0, 0, 0, 0, 0, 0, 0, 0, 0, 0, 0, 0, 0, 0, 0, 0, 0, 0, 1, 1, 1, 1, 1, 1, 1, 1, 1, 1, 1, 1, 1, 1, 1, 1, 1, 1, 1, 1, 1, 1],
    [0, 0, 0, 0, 0, 0, 0, 0, 0, 0, 0, 0, 0, 0, 0, 0, 0, 0, 0, 0, 0, 0, 0, 0, 0, 0, 0, 0, 0, 0, 0, 0, 0, 0, 0, 0, 1, 1, 1, 1, 1, 1, 1, 1, 1, 1, 1, 1, 1, 1, 1, 1, 1, 1, 1, 1, 1],
    [0, 0, 0, 0, 0, 0, 0, 0, 0, 0, 0, 0, 0, 0, 0, 0, 0, 0, 0, 0, 0, 0, 0, 0, 0, 0, 0, 0, 0, 0, 0, 0, 0, 0, 0, 0, 0, 1, 1, 1, 1, 1, 1, 1, 1, 1, 1, 1, 1, 1, 1, 1, 1, 1, 1, 1, 1],
    [0, 0, 0, 0, 0, 0, 0, 0, 0, 0, 0, 0, 0, 0, 0, 0, 0, 0, 0, 0, 0, 0, 0, 0, 0, 0, 0, 0, 0, 0, 0, 0, 0, 0, 0, 0, 0, 0, 1, 1, 1, 1, 1, 0, 1, 1, 1, 1, 1, 1, 1, 1, 1, 1, 1, 1, 1],
    [0, 0, 0, 0, 0, 0, 0, 0, 0, 0, 0, 0, 0, 0, 0, 0, 0, 0, 0, 0, 0, 0, 0, 0, 0, 0, 0, 0, 0, 0, 0, 0, 0, 0, 0, 0, 0, 0, 0, 0, 1, 1, 1, 0, 1, 1, 1, 1, 1, 1, 1, 1, 1, 1, 1, 1, 1],
    [0, 0, 0, 0, 0, 0, 0, 0, 0, 0, 0, 0, 0, 0, 0, 0, 0, 0, 0, 0, 0, 0, 0, 0, 0, 0, 0, 0, 0, 0, 0, 0, 0, 0, 0, 0, 0, 0, 0, 0, 1, 1, 0, 0, 1, 1, 1, 1, 1, 1, 1, 1, 1, 1, 1, 1, 1],
    [0, 0, 0, 0, 0, 0, 0, 0, 0, 0, 0, 0, 0, 0, 0, 0, 0, 0, 0, 0, 0, 0, 0, 0, 0, 0, 0, 0, 0, 0, 0, 0, 0, 0, 0, 0, 0, 0, 0, 0, 0, 1, 0, 0, 1, 1, 1, 1, 1, 1, 1, 1, 1, 1, 1, 1, 1],
    [0, 0, 0, 0, 0, 0, 0, 0, 0, 0, 0, 0, 0, 0, 0, 0, 0, 0, 0, 0, 0, 0, 0, 0, 0, 0, 0, 0, 0, 0, 0, 0, 0, 0, 0, 0, 0, 0, 0, 0, 0, 0, 0, 0, 1, 1, 1, 1, 1, 1, 1, 1, 1, 1, 1, 1, 1],
    [0, 0, 0, 0, 0, 0, 0, 0, 0, 0, 0, 0, 0, 0, 0, 0, 0, 0, 0, 0, 0, 0, 0, 0, 0, 0, 0, 0, 0, 0, 0, 0, 0, 0, 0, 0, 0, 0, 0, 0, 0, 0, 0, 0, 0, 0, 0, 0, 0, 0, 0, 0, 0, 0, 1, 1, 1],
    [0, 0, 0, 0, 0, 0, 0, 0, 0, 0, 0, 0, 0, 0, 0, 0, 0, 0, 0, 0, 0, 0, 0, 0, 0, 0, 0, 0, 0, 0, 0, 0, 0, 0, 0, 0, 0, 0, 0, 0, 0, 0, 0, 0, 0, 0, 0, 0, 0, 0, 0, 0, 0, 0, 0, 0, 0],
    [0, 0, 0, 0, 0, 0, 0, 0, 0, 0, 0, 0, 0, 0, 0, 0, 0, 0, 0, 0, 0, 0, 0, 0, 0, 0, 0, 0, 0, 0, 0, 0, 0, 0, 0, 0, 0, 0, 0, 0, 0, 0, 0, 0, 0, 1, 1, 1, 1, 1, 1, 1, 1, 1, 1, 1, 1],
    [0, 0, 0, 0, 0, 0, 0, 0, 0, 0, 0, 0, 0, 0, 0, 0, 0, 0, 0, 0, 0, 0, 0, 0, 0, 0, 0, 0, 0, 0, 0, 0, 0, 0, 0, 0, 0, 0, 0, 0, 0, 0, 0, 0, 0, 0, 1, 1, 1, 1, 1, 1, 1, 1, 1, 1, 1],
    [0, 0, 0, 0, 0, 0, 0, 0, 0, 0, 0, 0, 0, 0, 0, 0, 0, 0, 0, 0, 0, 0, 0, 0, 0, 0, 0, 0, 0, 0, 0, 0, 0, 0, 0, 0, 0, 0, 0, 0, 0, 0, 0, 0, 0, 0, 0, 1, 1, 1, 1, 1, 1, 1, 1, 1, 1],
    [0, 0, 0, 0, 0, 0, 0, 0, 0, 0, 0, 0, 0, 0, 0, 0, 0, 0, 0, 0, 0, 0, 0, 0, 0, 0, 0, 0, 0, 0, 0, 0, 0, 0, 0, 0, 0, 0, 0, 0, 0, 0, 0, 0, 0, 0, 0, 0, 1, 1, 1, 1, 1, 1, 1, 1, 1],
    [0, 0, 0, 0, 0, 0, 0, 0, 0, 0, 0, 0, 0, 0, 0, 0, 0, 0, 0, 0, 0, 0, 0, 0, 0, 0, 0, 0, 0, 0, 0, 0, 0, 0, 0, 0, 0, 0, 0, 0, 0, 0, 0, 0, 0, 0, 0, 0, 0, 1, 1, 1, 1, 1, 1, 1, 1],
    [0, 0, 0, 0, 0, 0, 0, 0, 0, 0, 0, 0, 0, 0, 0, 0, 0, 0, 0, 0, 0, 0, 0, 0, 0, 0, 0, 0, 0, 0, 0, 0, 0, 0, 0, 0, 0, 0, 0, 0, 0, 0, 0, 0, 0, 0, 0, 0, 0, 0, 1, 1, 1, 1, 1, 1, 1],
    [0, 0, 0, 0, 0, 0, 0, 0, 0, 0, 0, 0, 0, 0, 0, 0, 0, 0, 0, 0, 0, 0, 0, 0, 0, 0, 0, 0, 0, 0, 0, 0, 0, 0, 0, 0, 0, 0, 0, 0, 0, 0, 0, 0, 0, 0, 0, 0, 0, 0, 0, 1, 1, 1, 1, 1, 1],
    [0, 0, 0, 0, 0, 0, 0, 0, 0, 0, 0, 0, 0, 0, 0, 0, 0, 0, 0, 0, 0, 0, 0, 0, 0, 0, 0, 0, 0, 0, 0, 0, 0, 0, 0, 0, 0, 0, 0, 0, 0, 0, 0, 0, 0, 0, 0, 0, 0, 0, 0, 0, 1, 1, 1, 1, 1],
    [0, 0, 0, 0, 0, 0, 0, 0, 0, 0, 0, 0, 0, 0, 0, 0, 0, 0, 0, 0, 0, 0, 0, 0, 0, 0, 0, 0, 0, 0, 0, 0, 0, 0, 0, 0, 0, 0, 0, 0, 0, 0, 0, 0, 0, 0, 0, 0, 0, 0, 0, 0, 0, 1, 1, 1, 1],
    [0, 0, 0, 0, 0, 0, 0, 0, 0, 0, 0, 0, 0, 0, 0, 0, 0, 0, 0, 0, 0, 0, 0, 0, 0, 0, 0, 0, 0, 0, 0, 0, 0, 0, 0, 0, 0, 0, 0, 0, 0, 0, 0, 0, 0, 0, 0, 0, 0, 0, 0, 0, 0, 0, 0, 1, 1],
    [0, 0, 0, 0, 0, 0, 0, 0, 0, 0, 0, 0, 0, 0, 0, 0, 0, 0, 0, 0, 0, 0, 0, 0, 0, 0, 0, 0, 0, 0, 0, 0, 0, 0, 0, 0, 0, 0, 0, 0, 0, 0, 0, 0, 0, 0, 0, 0, 0, 0, 0, 0, 0, 0, 0, 1, 1],
    [0, 0, 0, 0, 0, 0, 0, 0, 0, 0, 0, 0, 0, 0, 0, 0, 0, 0, 0, 0, 0, 0, 0, 0, 0, 0, 0, 0, 0, 0, 0, 0, 0, 0, 0, 0, 0, 0, 0, 0, 0, 0, 0, 0, 0, 0, 0, 0, 0, 0, 0, 0, 0, 0, 0, 0, 1],
    [0, 0, 0, 0, 0, 0, 0, 0, 0, 0, 0, 0, 0, 0, 0, 0, 0, 0, 0, 0, 0, 0, 0, 0, 0, 0, 0, 0, 0, 0, 0, 0, 0, 0, 0, 0, 0, 0, 0, 0, 0, 0, 0, 0, 0, 0, 0, 0, 0, 0, 0, 0, 0, 0, 0, 0, 0]
  ]
}