{
  "comment": "TODO check",
  "type": "MultiNuNet",
  "T": ["tau_<a>_<r>_break_batch", "tau_<a>_<r>_break_batch2"],
  "P": ["<p_batch>", "<p_batched>", "<p_empty>", "ps_<a>_<r>_break_batch"],
  "F": {
    "[{V_Y, v_<r>}]": [
      ["<p_batched>", "tau_<a>_<r>_break_batch"], ["<p_batched>", "tau_<a>_<r>_break_batch2"]
    ],
    "[{V_Z, v_<r>}]": [
      ["tau_<a>_<r>_break_batch", "<p_batched>"], ["tau_<a>_<r>_break_batch2", "<p_batched>"]
    ],
    "[{V_X}]": [
      ["<p_batch>", "tau_<a>_<r>_break_batch"]
    ],
    "[{V_Z}]": [
      ["<p_empty>", "tau_<a>_<r>_break_batch"], ["tau_<a>_<r>_break_batch", "<p_empty>"],
      ["<p_empty>", "tau_<a>_<r>_break_batch2"], ["tau_<a>_<r>_break_batch2", "<p_empty>"], ["<p_batch>", "tau_<a>_<r>_break_batch2"]
    ],
    "[{V_X+V_Y}]": [
      ["tau_<a>_<r>_break_batch", "<p_batch>"]
    ],
    "[{V_Z+V_Y}]": [
      ["tau_<a>_<r>_break_batch2", "<p_batch>"]
    ],
    "[{V_Y}]": [
      ["tau_<a>_<r>_break_batch", "ps_<a>_<r>_break_batch"], ["tau_<a>_<r>_break_batch2", "ps_<a>_<r>_break_batch"]
    ]
  },
  "F_inh": {
    "[{V_Y}]": [
      ["ps_<a>_<r>_break_batch", "tau_<a>_<r>_break_batch"], ["ps_<a>_<r>_break_batch", "tau_<a>_<r>_break_batch2"]
    ]
  },
  "O": {},
  "V": {"<a>": ["V_X", "V_Y", "V_Z"], "<r>": ["v_<r>"]},
  "m_i": "[]",
  "m_f": "[]"
}