{
  "comment": "TODO",
  "type": "tPNID",
  "T": ["tau_change_correlation_<p>_<x><y>"],
  "P": ["<p>", "<py>", "ps_<p><x><y>_change"],
  "F": {
    "[{v_<x>, v_<y>1}]": [
      ["<p>", "tau_change_correlation_<p>_<x><y>"]
    ],
    "[{v_<x>, v_<y>2}]": [
      ["tau_change_correlation_<p>_<x><y>", "<p>"], ["tau_change_correlation_<p>_<x><y>", "ps_<p><x><y>_change"]
    ],
    "[{v_<y>1}]": [
      ["tau_change_correlation_<p>_<x><y>", "<py>"]
    ],
    "[{v_<y>2}]": [
      ["<py>", "tau_change_correlation_<p>_<x><y>"]
    ]
  },
  "F_inh": {
    "[{v_<x>, v_<y>1}]": [["ps_<p><x><y>_change", "tau_change_correlation_<p>_<x><y>"]]
  },
  "O": {},
  "V": {"<x>": ["v_<x>"], "<y>": ["v_<y>1", "v_<y>2"]},
  "m_i": "[]",
  "m_f": "[]"
}