{
  "type": "tPNID",
  "T": ["tau_change_memory_<x>_<y>"],
  "P": ["<p1>", "<p2>", "ps_<p1><x><y>_resmem"],
  "F": {
    "[{v_<x>1, v_<y>1}]": [
      ["<p1>", "tau_change_memory_<x>_<y>"]
    ],
    "[{v_<x>1, v_<y>2}]": [
      ["tau_change_memory_<x>_<y>", "<p1>"], ["tau_change_memory_<x>_<y>", "ps_<p1><x><y>_resmem"]
    ],
    "[{v_<y>1}]": [
      ["tau_change_memory_<x>_<y>", "<p2>"], ["<p2>", "tau_change_memory_<x>_<y>"]
    ],
    "[{v_<y>2}]": [
      ["<p2>", "tau_change_memory_<x>_<y>"], ["tau_change_memory_<x>_<y>", "<p2>"]
    ]
  },
  "F_inh": {
    "[{v_<x>1, v_<y>1}]": [["ps_<p1><x><y>_resmem", "tau_change_memory_<x>_<y>"]]
  },
  "O": {},
  "V": {"<x>": ["v_<x>1", "v_<x>2"], "<y>": ["v_<y>1", "v_<y>2"]},
  "m_i": "[]",
  "m_f": "[]"
}