{
  "comment": "TODO check if this is the correct way of modeling.",
  "type": "tPNID",
  "T": ["(<x>*)∩(*<y>)*", "<x>", "<y>", "<y>_pos_<x>(<y>){<x>}", "<x>_pos_<y>(<x>){<y>}"],
  "P": ["(<x>*)\\(*<y>)", "(<x>*)∩(*<y>)_incp_", "(*<y>)\\(<x>*)", "*<x>", "<y>*", "<x>*", "*<y>"],
  "F": {
    "*": [
      ["*<x>", "<y>_pos_<x>(<y>){<x>}"], ["<y>_pos_<x>(<y>){<x>}", "(<x>*)\\(*<y>)"], ["<y>_pos_<x>(<y>){<x>}", "(<x>*)∩(*<y>)_incp_"],
      ["(<x>*)∩(*<y>)_incp_", "<x>_pos_<y>(<x>){<y>}"], ["(*<y>)\\(<x>*)", "<x>_pos_<y>(<x>){<y>}"], ["<x>_pos_<y>(<x>){<y>}", "<y>*"],
      ["*<x>", "<x>"], ["<x>", "<x>*"], ["*<y>", "<y>"], ["<y>", "<y>*"]
    ]
  },
  "F_inh": {
    "*": [
      ["*<x>", "<y>_pos_<x>(<y>){<x>}"], ["*<y>", "<x>_pos_<y>(<x>){<y>}"],
      ["(<x>*)∩(*<y>)_incp_", "(<x>*)∩(*<y>)*"]
    ]
  },
  "O": {},
  "V": {},
  "m_i": "[]",
  "m_f": "[]"
}