{
  "comment": "Note that all objects should be present for tau_<x> to fire.",
  "type": "tPNID",
  "T": ["<x>", "tau_missing_<x>"],
  "P": ["*<x>", "<x>*"],
  "F": {
    "*": [
      ["*<x>", "<x>"], ["*<x>", "tau_missing_<x>"], ["<x>", "<x>*"], ["tau_missing_<x>", "<x>*"]
    ]
  },
  "F_inh": {
    "*": [
      ["*<x>", "<x>"], ["*<x>", "tau_missing_<x>"], ["<x>", "<x>*"], ["tau_missing_<x>", "<x>*"]
    ]
  },
  "O": {},
  "V": {},
  "m_i": "[]",
  "m_f": "[]"
}