{
  "type": "tPNID",
  "T": ["tau_early_release_<y>", "tau_late_claim_<y>"],
  "P": ["<p1>", "<p2>", "p_mid_<y>{<p1>}", "ps_<p1><y>_mt"],
  "F": {
    "[{v_<x>, v_<y>}]": [
      ["<p1>", "tau_early_release_<y>"], ["tau_late_claim_<y>", "<p1>"],
      ["tau_early_release_<y>", "p_mid_<y>{<p1>}"], ["p_mid_<y>{<p1>}", "tau_late_claim_<y>"],
      ["tau_early_release_<y>", "ps_<p1><y>_mt"]
    ],
    "[{v_<y>}]": [
      ["tau_early_release_<y>", "<p2>"], ["<p2>", "tau_late_claim_<y>"]
    ]
  },
  "F_inh": {
    "[{v_<x>, v_<y>}]": [["ps_<p1><y>_mt", "tau_early_release_<y>"]]
  },
  "O": {},
  "V": {"<x>": ["v_<x>"], "<y>": ["v_<y>"]},
  "m_i": "[]",
  "m_f": "[]"
}