{
  "comment": "TODO not necessary to have all objects present.",
  "type": "tPNID",
  "T": ["<x>", "tau_skip_<x>"],
  "P": ["*<x>", "<x>*"],
  "F": {
    "*": [
      ["*<x>", "<x>"], ["*<x>", "tau_skip_<x>"], ["<x>", "<x>*"], ["tau_skip_<x>", "<x>*"]
    ]
  },
  "F_inh": {
    "*": [
      ["*<x>", "<x>"], ["*<x>", "tau_skip_<x>"], ["<x>", "<x>*"], ["tau_skip_<x>", "<x>*"]
    ]
  },
  "O": {},
  "V": {},
  "m_i": "[]",
  "m_f": "[]"
}