{
  "type": "tPNID",
  "T": ["tau_switch_role_<x>_<y>", "tau_switch_role_back_<x>_<y>"],
  "P": ["<px>", "<py>", "p_switch_role_<x>_<y>"],
  "F": {
    "[{v_<x>}]": [
      ["<px>", "tau_switch_role_<x>_<y>"], ["tau_switch_role_back_<x>_<y>", "<px>"]
    ],
    "[{v_nu_<y>}]": [
      ["tau_switch_role_<x>_<y>", "<py>"]
    ],
    "[{v_<x>, v_nu_<y>}]": [
      ["tau_switch_role_<x>_<y>", "p_switch_role_<x>_<y>"]
    ],
    "[{v_<y>}]": [
      ["<py>", "tau_switch_role_back_<x>_<y>"]
    ],
    "[{v_<x>, v_<y>}]": [
      ["p_switch_role_<x>_<y>", "tau_switch_role_back_<x>_<y>"]
    ]
  },
  "O": {"<y>": ["nu_<y>"]},
  "V": {"<x>": ["v_<x>"], "<y>": ["v_<y>", "v_nu_<y>"]},
  "m_i": "[]",
  "m_f": "[]"
}