{
  "M": [
    ["create", "create", "model", {"p": "p_001"}, "[]", "[[([p_001])]\u00b7p1]", "2024-04-08 09:00:00"],
    ["order depot", "order depot", "model", {"p": "p_001", "y": "y"}, "[[([p_001])]\u00b7p1,[([y])]\u00b7q1]", "[[([p_001])]\u00b7p12,[([p_001])]\u00b7p2,[([p_001])]\u00b7p8,[([p_001], [y])]\u00b7q1_]", "2024-04-08 09:00:00"],
    ["tau_queue1", null, "model", {"p": "p_001", "y": "y"}, "[[([p_001], [y])]\u00b7q1_,[([y])]\u00b7q2]", "[[([y])]\u00b7q1,[([p_001], [y])]\u00b7q2_]", "2024-04-08 09:00:00"],
    ["register depot", "register depot", "model", {"p": "p_001", "w": "w2"}, "[[([p_001])]\u00b7p8,[([w2])]\u00b7p_w]", "[[([p_001], [w2])]\u00b7p7,[([w2])]\u00b7p_w]", "2024-04-08 09:00:00"],
    ["create", "create", "model", {"p": "p_002"}, "[]", "[[([p_002])]\u00b7p1]", "2024-04-08 09:00:00"],
    ["order depot", "order depot", "model", {"p": "p_002", "y": "y"}, "[[([p_002])]\u00b7p1,[([y])]\u00b7q1]", "[[([p_002])]\u00b7p12,[([p_002])]\u00b7p2,[([p_002])]\u00b7p8,[([p_002], [y])]\u00b7q1_]", "2024-04-08 09:00:00"],
    ["register depot", "register depot", "model", {"p": "p_002", "w": "w1"}, "[[([p_002])]\u00b7p8,[([w1])]\u00b7p_w]", "[[([p_002], [w1])]\u00b7p7,[([w1])]\u00b7p_w]", "2024-04-08 09:00:00"],
    ["tau_queue2", null, "model", {"y": "y", "p": "p_001"}, "[[([p_001], [y])]\u00b7q2_,[([y])]\u00b7q3]", "[[([y])]\u00b7q2,[([p_001], [y])]\u00b7q3_]", "2024-04-08 09:00:00"],
    ["pick package", "pick package", "model", {"p": "p_001", "y": "y", "e": "e1"}, "[[([p_001])]\u00b7p2,[([e1])]\u00b7p_we,[([p_001], [y])]\u00b7q3_]", "[[([p_001], [e1])]\u00b7p3,[([y])]\u00b7q3]", "2024-04-08 09:00:00"],
    ["tau_queue1", null, "model", {"p": "p_002", "y": "y"}, "[[([p_002], [y])]\u00b7q1_,[([y])]\u00b7q2]", "[[([y])]\u00b7q1,[([p_002], [y])]\u00b7q2_]", "2024-04-08 09:00:00"],
    ["tau_queue2", null, "model", {"y": "y", "p": "p_002"}, "[[([p_002], [y])]\u00b7q2_,[([y])]\u00b7q3]", "[[([y])]\u00b7q2,[([p_002], [y])]\u00b7q3_]", "2024-04-08 09:00:00"],
    ["load in truck", "load in truck", "model", {"p": "p_001", "e": "e1", "v": "v1"}, "[[([p_001], [e1])]\u00b7p3,[([v1])]\u00b7p_v_ava]", "[[([p_001], [v1])]\u00b7p4,[([p_001], [v1])]\u00b7p_v_occ,[([v1])]\u00b7p_v_occ_v,[([e1])]\u00b7p_we]", "2024-04-08 09:15:59.971621"],
    ["pick package", "pick package", "model", {"p": "p_002", "y": "y", "e": "e1"}, "[[([p_002])]\u00b7p2,[([e1])]\u00b7p_we,[([p_002], [y])]\u00b7q3_]", "[[([p_002], [e1])]\u00b7p3,[([y])]\u00b7q3]", "2024-04-08 09:15:59.971621"],
    ["load in truck", "load in truck", "model", {"p": "p_002", "e": "e1", "v": "v1"}, "[[([p_002], [e1])]\u00b7p3,[([v1])]\u00b7p_v_ava]", "[[([p_002], [v1])]\u00b7p4,[([p_002], [v1])]\u00b7p_v_occ,[([v1])]\u00b7p_v_occ_v,[([e1])]\u00b7p_we]", "2024-04-08 09:35:46.888104"],
    ["tau_d_1", null, "model", {"p": "p_001", "v": "v1", "d": "d2"}, "[[([p_001], [v1])]\u00b7p4,[([d2])]\u00b7p_d_on]", "[[([p_001], [d2])]\u00b7p6,[([v1], [d2])]\u00b7p_v_d,[([v1])]\u00b7p_v_transit]", "2024-04-08 09:35:46.888104"],
    ["tau_1_parallel_deliver depot_collect", null, "model", {"v": "v1", "p": "p_001", "w": "w2", "d": "d2"}, "[[([p_001])]\u00b7p12,[([p_001], [d2])]\u00b7p6,[([p_001], [w2])]\u00b7p7,[([p_001], [v1])]\u00b7p_v_occ,[([v1])]\u00b7p_v_occ_v,[([w2])]\u00b7p_w]", "[[([p_001])]\u00b7p12_missp__,[([p_001], [d2])]\u00b7p6_missp__,[([p_001], [w2])]\u00b7p7_missp__,[([p_001], [w2])]\u00b7p9_missp_,[([p_001], [v1])]\u00b7p_v_occ_missp__,[([v1])]\u00b7p_v_occ_v_missp__,[([w2])]\u00b7p_w_missp__]", "2024-04-08 09:53:33.598516"],
    ["deliver depot_parallel_collect", "deliver depot", "model", {"v": "v1", "p": "p_001", "w": "w2", "d": "d2"}, "[[([p_001])]\u00b7p12_missp__,[([p_001], [d2])]\u00b7p6_missp__,[([p_001], [w2])]\u00b7p7_missp__,[([p_001], [v1])]\u00b7p_v_occ_missp__,[([v1])]\u00b7p_v_occ_v_missp__,[([w2])]\u00b7p_w_missp__]", "[[([d2])]\u00b7p_d_on,[([d2])]\u00b7p_d_on_missp_,[([v1])]\u00b7p_v_free,[([v1])]\u00b7p_v_free_imm,[([v1])]\u00b7p_v_free_imm_missp_,[([v1])]\u00b7p_v_free_missp_]", "2024-04-08 09:53:33.598516"],
    ["collect_parallel_deliver depot", "collect", "model", {"p": "p_001", "w": "w2"}, "[[([p_001], [w2])]\u00b7p9_missp_]", "[[([p_001])]\u00b7p10_missp_,[([w2])]\u00b7p_w_missp_]", "2024-04-08 09:53:33.598516"],
    ["tau_2_parallel_deliver depot_collect", null, "model", {"v": "v1", "w": "w2", "p": "p_001", "d": "d2"}, "[[([p_001])]\u00b7p10_missp_,[([d2])]\u00b7p_d_on_missp_,[([v1])]\u00b7p_v_free_imm_missp_,[([v1])]\u00b7p_v_free_missp_,[([w2])]\u00b7p_w_missp_]", "[[([p_001])]\u00b7p10,[([w2])]\u00b7p_w]", "2024-04-08 09:53:33.598516"],
    ["destroy", "destroy", "model", {"p": "p_001"}, "[[([p_001])]\u00b7p10]", "[]", "2024-04-08 09:53:33.598516"],
    ["tau_d_2", null, "model", {"p": "p_002", "v": "v1", "d": "d2"}, "[[([p_002], [v1])]\u00b7p4,[([d2])]\u00b7p_d_on,[([v1], [d2])]\u00b7p_v_d,[([v1])]\u00b7p_v_transit]", "[[([p_002], [d2])]\u00b7p6,[2\u00b7([v1], [d2])]\u00b7p_v_d,[2\u00b7([v1])]\u00b7p_v_transit]", "2024-04-08 10:01:04.423184"],
    ["tau_1_parallel_deliver depot_collect", null, "model", {"v": "v1", "p": "p_002", "w": "w1", "d": "d2"}, "[[([p_002])]\u00b7p12,[([p_002], [d2])]\u00b7p6,[([p_002], [w1])]\u00b7p7,[([p_002], [v1])]\u00b7p_v_occ,[([v1])]\u00b7p_v_occ_v,[([w1])]\u00b7p_w]", "[[([p_002])]\u00b7p12_missp__,[([p_002], [d2])]\u00b7p6_missp__,[([p_002], [w1])]\u00b7p7_missp__,[([p_002], [w1])]\u00b7p9_missp_,[([p_002], [v1])]\u00b7p_v_occ_missp__,[([v1])]\u00b7p_v_occ_v_missp__,[([w1])]\u00b7p_w_missp__]", "2024-04-08 10:01:04.423184"],
    ["deliver depot_parallel_collect", "deliver depot", "model", {"v": "v1", "p": "p_002", "w": "w1", "d": "d2"}, "[[([p_002])]\u00b7p12_missp__,[([p_002], [d2])]\u00b7p6_missp__,[([p_002], [w1])]\u00b7p7_missp__,[([p_002], [v1])]\u00b7p_v_occ_missp__,[([v1])]\u00b7p_v_occ_v_missp__,[([w1])]\u00b7p_w_missp__]", "[[([d2])]\u00b7p_d_on,[([d2])]\u00b7p_d_on_missp_,[([v1])]\u00b7p_v_free,[([v1])]\u00b7p_v_free_imm,[([v1])]\u00b7p_v_free_imm_missp_,[([v1])]\u00b7p_v_free_missp_]", "2024-04-08 10:01:04.423184"],
    ["collect_parallel_deliver depot", "collect", "model", {"p": "p_002", "w": "w1"}, "[[([p_002], [w1])]\u00b7p9_missp_]", "[[([p_002])]\u00b7p10_missp_,[([w1])]\u00b7p_w_missp_]", "2024-04-08 10:01:04.423184"],
    ["tau_2_parallel_deliver depot_collect", null, "model", {"v": "v1", "w": "w1", "p": "p_002", "d": "d2"}, "[[([p_002])]\u00b7p10_missp_,[([d2])]\u00b7p_d_on_missp_,[([v1])]\u00b7p_v_free_imm_missp_,[([v1])]\u00b7p_v_free_missp_,[([w1])]\u00b7p_w_missp_]", "[[([p_002])]\u00b7p10,[([w1])]\u00b7p_w]", "2024-04-08 10:01:04.423184"],
    ["destroy", "destroy", "model", {"p": "p_002"}, "[[([p_002])]\u00b7p10]", "[]", "2024-04-08 10:01:04.423184"],
    ["tau_free", null, "model", {"v": "v1", "d": "d2"}, "[[([v1], [d2])]\u00b7p_v_d,[([v1])]\u00b7p_v_free,[([v1])]\u00b7p_v_free_imm,[([v1])]\u00b7p_v_transit]", "[[([v1])]\u00b7p_v_ava]", "2024-04-08 10:07:45.945195"],
    ["tau_free", null, "model", {"v": "v1", "d": "d2"}, "[[([v1], [d2])]\u00b7p_v_d,[([v1])]\u00b7p_v_free,[([v1])]\u00b7p_v_free_imm,[([v1])]\u00b7p_v_transit]", "[[([v1])]\u00b7p_v_ava]", "2024-04-08 10:11:16.165434"]
  ],
  "r": [
    [0, 1, 1, 1, 0, 1, 1, 1, 1, 1, 1, 1, 1, 1, 1, 1, 1, 1, 1, 1, 1, 1, 1, 1, 1, 1, 1, 1],
    [0, 0, 1, 1, 0, 1, 1, 1, 1, 1, 1, 1, 1, 1, 1, 1, 1, 1, 1, 1, 1, 1, 1, 1, 1, 1, 1, 1],
    [0, 0, 0, 0, 0, 1, 1, 1, 1, 1, 1, 1, 1, 1, 1, 1, 1, 1, 1, 1, 1, 1, 1, 1, 1, 1, 1, 1],
    [0, 0, 0, 0, 0, 0, 0, 0, 0, 0, 0, 0, 0, 0, 1, 1, 1, 1, 1, 1, 1, 1, 1, 1, 1, 1, 1, 1],
    [0, 0, 0, 0, 0, 1, 1, 0, 0, 1, 1, 0, 1, 1, 1, 1, 1, 1, 1, 1, 1, 1, 1, 1, 1, 1, 1, 1],
    [0, 0, 0, 0, 0, 0, 1, 0, 0, 1, 1, 0, 1, 1, 1, 1, 1, 1, 1, 1, 1, 1, 1, 1, 1, 1, 1, 1],
    [0, 0, 0, 0, 0, 0, 0, 0, 0, 0, 0, 0, 0, 0, 1, 1, 1, 1, 1, 1, 1, 1, 1, 1, 1, 1, 1, 1],
    [0, 0, 0, 0, 0, 0, 0, 0, 1, 1, 1, 1, 1, 1, 1, 1, 1, 1, 1, 1, 1, 1, 1, 1, 1, 1, 1, 1],
    [0, 0, 0, 0, 0, 0, 0, 0, 0, 0, 1, 1, 1, 1, 1, 1, 1, 1, 1, 1, 1, 1, 1, 1, 1, 1, 1, 1],
    [0, 0, 0, 0, 0, 0, 0, 0, 0, 0, 1, 0, 1, 1, 1, 1, 1, 1, 1, 1, 1, 1, 1, 1, 1, 1, 1, 1],
    [0, 0, 0, 0, 0, 0, 0, 0, 0, 0, 0, 0, 1, 1, 1, 1, 1, 1, 1, 1, 1, 1, 1, 1, 1, 1, 1, 1],
    [0, 0, 0, 0, 0, 0, 0, 0, 0, 0, 0, 0, 1, 1, 1, 1, 1, 1, 1, 1, 1, 1, 1, 1, 1, 1, 1, 1],
    [0, 0, 0, 0, 0, 0, 0, 0, 0, 0, 0, 0, 0, 1, 1, 1, 1, 1, 1, 1, 1, 1, 1, 1, 1, 1, 1, 1],
    [0, 0, 0, 0, 0, 0, 0, 0, 0, 0, 0, 0, 0, 0, 1, 1, 1, 1, 1, 1, 1, 1, 1, 1, 1, 1, 1, 1],
    [0, 0, 0, 0, 0, 0, 0, 0, 0, 0, 0, 0, 0, 0, 0, 1, 1, 1, 1, 1, 1, 1, 1, 1, 1, 1, 1, 1],
    [0, 0, 0, 0, 0, 0, 0, 0, 0, 0, 0, 0, 0, 0, 0, 0, 1, 1, 1, 1, 1, 1, 1, 1, 1, 1, 1, 1],
    [0, 0, 0, 0, 0, 0, 0, 0, 0, 0, 0, 0, 0, 0, 0, 0, 0, 0, 1, 1, 1, 1, 1, 1, 1, 1, 1, 1],
    [0, 0, 0, 0, 0, 0, 0, 0, 0, 0, 0, 0, 0, 0, 0, 0, 0, 0, 1, 1, 0, 0, 0, 0, 0, 0, 0, 0],
    [0, 0, 0, 0, 0, 0, 0, 0, 0, 0, 0, 0, 0, 0, 0, 0, 0, 0, 0, 1, 0, 0, 0, 0, 0, 0, 0, 0],
    [0, 0, 0, 0, 0, 0, 0, 0, 0, 0, 0, 0, 0, 0, 0, 0, 0, 0, 0, 0, 0, 0, 0, 0, 0, 0, 0, 0],
    [0, 0, 0, 0, 0, 0, 0, 0, 0, 0, 0, 0, 0, 0, 0, 0, 0, 0, 0, 0, 0, 1, 1, 1, 1, 1, 1, 1],
    [0, 0, 0, 0, 0, 0, 0, 0, 0, 0, 0, 0, 0, 0, 0, 0, 0, 0, 0, 0, 0, 0, 1, 1, 1, 1, 1, 1],
    [0, 0, 0, 0, 0, 0, 0, 0, 0, 0, 0, 0, 0, 0, 0, 0, 0, 0, 0, 0, 0, 0, 0, 0, 1, 1, 1, 1],
    [0, 0, 0, 0, 0, 0, 0, 0, 0, 0, 0, 0, 0, 0, 0, 0, 0, 0, 0, 0, 0, 0, 0, 0, 1, 1, 0, 0],
    [0, 0, 0, 0, 0, 0, 0, 0, 0, 0, 0, 0, 0, 0, 0, 0, 0, 0, 0, 0, 0, 0, 0, 0, 0, 1, 0, 0],
    [0, 0, 0, 0, 0, 0, 0, 0, 0, 0, 0, 0, 0, 0, 0, 0, 0, 0, 0, 0, 0, 0, 0, 0, 0, 0, 0, 0],
    [0, 0, 0, 0, 0, 0, 0, 0, 0, 0, 0, 0, 0, 0, 0, 0, 0, 0, 0, 0, 0, 0, 0, 0, 0, 0, 0, 0],
    [0, 0, 0, 0, 0, 0, 0, 0, 0, 0, 0, 0, 0, 0, 0, 0, 0, 0, 0, 0, 0, 0, 0, 0, 0, 0, 0, 0]
  ],
  "Pi": {
    "missing position": 2
  },
  "m_i": "[[([d2]),([d1])]\u00b7p_d_on,[2\u00b7([v1])]\u00b7p_v_ava,[5\u00b7([w2]),4\u00b7([w1])]\u00b7p_w,[([e1])]\u00b7p_we,[([y])]\u00b7q1,[([y])]\u00b7q2,[([y])]\u00b7q3]"
}