{
  "M": [
    ["create", "create", "model", {"p": "p_001"}, "[]", "[[([p_001])]\u00b7p1]", "2024-04-08 09:00:00"],
    ["order home_incorrect_order depot", "order home", "model", {"p": "p_001", "y": "y"}, "[[([p_001])]\u00b7p1,[([y])]\u00b7q1]", "[[([p_001])]\u00b7p12,[([p_001])]\u00b7p2,[([p_001])]\u00b7p8,[([p_001], [y])]\u00b7q1_]", "2024-04-08 09:00:00"],
    ["register depot", "register depot", "model", {"p": "p_001", "w": "w2"}, "[[([p_001])]\u00b7p8,[([w2])]\u00b7p_w]", "[[([p_001], [w2])]\u00b7p7,[([w2])]\u00b7p_w]", "2024-04-08 09:00:00"],
    ["tau_queue1", null, "model", {"p": "p_001", "y": "y"}, "[[([p_001], [y])]\u00b7q1_,[([y])]\u00b7q2]", "[[([y])]\u00b7q1,[([p_001], [y])]\u00b7q2_]", "2024-04-08 09:00:00"],
    ["create", "create", "model", {"p": "p_002"}, "[]", "[[([p_002])]\u00b7p1]", "2024-04-08 09:00:00"],
    ["order home_incorrect_order depot", "order home", "model", {"p": "p_002", "y": "y"}, "[[([p_002])]\u00b7p1,[([y])]\u00b7q1]", "[[([p_002])]\u00b7p12,[([p_002])]\u00b7p2,[([p_002])]\u00b7p8,[([p_002], [y])]\u00b7q1_]", "2024-04-08 09:00:00"],
    ["register depot", "register depot", "model", {"p": "p_002", "w": "w1"}, "[[([p_002])]\u00b7p8,[([w1])]\u00b7p_w]", "[[([p_002], [w1])]\u00b7p7,[([w1])]\u00b7p_w]", "2024-04-08 09:00:00"],
    ["tau_queue2", null, "model", {"y": "y", "p": "p_001"}, "[[([p_001], [y])]\u00b7q2_,[([y])]\u00b7q3]", "[[([y])]\u00b7q2,[([p_001], [y])]\u00b7q3_]", "2024-04-08 09:00:00"],
    ["tau_queue1", null, "model", {"p": "p_002", "y": "y"}, "[[([p_002], [y])]\u00b7q1_,[([y])]\u00b7q2]", "[[([y])]\u00b7q1,[([p_002], [y])]\u00b7q2_]", "2024-04-08 09:00:00"],
    ["pick package", "pick package", "model", {"p": "p_001", "y": "y", "e": "e1"}, "[[([p_001])]\u00b7p2,[([e1])]\u00b7p_we,[([p_001], [y])]\u00b7q3_]", "[[([p_001], [e1])]\u00b7p3,[([y])]\u00b7q3]", "2024-04-08 09:00:00"],
    ["tau_queue2", null, "model", {"y": "y", "p": "p_002"}, "[[([p_002], [y])]\u00b7q2_,[([y])]\u00b7q3]", "[[([y])]\u00b7q2,[([p_002], [y])]\u00b7q3_]", "2024-04-08 09:00:00"],
    ["load in truck", "load in truck", "model", {"p": "p_001", "e": "e1", "v": "v1"}, "[[([p_001], [e1])]\u00b7p3,[([v1])]\u00b7p_v_ava]", "[[([p_001], [v1])]\u00b7p4,[([p_001], [v1])]\u00b7p_v_occ,[([v1])]\u00b7p_v_occ_v,[([e1])]\u00b7p_we]", "2024-04-08 09:08:55.623301"],
    ["pick package", "pick package", "model", {"p": "p_002", "y": "y", "e": "e1"}, "[[([p_002])]\u00b7p2,[([e1])]\u00b7p_we,[([p_002], [y])]\u00b7q3_]", "[[([p_002], [e1])]\u00b7p3,[([y])]\u00b7q3]", "2024-04-08 09:08:55.623301"],
    ["load in truck", "load in truck", "model", {"p": "p_002", "e": "e1", "v": "v1"}, "[[([p_002], [e1])]\u00b7p3,[([v1])]\u00b7p_v_ava]", "[[([p_002], [v1])]\u00b7p4,[([p_002], [v1])]\u00b7p_v_occ,[([v1])]\u00b7p_v_occ_v,[([e1])]\u00b7p_we]", "2024-04-08 09:26:21.389064"],
    ["tau_d_1", null, "model", {"p": "p_002", "v": "v1", "d": "d2"}, "[[([p_002], [v1])]\u00b7p4,[([d2])]\u00b7p_d_on]", "[[([p_002], [d2])]\u00b7p6,[([v1], [d2])]\u00b7p_v_d,[([v1])]\u00b7p_v_transit]", "2024-04-08 09:26:21.389064"],
    ["deliver depot", "deliver depot", "model", {"p": "p_002", "v": "v1", "w": "w1", "d": "d2"}, "[[([p_002])]\u00b7p12,[([p_002], [d2])]\u00b7p6,[([p_002], [w1])]\u00b7p7,[([p_002], [v1])]\u00b7p_v_occ,[([v1])]\u00b7p_v_occ_v,[([w1])]\u00b7p_w]", "[[([p_002], [w1])]\u00b7p9,[([d2])]\u00b7p_d_on,[([v1])]\u00b7p_v_free,[([v1])]\u00b7p_v_free_imm]", "2024-04-08 10:15:01.909815"],
    ["tau_d_2", null, "model", {"p": "p_001", "v": "v1", "d": "d2"}, "[[([p_001], [v1])]\u00b7p4,[([d2])]\u00b7p_d_on,[([v1], [d2])]\u00b7p_v_d,[([v1])]\u00b7p_v_transit]", "[[([p_001], [d2])]\u00b7p6,[2\u00b7([v1], [d2])]\u00b7p_v_d,[2\u00b7([v1])]\u00b7p_v_transit]", "2024-04-08 10:21:08.178876"],
    ["deliver depot", "deliver depot", "model", {"p": "p_001", "v": "v1", "w": "w2", "d": "d2"}, "[[([p_001])]\u00b7p12,[([p_001], [d2])]\u00b7p6,[([p_001], [w2])]\u00b7p7,[([p_001], [v1])]\u00b7p_v_occ,[([v1])]\u00b7p_v_occ_v,[([w2])]\u00b7p_w]", "[[([p_001], [w2])]\u00b7p9,[([d2])]\u00b7p_d_on,[([v1])]\u00b7p_v_free,[([v1])]\u00b7p_v_free_imm]", "2024-04-08 10:21:08.178876"],
    ["tau_free", null, "model", {"v": "v1", "d": "d2"}, "[[([v1], [d2])]\u00b7p_v_d,[([v1])]\u00b7p_v_free,[([v1])]\u00b7p_v_free_imm,[([v1])]\u00b7p_v_transit]", "[[([v1])]\u00b7p_v_ava]", "2024-04-08 10:22:45.460961"],
    ["tau_free", null, "model", {"v": "v1", "d": "d2"}, "[[([v1], [d2])]\u00b7p_v_d,[([v1])]\u00b7p_v_free,[([v1])]\u00b7p_v_free_imm,[([v1])]\u00b7p_v_transit]", "[[([v1])]\u00b7p_v_ava]", "2024-04-08 10:32:48.874845"],
    ["collect", "collect", "model", {"p": "p_002", "w": "w1"}, "[[([p_002], [w1])]\u00b7p9]", "[[([p_002])]\u00b7p10,[([w1])]\u00b7p_w]", "2024-04-08 17:07:18.361450"],
    ["destroy", "destroy", "model", {"p": "p_002"}, "[[([p_002])]\u00b7p10]", "[]", "2024-04-08 17:07:18.361450"],
    ["collect", "collect", "model", {"p": "p_001", "w": "w2"}, "[[([p_001], [w2])]\u00b7p9]", "[[([p_001])]\u00b7p10,[([w2])]\u00b7p_w]", "2024-04-08 17:31:55.957598"],
    ["destroy", "destroy", "model", {"p": "p_001"}, "[[([p_001])]\u00b7p10]", "[]", "2024-04-08 17:31:55.957598"]
  ],
  "r": [
    [0, 1, 1, 1, 0, 1, 1, 1, 1, 1, 1, 1, 1, 1, 1, 1, 1, 1, 1, 1, 1, 1, 1, 1],
    [0, 0, 1, 1, 0, 1, 1, 1, 1, 1, 1, 1, 1, 1, 1, 1, 1, 1, 1, 1, 1, 1, 1, 1],
    [0, 0, 0, 0, 0, 0, 0, 0, 0, 0, 0, 0, 0, 0, 1, 1, 1, 1, 1, 1, 1, 1, 1, 1],
    [0, 0, 0, 0, 0, 1, 1, 1, 1, 1, 1, 1, 1, 1, 1, 1, 1, 1, 1, 1, 1, 1, 1, 1],
    [0, 0, 0, 0, 0, 1, 1, 0, 1, 0, 1, 0, 1, 1, 1, 1, 1, 1, 1, 1, 1, 1, 1, 1],
    [0, 0, 0, 0, 0, 0, 1, 0, 1, 0, 1, 0, 1, 1, 1, 1, 1, 1, 1, 1, 1, 1, 1, 1],
    [0, 0, 0, 0, 0, 0, 0, 0, 0, 0, 0, 0, 0, 0, 1, 1, 1, 1, 1, 1, 1, 1, 1, 1],
    [0, 0, 0, 0, 0, 0, 0, 0, 1, 1, 1, 1, 1, 1, 1, 1, 1, 1, 1, 1, 1, 1, 1, 1],
    [0, 0, 0, 0, 0, 0, 0, 0, 0, 0, 1, 0, 1, 1, 1, 1, 1, 1, 1, 1, 1, 1, 1, 1],
    [0, 0, 0, 0, 0, 0, 0, 0, 0, 0, 1, 1, 1, 1, 1, 1, 1, 1, 1, 1, 1, 1, 1, 1],
    [0, 0, 0, 0, 0, 0, 0, 0, 0, 0, 0, 0, 1, 1, 1, 1, 1, 1, 1, 1, 1, 1, 1, 1],
    [0, 0, 0, 0, 0, 0, 0, 0, 0, 0, 0, 0, 1, 1, 1, 1, 1, 1, 1, 1, 1, 1, 1, 1],
    [0, 0, 0, 0, 0, 0, 0, 0, 0, 0, 0, 0, 0, 1, 1, 1, 1, 1, 1, 1, 1, 1, 1, 1],
    [0, 0, 0, 0, 0, 0, 0, 0, 0, 0, 0, 0, 0, 0, 1, 1, 1, 1, 1, 1, 1, 1, 1, 1],
    [0, 0, 0, 0, 0, 0, 0, 0, 0, 0, 0, 0, 0, 0, 0, 1, 1, 1, 1, 1, 1, 1, 1, 1],
    [0, 0, 0, 0, 0, 0, 0, 0, 0, 0, 0, 0, 0, 0, 0, 0, 1, 1, 1, 1, 1, 1, 1, 1],
    [0, 0, 0, 0, 0, 0, 0, 0, 0, 0, 0, 0, 0, 0, 0, 0, 0, 1, 1, 1, 0, 0, 1, 1],
    [0, 0, 0, 0, 0, 0, 0, 0, 0, 0, 0, 0, 0, 0, 0, 0, 0, 0, 1, 1, 0, 0, 1, 1],
    [0, 0, 0, 0, 0, 0, 0, 0, 0, 0, 0, 0, 0, 0, 0, 0, 0, 0, 0, 0, 0, 0, 0, 0],
    [0, 0, 0, 0, 0, 0, 0, 0, 0, 0, 0, 0, 0, 0, 0, 0, 0, 0, 0, 0, 0, 0, 0, 0],
    [0, 0, 0, 0, 0, 0, 0, 0, 0, 0, 0, 0, 0, 0, 0, 0, 0, 0, 0, 0, 0, 1, 0, 0],
    [0, 0, 0, 0, 0, 0, 0, 0, 0, 0, 0, 0, 0, 0, 0, 0, 0, 0, 0, 0, 0, 0, 0, 0],
    [0, 0, 0, 0, 0, 0, 0, 0, 0, 0, 0, 0, 0, 0, 0, 0, 0, 0, 0, 0, 0, 0, 0, 1],
    [0, 0, 0, 0, 0, 0, 0, 0, 0, 0, 0, 0, 0, 0, 0, 0, 0, 0, 0, 0, 0, 0, 0, 0]
  ],
  "Pi": {
    "incorrect event order depot->home": 2
  },
  "m_i": "[[([d2]),([d1])]\u00b7p_d_on,[2\u00b7([v1])]\u00b7p_v_ava,[5\u00b7([w2]),4\u00b7([w1])]\u00b7p_w,[([e1])]\u00b7p_we,[([y])]\u00b7q1,[([y])]\u00b7q2,[([y])]\u00b7q3]"
}