{
  "M": [
    ["create", "create", "model", {"p": "p_001"}, "[]", "[[([p_001])]\u00b7p1]", "2024-04-08 09:00:00"],
    ["order depot", "order depot", "model", {"p": "p_001", "y": "y"}, "[[([p_001])]\u00b7p1,[([y])]\u00b7q1]", "[[([p_001])]\u00b7p12,[([p_001])]\u00b7p2,[([p_001])]\u00b7p8,[([p_001], [y])]\u00b7q1_]", "2024-04-08 09:00:00"],
    ["tau_queue1", null, "model", {"p": "p_001", "y": "y"}, "[[([p_001], [y])]\u00b7q1_,[([y])]\u00b7q2]", "[[([y])]\u00b7q1,[([p_001], [y])]\u00b7q2_]", "2024-04-08 09:00:00"],
    ["register depot", "register depot", "model", {"p": "p_001", "w": "w2"}, "[[([p_001])]\u00b7p8,[([w2])]\u00b7p_w]", "[[([p_001], [w2])]\u00b7p7,[([w2])]\u00b7p_w]", "2024-04-08 09:00:00"],
    ["create", "create", "model", {"p": "p_002"}, "[]", "[[([p_002])]\u00b7p1]", "2024-04-08 09:00:00"],
    ["order home", "order home", "model", {"y": "y", "p": "p_002"}, "[[([p_002])]\u00b7p1,[([y])]\u00b7q1]", "[[([p_002])]\u00b7p11,[([p_002])]\u00b7p2,[([p_002], [y])]\u00b7q1_]", "2024-04-08 09:00:00"],
    ["tau_queue2", null, "model", {"y": "y", "p": "p_001"}, "[[([p_001], [y])]\u00b7q2_,[([y])]\u00b7q3]", "[[([y])]\u00b7q2,[([p_001], [y])]\u00b7q3_]", "2024-04-08 09:00:00"],
    ["tau_queue1", null, "model", {"p": "p_002", "y": "y"}, "[[([p_002], [y])]\u00b7q1_,[([y])]\u00b7q2]", "[[([y])]\u00b7q1,[([p_002], [y])]\u00b7q2_]", "2024-04-08 09:00:00"],
    ["pick package", "pick package", "model", {"p": "p_001", "y": "y", "e": "e1"}, "[[([p_001])]\u00b7p2,[([e1])]\u00b7p_we,[([p_001], [y])]\u00b7q3_]", "[[([p_001], [e1])]\u00b7p3,[([y])]\u00b7q3]", "2024-04-08 09:00:00"],
    ["tau_queue2", null, "model", {"y": "y", "p": "p_002"}, "[[([p_002], [y])]\u00b7q2_,[([y])]\u00b7q3]", "[[([y])]\u00b7q2,[([p_002], [y])]\u00b7q3_]", "2024-04-08 09:00:00"],
    ["load in truck", "load in truck", "model", {"p": "p_001", "e": "e1", "v": "v1"}, "[[([p_001], [e1])]\u00b7p3,[([v1])]\u00b7p_v_ava]", "[[([p_001], [v1])]\u00b7p4,[([p_001], [v1])]\u00b7p_v_occ,[([v1])]\u00b7p_v_occ_v,[([e1])]\u00b7p_we]", "2024-04-08 09:14:08.574143"],
    ["pick package", "pick package", "model", {"p": "p_002", "y": "y", "e": "e1"}, "[[([p_002])]\u00b7p2,[([e1])]\u00b7p_we,[([p_002], [y])]\u00b7q3_]", "[[([p_002], [e1])]\u00b7p3,[([y])]\u00b7q3]", "2024-04-08 09:14:08.574143"],
    ["load in truck", "load in truck", "model", {"p": "p_002", "e": "e1", "v": "v1"}, "[[([p_002], [e1])]\u00b7p3,[([v1])]\u00b7p_v_ava]", "[[([p_002], [v1])]\u00b7p4,[([p_002], [v1])]\u00b7p_v_occ,[([v1])]\u00b7p_v_occ_v,[([e1])]\u00b7p_we]", "2024-04-08 09:25:27.516429"],
    ["tau_d_1", null, "model", {"p": "p_001", "v": "v1", "d": "d1"}, "[[([p_001], [v1])]\u00b7p4,[([d1])]\u00b7p_d_on]", "[[([p_001], [d1])]\u00b7p6,[([v1], [d1])]\u00b7p_v_d,[([v1])]\u00b7p_v_transit]", "2024-04-08 09:25:27.516429"],
    ["tau_destroy^p6\u21be{D}_negl_{P}", null, "model", {"p": "p_001", "d": "d1"}, "[[([p_001])]\u00b7p12,[([p_001], [d1])]\u00b7p6]", "[[([p_001])]\u00b7p12,[([d1])]\u00b7p6\u21be{D},[([p_001])]\u00b7p6\u21be{P}]", "2024-04-08 09:53:50.622196"],
    ["deliver depot_neglect_D", "deliver depot", "model", {"w": "w2", "p": "p_001", "v": "v1"}, "[[([p_001])]\u00b7p12,[([p_001])]\u00b7p6\u21be{P},[([p_001], [w2])]\u00b7p7,[([p_001], [v1])]\u00b7p_v_occ,[([v1])]\u00b7p_v_occ_v,[([w2])]\u00b7p_w]", "[[([p_001])]\u00b7p12_,[([p_001])]\u00b7p6\u21be{P}_,[([p_001], [w2])]\u00b7p7_,[([p_001], [w2])]\u00b7p9,[([v1])]\u00b7p_v_free,[([v1])]\u00b7p_v_free_imm,[([p_001], [v1])]\u00b7p_v_occ_,[([v1])]\u00b7p_v_occ_v_,[([w2])]\u00b7p_w_]", "2024-04-08 09:53:50.622196"],
    ["tau_deliver depot_D_negl", null, "model", {"w": "w2", "p": "p_001", "d": "d1", "v": "v1"}, "[[([p_001])]\u00b7p12_,[([d1])]\u00b7p6\u21be{D},[([p_001])]\u00b7p6\u21be{P}_,[([p_001], [w2])]\u00b7p7_,[([p_001], [v1])]\u00b7p_v_occ_,[([v1])]\u00b7p_v_occ_v_,[([w2])]\u00b7p_w_]", "[[([d1])]\u00b7p_d_on]", "2024-04-08 09:53:50.622196"],
    ["tau_d_2", null, "model", {"p": "p_002", "v": "v1", "d": "d1"}, "[[([p_002], [v1])]\u00b7p4,[([d1])]\u00b7p_d_on,[([v1], [d1])]\u00b7p_v_d,[([v1])]\u00b7p_v_transit]", "[[([p_002], [d1])]\u00b7p6,[2\u00b7([v1], [d1])]\u00b7p_v_d,[2\u00b7([v1])]\u00b7p_v_transit]", "2024-04-08 09:53:50.622196"],
    ["ring", "ring", "model", {"p": "p_002", "d": "d1"}, "[[([p_002])]\u00b7p11,[([p_002], [d1])]\u00b7p6]", "[[([p_002], [d1])]\u00b7p5]", "2024-04-08 09:53:50.622196"],
    ["tau_2", null, "model", {"p": "p_002", "d": "d1"}, "[[([p_002], [d1])]\u00b7p5]", "[[([p_002])]\u00b7p12,[([p_002], [d1])]\u00b7p6,[([p_002])]\u00b7p8]", "2024-04-08 09:59:04.979855"],
    ["register depot", "register depot", "model", {"p": "p_002", "w": "w1"}, "[[([p_002])]\u00b7p8,[([w1])]\u00b7p_w]", "[[([p_002], [w1])]\u00b7p7,[([w1])]\u00b7p_w]", "2024-04-08 09:59:04.979855"],
    ["deliver depot", "deliver depot", "model", {"p": "p_002", "v": "v1", "w": "w1", "d": "d1"}, "[[([p_002])]\u00b7p12,[([p_002], [d1])]\u00b7p6,[([p_002], [w1])]\u00b7p7,[([p_002], [v1])]\u00b7p_v_occ,[([v1])]\u00b7p_v_occ_v,[([w1])]\u00b7p_w]", "[[([p_002], [w1])]\u00b7p9,[([d1])]\u00b7p_d_on,[([v1])]\u00b7p_v_free,[([v1])]\u00b7p_v_free_imm]", "2024-04-08 10:12:38.980009"],
    ["tau_free", null, "model", {"v": "v1", "d": "d1"}, "[[([v1], [d1])]\u00b7p_v_d,[([v1])]\u00b7p_v_free,[([v1])]\u00b7p_v_free_imm,[([v1])]\u00b7p_v_transit]", "[[([v1])]\u00b7p_v_ava]", "2024-04-08 10:12:38.980009"],
    ["tau_free", null, "model", {"v": "v1", "d": "d1"}, "[[([v1], [d1])]\u00b7p_v_d,[([v1])]\u00b7p_v_free,[([v1])]\u00b7p_v_free_imm,[([v1])]\u00b7p_v_transit]", "[[([v1])]\u00b7p_v_ava]", "2024-04-08 10:24:31.225687"],
    ["collect", "collect", "model", {"p": "p_001", "w": "w2"}, "[[([p_001], [w2])]\u00b7p9]", "[[([p_001])]\u00b7p10,[([w2])]\u00b7p_w]", "2024-04-08 14:11:19.302859"],
    ["destroy", "destroy", "model", {"p": "p_001"}, "[[([p_001])]\u00b7p10]", "[]", "2024-04-08 14:11:19.302859"],
    ["collect", "collect", "model", {"p": "p_002", "w": "w1"}, "[[([p_002], [w1])]\u00b7p9]", "[[([p_002])]\u00b7p10,[([w1])]\u00b7p_w]", "2024-04-08 16:18:07.417756"],
    ["destroy", "destroy", "model", {"p": "p_002"}, "[[([p_002])]\u00b7p10]", "[]", "2024-04-08 16:18:07.417756"]
  ],
  "r": [
    [0, 1, 1, 1, 0, 1, 1, 1, 1, 1, 1, 1, 1, 1, 1, 1, 1, 1, 1, 1, 1, 1, 1, 1, 1, 1, 1, 1],
    [0, 0, 1, 1, 0, 1, 1, 1, 1, 1, 1, 1, 1, 1, 1, 1, 1, 1, 1, 1, 1, 1, 1, 1, 1, 1, 1, 1],
    [0, 0, 0, 0, 0, 1, 1, 1, 1, 1, 1, 1, 1, 1, 1, 1, 1, 1, 1, 1, 1, 1, 1, 1, 1, 1, 1, 1],
    [0, 0, 0, 0, 0, 0, 0, 0, 0, 0, 0, 0, 0, 1, 1, 1, 1, 1, 1, 1, 1, 1, 1, 1, 1, 1, 1, 1],
    [0, 0, 0, 0, 0, 1, 0, 1, 0, 1, 0, 1, 1, 1, 1, 1, 1, 1, 1, 1, 1, 1, 1, 1, 1, 1, 1, 1],
    [0, 0, 0, 0, 0, 0, 0, 1, 0, 1, 0, 1, 1, 1, 1, 1, 1, 1, 1, 1, 1, 1, 1, 1, 1, 1, 1, 1],
    [0, 0, 0, 0, 0, 0, 0, 1, 1, 1, 1, 1, 1, 1, 1, 1, 1, 1, 1, 1, 1, 1, 1, 1, 1, 1, 1, 1],
    [0, 0, 0, 0, 0, 0, 0, 0, 0, 1, 0, 1, 1, 1, 1, 1, 1, 1, 1, 1, 1, 1, 1, 1, 1, 1, 1, 1],
    [0, 0, 0, 0, 0, 0, 0, 0, 0, 1, 1, 1, 1, 1, 1, 1, 1, 1, 1, 1, 1, 1, 1, 1, 1, 1, 1, 1],
    [0, 0, 0, 0, 0, 0, 0, 0, 0, 0, 0, 1, 1, 1, 1, 1, 1, 1, 1, 1, 1, 1, 1, 1, 1, 1, 1, 1],
    [0, 0, 0, 0, 0, 0, 0, 0, 0, 0, 0, 1, 1, 1, 1, 1, 1, 1, 1, 1, 1, 1, 1, 1, 1, 1, 1, 1],
    [0, 0, 0, 0, 0, 0, 0, 0, 0, 0, 0, 0, 1, 1, 1, 1, 1, 1, 1, 1, 1, 1, 1, 1, 1, 1, 1, 1],
    [0, 0, 0, 0, 0, 0, 0, 0, 0, 0, 0, 0, 0, 1, 1, 1, 1, 1, 1, 1, 1, 1, 1, 1, 1, 1, 1, 1],
    [0, 0, 0, 0, 0, 0, 0, 0, 0, 0, 0, 0, 0, 0, 1, 1, 1, 1, 1, 1, 1, 1, 1, 1, 1, 1, 1, 1],
    [0, 0, 0, 0, 0, 0, 0, 0, 0, 0, 0, 0, 0, 0, 0, 1, 1, 1, 1, 1, 1, 1, 1, 1, 1, 1, 1, 1],
    [0, 0, 0, 0, 0, 0, 0, 0, 0, 0, 0, 0, 0, 0, 0, 0, 1, 1, 1, 1, 1, 1, 1, 1, 1, 1, 1, 1],
    [0, 0, 0, 0, 0, 0, 0, 0, 0, 0, 0, 0, 0, 0, 0, 0, 0, 1, 1, 1, 1, 1, 1, 1, 0, 0, 1, 1],
    [0, 0, 0, 0, 0, 0, 0, 0, 0, 0, 0, 0, 0, 0, 0, 0, 0, 0, 1, 1, 1, 1, 1, 1, 0, 0, 1, 1],
    [0, 0, 0, 0, 0, 0, 0, 0, 0, 0, 0, 0, 0, 0, 0, 0, 0, 0, 0, 1, 1, 1, 1, 1, 0, 0, 1, 1],
    [0, 0, 0, 0, 0, 0, 0, 0, 0, 0, 0, 0, 0, 0, 0, 0, 0, 0, 0, 0, 1, 1, 1, 1, 0, 0, 1, 1],
    [0, 0, 0, 0, 0, 0, 0, 0, 0, 0, 0, 0, 0, 0, 0, 0, 0, 0, 0, 0, 0, 1, 1, 1, 0, 0, 1, 1],
    [0, 0, 0, 0, 0, 0, 0, 0, 0, 0, 0, 0, 0, 0, 0, 0, 0, 0, 0, 0, 0, 0, 1, 1, 0, 0, 1, 1],
    [0, 0, 0, 0, 0, 0, 0, 0, 0, 0, 0, 0, 0, 0, 0, 0, 0, 0, 0, 0, 0, 0, 0, 0, 0, 0, 0, 0],
    [0, 0, 0, 0, 0, 0, 0, 0, 0, 0, 0, 0, 0, 0, 0, 0, 0, 0, 0, 0, 0, 0, 0, 0, 0, 0, 0, 0],
    [0, 0, 0, 0, 0, 0, 0, 0, 0, 0, 0, 0, 0, 0, 0, 0, 0, 0, 0, 0, 0, 0, 0, 0, 0, 1, 0, 0],
    [0, 0, 0, 0, 0, 0, 0, 0, 0, 0, 0, 0, 0, 0, 0, 0, 0, 0, 0, 0, 0, 0, 0, 0, 0, 0, 0, 0],
    [0, 0, 0, 0, 0, 0, 0, 0, 0, 0, 0, 0, 0, 0, 0, 0, 0, 0, 0, 0, 0, 0, 0, 0, 0, 0, 0, 1],
    [0, 0, 0, 0, 0, 0, 0, 0, 0, 0, 0, 0, 0, 0, 0, 0, 0, 0, 0, 0, 0, 0, 0, 0, 0, 0, 0, 0]
  ],
  "Pi": {
    "neglect deliverer deliver depot": 1
  },
  "m_i": "[[([d2]),([d1])]\u00b7p_d_on,[2\u00b7([v1])]\u00b7p_v_ava,[5\u00b7([w2]),4\u00b7([w1])]\u00b7p_w,[([e1])]\u00b7p_we,[([y])]\u00b7q1,[([y])]\u00b7q2,[([y])]\u00b7q3]"
}