{
  "N": "./datasets/nets/delivery_extended.json",
  "L": "./datasets/logs/delivery_extended/log_unhindered_col_4_small.json",
  "info": {
    "cost": 13020,
    "visited": 129,
    "queued": 713,
    "traversed": 713,
    "lp_solved": 232,
    "enabled_check": 587,
    "duration": 1.5310487747192383
  },
  "exact": true,
  "relaxed": false,
  "m_i": "[[([d1]),([d2])]\u00b7p_d_off,[([v1]),([v2])]\u00b7p_v_ava,[2\u00b7([w1])]\u00b7p_w,[([e1])]\u00b7p_we,[([y])]\u00b7q1,[([y])]\u00b7q2,[([y])]\u00b7q3]",
  "m_f": "[[([d1]),([d2])]\u00b7p_d_off,[([v1]),([v2])]\u00b7p_v_ava,[2\u00b7([w1])]\u00b7p_w,[([e1])]\u00b7p_we,[([y])]\u00b7q1,[([y])]\u00b7q2,[([y])]\u00b7q3]",
  "M": [
    ["tau_start_0", null, "log", {"d1": "d1"}, "[[([d1])]\u00b7p_D^(0)]", "[[([d1])]\u00b7p_D^(.0)]"],
    ["start_0-start", "start", "synchronous", {"d": "d1"}, "[[([d1])]\u00b7p_D^(.0),[([d1])]\u00b7p_d_off]", "[[([d1])]\u00b7p_D^(0,1),[([d1])]\u00b7p_d_on]"],
    ["tau_start_1", null, "log", {"d2": "d2", "d1": "d1"}, "[[([d1])]\u00b7p_D^(0,1),[([d2])]\u00b7p_D^(1)]", "[[([d2])]\u00b7p_D^(.1)]"],
    ["start_1-start", "start", "synchronous", {"d": "d2"}, "[[([d2])]\u00b7p_D^(.1),[([d2])]\u00b7p_d_off]", "[[([d2])]\u00b7p_D^(1,2),[([d2])]\u00b7p_d_on]"],
    ["tau_create_2", null, "log", {"p_001": "p_001", "d2": "d2"}, "[[([d2])]\u00b7p_D^(1,2),[([p_001])]\u00b7p_P^(2)]", "[[([p_001])]\u00b7p_P^(.2)]"],
    ["create_2-create", "create", "synchronous", {"p": "p_001"}, "[[([p_001])]\u00b7p_P^(.2)]", "[[([p_001])]\u00b7p1,[([p_001])]\u00b7p_P^(2,3)]"],
    ["tau_order home_3", null, "log", {"p_001": "p_001", "y": "y"}, "[[([p_001])]\u00b7p_P^(2,3),[([p_001])]\u00b7p_P^(3),[([y])]\u00b7p_Y^(3)]", "[[([p_001])]\u00b7p_P^(.3),[([y])]\u00b7p_Y^(.3)]"],
    ["order home_3-order home", "order home", "synchronous", {"y": "y", "p": "p_001"}, "[[([p_001])]\u00b7p1,[([p_001])]\u00b7p_P^(.3),[([y])]\u00b7p_Y^(.3),[([y])]\u00b7q1]", "[[([p_001])]\u00b7p11,[([p_001])]\u00b7p2,[([p_001])]\u00b7p_P^(3,4),[([y])]\u00b7p_Y^(3,4),[([p_001], [y])]\u00b7q1_]"],
    ["tau_queue1", null, "model", {"p": "p_001", "y": "y"}, "[[([p_001], [y])]\u00b7q1_,[([y])]\u00b7q2]", "[[([y])]\u00b7q1,[([p_001], [y])]\u00b7q2_]"],
    ["tau_queue2", null, "model", {"y": "y", "p": "p_001"}, "[[([p_001], [y])]\u00b7q2_,[([y])]\u00b7q3]", "[[([y])]\u00b7q2,[([p_001], [y])]\u00b7q3_]"],
    ["tau_pick package_4", null, "log", {"y": "y", "p_001": "p_001", "e1": "e1"}, "[[([e1])]\u00b7p_E^(4),[([p_001])]\u00b7p_P^(3,4),[([p_001])]\u00b7p_P^(4),[([y])]\u00b7p_Y^(3,4),[([y])]\u00b7p_Y^(4)]", "[[([e1])]\u00b7p_E^(.4),[([p_001])]\u00b7p_P^(.4),[([y])]\u00b7p_Y^(.4)]"],
    ["pick package_4-pick package", "pick package", "synchronous", {"e": "e1", "y": "y", "p": "p_001"}, "[[([p_001])]\u00b7p2,[([e1])]\u00b7p_E^(.4),[([p_001])]\u00b7p_P^(.4),[([y])]\u00b7p_Y^(.4),[([e1])]\u00b7p_we,[([p_001], [y])]\u00b7q3_]", "[[([p_001], [e1])]\u00b7p3,[([e1])]\u00b7p_E^(4,5),[([p_001])]\u00b7p_P^(4,5),[([y])]\u00b7p_Y^(4,5),[([y])]\u00b7q3]"],
    ["load in truck", "load in truck", "model", {"p": "p_001", "e": "e1", "v": "v2"}, "[[([p_001], [e1])]\u00b7p3,[([v2])]\u00b7p_v_ava]", "[[([p_001], [v2])]\u00b7p4,[([p_001], [v2])]\u00b7p_v_occ,[([v2])]\u00b7p_v_occ_v,[([e1])]\u00b7p_we]"],
    ["tau_d_1", null, "model", {"d": "d1", "p": "p_001", "v": "v2"}, "[[([p_001], [v2])]\u00b7p4,[([d1])]\u00b7p_d_on]", "[[([p_001], [d1])]\u00b7p6,[([v2], [d1])]\u00b7p_v_d,[([v2])]\u00b7p_v_transit]"],
    ["tau_load in truck_incorrect_V_5", null, "log", {"e1": "e1", "p_001": "p_001", "y": "y", "v1": "v1"}, "[[([e1])]\u00b7p_E^(4,5),[([e1])]\u00b7p_E^(5),[([p_001])]\u00b7p_P^(4,5),[([p_001])]\u00b7p_P^(5),[([v1])]\u00b7p_V^(5),[([y])]\u00b7p_Y^(4,5)]", "[[([e1])]\u00b7p_E^(.5),[([p_001])]\u00b7p_P^(.5),[([v1])]\u00b7p_V^(.5)]"],
    ["load in truck_incorrect_V_5", "load in truck_incorrect_V", "log", {"v1": "v1", "e1": "e1", "p_001": "p_001"}, "[[([e1])]\u00b7p_E^(.5),[([p_001])]\u00b7p_P^(.5),[([v1])]\u00b7p_V^(.5)]", "[[([e1])]\u00b7p_E^(5,6),[([p_001])]\u00b7p_P^(5,6),[([v1])]\u00b7p_V^(5,6)]"],
    ["tau_create_6", null, "log", {"e1": "e1", "p_002": "p_002", "v1": "v1", "p_001": "p_001"}, "[[([e1])]\u00b7p_E^(5,6),[([p_001])]\u00b7p_P^(5,6),[([p_002])]\u00b7p_P^(6),[([v1])]\u00b7p_V^(5,6)]", "[[([p_002])]\u00b7p_P^(.6)]"],
    ["create_6-create", "create", "synchronous", {"p": "p_002"}, "[[([p_002])]\u00b7p_P^(.6)]", "[[([p_002])]\u00b7p1,[([p_002])]\u00b7p_P^(6,7)]"],
    ["tau_order depot_7", null, "log", {"y": "y", "p_002": "p_002"}, "[[([p_002])]\u00b7p_P^(6,7),[([p_002])]\u00b7p_P^(7),[([y])]\u00b7p_Y^(7)]", "[[([p_002])]\u00b7p_P^(.7),[([y])]\u00b7p_Y^(.7)]"],
    ["order depot_7-order depot", "order depot", "synchronous", {"y": "y", "p": "p_002"}, "[[([p_002])]\u00b7p1,[([p_002])]\u00b7p_P^(.7),[([y])]\u00b7p_Y^(.7),[([y])]\u00b7q1]", "[[([p_002])]\u00b7p12,[([p_002])]\u00b7p2,[([p_002])]\u00b7p8,[([p_002])]\u00b7p_P^(7,8),[([y])]\u00b7p_Y^(7,8),[([p_002], [y])]\u00b7q1_]"],
    ["tau_queue1", null, "model", {"p": "p_002", "y": "y"}, "[[([p_002], [y])]\u00b7q1_,[([y])]\u00b7q2]", "[[([y])]\u00b7q1,[([p_002], [y])]\u00b7q2_]"],
    ["tau_queue2", null, "model", {"y": "y", "p": "p_002"}, "[[([p_002], [y])]\u00b7q2_,[([y])]\u00b7q3]", "[[([y])]\u00b7q2,[([p_002], [y])]\u00b7q3_]"],
    ["tau_register depot_8", null, "log", {"p_002": "p_002", "y": "y", "w1": "w1"}, "[[([p_002])]\u00b7p_P^(7,8),[([p_002])]\u00b7p_P^(8),[([w1])]\u00b7p_W^(8),[([y])]\u00b7p_Y^(7,8)]", "[[([p_002])]\u00b7p_P^(.8),[([w1])]\u00b7p_W^(.8)]"],
    ["register depot_8-register depot", "register depot", "synchronous", {"p": "p_002", "w": "w1"}, "[[([p_002])]\u00b7p8,[([p_002])]\u00b7p_P^(.8),[([w1])]\u00b7p_W^(.8),[([w1])]\u00b7p_w]", "[[([p_002], [w1])]\u00b7p7,[([p_002])]\u00b7p_P^(8,9),[([w1])]\u00b7p_W^(8,9),[([w1])]\u00b7p_w]"],
    ["tau_pick package_9", null, "log", {"p_002": "p_002", "y": "y", "e1": "e1", "w1": "w1"}, "[[([e1])]\u00b7p_E^(9),[([p_002])]\u00b7p_P^(8,9),[([p_002])]\u00b7p_P^(9),[([w1])]\u00b7p_W^(8,9),[([y])]\u00b7p_Y^(9)]", "[[([e1])]\u00b7p_E^(.9),[([p_002])]\u00b7p_P^(.9),[([y])]\u00b7p_Y^(.9)]"],
    ["pick package_9-pick package", "pick package", "synchronous", {"y": "y", "p": "p_002", "e": "e1"}, "[[([p_002])]\u00b7p2,[([e1])]\u00b7p_E^(.9),[([p_002])]\u00b7p_P^(.9),[([y])]\u00b7p_Y^(.9),[([e1])]\u00b7p_we,[([p_002], [y])]\u00b7q3_]", "[[([p_002], [e1])]\u00b7p3,[([e1])]\u00b7p_E^(9,10),[([p_002])]\u00b7p_P^(9,10),[([y])]\u00b7p_Y^(9,10),[([y])]\u00b7q3]"],
    ["tau_ring_10", null, "log", {"p_001": "p_001", "p_002": "p_002", "e1": "e1", "d1": "d1", "y": "y"}, "[[([d1])]\u00b7p_D^(10),[([e1])]\u00b7p_E^(9,10),[([p_001])]\u00b7p_P^(10),[([p_002])]\u00b7p_P^(9,10),[([y])]\u00b7p_Y^(9,10)]", "[[([d1])]\u00b7p_D^(.10),[([p_001])]\u00b7p_P^(.10)]"],
    ["ring_10-ring", "ring", "synchronous", {"p": "p_001", "d": "d1"}, "[[([p_001])]\u00b7p11,[([p_001], [d1])]\u00b7p6,[([d1])]\u00b7p_D^(.10),[([p_001])]\u00b7p_P^(.10)]", "[[([p_001], [d1])]\u00b7p5,[([d1])]\u00b7p_D^(10,11),[([p_001])]\u00b7p_P^(10,11)]"],
    ["tau_2", null, "model", {"p": "p_001", "d": "d1"}, "[[([p_001], [d1])]\u00b7p5]", "[[([p_001])]\u00b7p12,[([p_001], [d1])]\u00b7p6,[([p_001])]\u00b7p8]"],
    ["tau_register depot_11", null, "log", {"w1": "w1", "p_001": "p_001", "d1": "d1"}, "[[([d1])]\u00b7p_D^(10,11),[([p_001])]\u00b7p_P^(10,11),[([p_001])]\u00b7p_P^(11),[([w1])]\u00b7p_W^(11)]", "[[([p_001])]\u00b7p_P^(.11),[([w1])]\u00b7p_W^(.11)]"],
    ["register depot_11-register depot", "register depot", "synchronous", {"p": "p_001", "w": "w1"}, "[[([p_001])]\u00b7p8,[([p_001])]\u00b7p_P^(.11),[([w1])]\u00b7p_W^(.11),[([w1])]\u00b7p_w]", "[[([p_001], [w1])]\u00b7p7,[([p_001])]\u00b7p_P^(11,12),[([w1])]\u00b7p_W^(11,12),[([w1])]\u00b7p_w]"],
    ["tau_load in truck_12", null, "log", {"w1": "w1", "e1": "e1", "p_001": "p_001", "p_002": "p_002", "v1": "v1"}, "[[([e1])]\u00b7p_E^(12),[([p_001])]\u00b7p_P^(11,12),[([p_002])]\u00b7p_P^(12),[([v1])]\u00b7p_V^(12),[([w1])]\u00b7p_W^(11,12)]", "[[([e1])]\u00b7p_E^(.12),[([p_002])]\u00b7p_P^(.12),[([v1])]\u00b7p_V^(.12)]"],
    ["load in truck_12-load in truck", "load in truck", "synchronous", {"e": "e1", "v": "v1", "p": "p_002"}, "[[([p_002], [e1])]\u00b7p3,[([e1])]\u00b7p_E^(.12),[([p_002])]\u00b7p_P^(.12),[([v1])]\u00b7p_V^(.12),[([v1])]\u00b7p_v_ava]", "[[([p_002], [v1])]\u00b7p4,[([e1])]\u00b7p_E^(12,13),[([p_002])]\u00b7p_P^(12,13),[([v1])]\u00b7p_V^(12,13),[([p_002], [v1])]\u00b7p_v_occ,[([v1])]\u00b7p_v_occ_v,[([e1])]\u00b7p_we]"],
    ["tau_d_1", null, "model", {"d": "d2", "p": "p_002", "v": "v1"}, "[[([p_002], [v1])]\u00b7p4,[([d2])]\u00b7p_d_on]", "[[([p_002], [d2])]\u00b7p6,[([v1], [d2])]\u00b7p_v_d,[([v1])]\u00b7p_v_transit]"],
    ["deliver depot", "deliver depot", "model", {"p": "p_002", "d": "d2", "v": "v1", "w": "w1"}, "[[([p_002])]\u00b7p12,[([p_002], [d2])]\u00b7p6,[([p_002], [w1])]\u00b7p7,[([p_002], [v1])]\u00b7p_v_occ,[([v1])]\u00b7p_v_occ_v,[([w1])]\u00b7p_w]", "[[([p_002], [w1])]\u00b7p9,[([d2])]\u00b7p_d_on,[([v1])]\u00b7p_v_free,[([v1])]\u00b7p_v_free_imm]"],
    ["tau_free", null, "model", {"v": "v1", "d": "d2"}, "[[([v1], [d2])]\u00b7p_v_d,[([v1])]\u00b7p_v_free,[([v1])]\u00b7p_v_free_imm,[([v1])]\u00b7p_v_transit]", "[[([v1])]\u00b7p_v_ava]"],
    ["tau_deliver depot_13", null, "log", {"v2": "v2", "d1": "d1", "p_001": "p_001", "e1": "e1", "p_002": "p_002", "v1": "v1", "w1": "w1"}, "[[([d1])]\u00b7p_D^(13),[([e1])]\u00b7p_E^(12,13),[([p_002])]\u00b7p_P^(12,13),[([p_001])]\u00b7p_P^(13),[([v1])]\u00b7p_V^(12,13),[([v2])]\u00b7p_V^(13),[([w1])]\u00b7p_W^(13)]", "[[([d1])]\u00b7p_D^(.13),[([p_001])]\u00b7p_P^(.13),[([v2])]\u00b7p_V^(.13),[([w1])]\u00b7p_W^(.13)]"],
    ["deliver depot_13-deliver depot", "deliver depot", "synchronous", {"v": "v2", "p": "p_001", "w": "w1", "d": "d1"}, "[[([p_001])]\u00b7p12,[([p_001], [d1])]\u00b7p6,[([p_001], [w1])]\u00b7p7,[([d1])]\u00b7p_D^(.13),[([p_001])]\u00b7p_P^(.13),[([v2])]\u00b7p_V^(.13),[([w1])]\u00b7p_W^(.13),[([p_001], [v2])]\u00b7p_v_occ,[([v2])]\u00b7p_v_occ_v,[([w1])]\u00b7p_w]", "[[([p_001], [w1])]\u00b7p9,[([d1])]\u00b7p_D^(13,14),[([p_001])]\u00b7p_P^(13,14),[([v2])]\u00b7p_V^(13,14),[([w1])]\u00b7p_W^(13,14),[([d1])]\u00b7p_d_on,[([v2])]\u00b7p_v_free,[([v2])]\u00b7p_v_free_imm]"],
    ["tau_free", null, "model", {"v": "v2", "d": "d1"}, "[[([v2], [d1])]\u00b7p_v_d,[([v2])]\u00b7p_v_free,[([v2])]\u00b7p_v_free_imm,[([v2])]\u00b7p_v_transit]", "[[([v2])]\u00b7p_v_ava]"],
    ["tau_deliver depot_neglect_D_14", null, "log", {"v1": "v1", "d1": "d1", "p_002": "p_002", "w1": "w1", "v2": "v2", "p_001": "p_001"}, "[[([d1])]\u00b7p_D^(13,14),[([p_001])]\u00b7p_P^(13,14),[([p_002])]\u00b7p_P^(14),[([v2])]\u00b7p_V^(13,14),[([v1])]\u00b7p_V^(14),[([w1])]\u00b7p_W^(13,14),[([w1])]\u00b7p_W^(14)]", "[[([p_002])]\u00b7p_P^(.14),[([v1])]\u00b7p_V^(.14),[([w1])]\u00b7p_W^(.14)]"],
    ["deliver depot_neglect_D_14", "deliver depot_neglect_D", "log", {"v1": "v1", "w1": "w1", "p_002": "p_002"}, "[[([p_002])]\u00b7p_P^(.14),[([v1])]\u00b7p_V^(.14),[([w1])]\u00b7p_W^(.14)]", "[[([p_002])]\u00b7p_P^(14,15),[([v1])]\u00b7p_V^(14,15),[([w1])]\u00b7p_W^(14,15)]"],
    ["tau_stop_15", null, "log", {"p_002": "p_002", "d1": "d1", "w1": "w1", "v1": "v1"}, "[[([d1])]\u00b7p_D^(15),[([p_002])]\u00b7p_P^(14,15),[([v1])]\u00b7p_V^(14,15),[([w1])]\u00b7p_W^(14,15)]", "[[([d1])]\u00b7p_D^(.15)]"],
    ["stop_15-stop", "stop", "synchronous", {"d": "d1"}, "[[([d1])]\u00b7p_D^(.15),[([d1])]\u00b7p_d_on]", "[[([d1])]\u00b7p_D^(15,16),[([d1])]\u00b7p_d_off]"],
    ["tau_stop_16", null, "log", {"d2": "d2", "d1": "d1"}, "[[([d1])]\u00b7p_D^(15,16),[([d2])]\u00b7p_D^(16)]", "[[([d2])]\u00b7p_D^(.16)]"],
    ["stop_16-stop", "stop", "synchronous", {"d": "d2"}, "[[([d2])]\u00b7p_D^(.16),[([d2])]\u00b7p_d_on]", "[[([d2])]\u00b7p_D^(16,17),[([d2])]\u00b7p_d_off]"],
    ["tau_collect_17", null, "log", {"p_001": "p_001", "d2": "d2", "w1": "w1"}, "[[([d2])]\u00b7p_D^(16,17),[([p_001])]\u00b7p_P^(17),[([w1])]\u00b7p_W^(17)]", "[[([p_001])]\u00b7p_P^(.17),[([w1])]\u00b7p_W^(.17)]"],
    ["collect_17-collect", "collect", "synchronous", {"p": "p_001", "w": "w1"}, "[[([p_001], [w1])]\u00b7p9,[([p_001])]\u00b7p_P^(.17),[([w1])]\u00b7p_W^(.17)]", "[[([p_001])]\u00b7p10,[([p_001])]\u00b7p_P^(17,18),[([w1])]\u00b7p_W^(17,18),[([w1])]\u00b7p_w]"],
    ["tau_destroy_18", null, "log", {"p_001": "p_001", "w1": "w1"}, "[[([p_001])]\u00b7p_P^(17,18),[([p_001])]\u00b7p_P^(18),[([w1])]\u00b7p_W^(17,18)]", "[[([p_001])]\u00b7p_P^(.18)]"],
    ["destroy_18-destroy", "destroy", "synchronous", {"p": "p_001"}, "[[([p_001])]\u00b7p10,[([p_001])]\u00b7p_P^(.18)]", "[[([p_001])]\u00b7p_P^(18,19)]"],
    ["tau_collect_19", null, "log", {"p_002": "p_002", "w1": "w1", "p_001": "p_001"}, "[[([p_001])]\u00b7p_P^(18,19),[([p_002])]\u00b7p_P^(19),[([w1])]\u00b7p_W^(19)]", "[[([p_002])]\u00b7p_P^(.19),[([w1])]\u00b7p_W^(.19)]"],
    ["collect_19-collect", "collect", "synchronous", {"w": "w1", "p": "p_002"}, "[[([p_002], [w1])]\u00b7p9,[([p_002])]\u00b7p_P^(.19),[([w1])]\u00b7p_W^(.19)]", "[[([p_002])]\u00b7p10,[([p_002])]\u00b7p_P^(19,20),[([w1])]\u00b7p_W^(19,20),[([w1])]\u00b7p_w]"],
    ["tau_destroy_20", null, "log", {"w1": "w1", "p_002": "p_002"}, "[[([p_002])]\u00b7p_P^(19,20),[([p_002])]\u00b7p_P^(20),[([w1])]\u00b7p_W^(19,20)]", "[[([p_002])]\u00b7p_P^(.20)]"],
    ["destroy_20-destroy", "destroy", "synchronous", {"p": "p_002"}, "[[([p_002])]\u00b7p10,[([p_002])]\u00b7p_P^(.20)]", "[]"]
  ],
  "r": [
    [0, 1, 1, 1, 1, 1, 1, 1, 1, 1, 1, 1, 1, 1, 1, 1, 1, 1, 1, 1, 1, 1, 1, 1, 1, 1, 1, 1, 1, 1, 1, 1, 1, 1, 1, 1, 1, 1, 1, 1, 1, 1, 1, 1, 1, 1, 1, 1, 1, 1, 1, 1, 1],
    [0, 0, 1, 1, 1, 1, 1, 1, 1, 1, 1, 1, 1, 1, 1, 1, 1, 1, 1, 1, 1, 1, 1, 1, 1, 1, 1, 1, 1, 1, 1, 1, 1, 1, 1, 1, 1, 1, 1, 1, 1, 1, 1, 1, 1, 1, 1, 1, 1, 1, 1, 1, 1],
    [0, 0, 0, 1, 1, 1, 1, 1, 1, 1, 1, 1, 1, 1, 1, 1, 1, 1, 1, 1, 1, 1, 1, 1, 1, 1, 1, 1, 1, 1, 1, 1, 1, 1, 1, 1, 1, 1, 1, 1, 1, 1, 1, 1, 1, 1, 1, 1, 1, 1, 1, 1, 1],
    [0, 0, 0, 0, 1, 1, 1, 1, 1, 1, 1, 1, 1, 1, 1, 1, 1, 1, 1, 1, 1, 1, 1, 1, 1, 1, 1, 1, 1, 1, 1, 1, 1, 1, 1, 1, 1, 1, 1, 1, 1, 1, 1, 1, 1, 1, 1, 1, 1, 1, 1, 1, 1],
    [0, 0, 0, 0, 0, 1, 1, 1, 1, 1, 1, 1, 1, 1, 1, 1, 1, 1, 1, 1, 1, 1, 1, 1, 1, 1, 1, 1, 1, 1, 1, 1, 1, 1, 1, 1, 1, 1, 1, 1, 1, 1, 1, 1, 1, 1, 1, 1, 1, 1, 1, 1, 1],
    [0, 0, 0, 0, 0, 0, 1, 1, 1, 1, 1, 1, 1, 1, 1, 1, 1, 1, 1, 1, 1, 1, 1, 1, 1, 1, 1, 1, 1, 1, 1, 1, 1, 1, 1, 1, 1, 1, 1, 1, 1, 1, 1, 1, 1, 1, 1, 1, 1, 1, 1, 1, 1],
    [0, 0, 0, 0, 0, 0, 0, 1, 1, 1, 1, 1, 1, 1, 1, 1, 1, 1, 1, 1, 1, 1, 1, 1, 1, 1, 1, 1, 1, 1, 1, 1, 1, 1, 1, 1, 1, 1, 1, 1, 1, 1, 1, 1, 1, 1, 1, 1, 1, 1, 1, 1, 1],
    [0, 0, 0, 0, 0, 0, 0, 0, 1, 1, 1, 1, 1, 1, 1, 1, 1, 1, 1, 1, 1, 1, 1, 1, 1, 1, 1, 1, 1, 1, 1, 1, 1, 1, 1, 1, 1, 1, 1, 1, 1, 1, 1, 1, 1, 1, 1, 1, 1, 1, 1, 1, 1],
    [0, 0, 0, 0, 0, 0, 0, 0, 0, 1, 0, 1, 1, 1, 1, 1, 1, 1, 1, 1, 1, 1, 1, 1, 1, 1, 1, 1, 1, 1, 1, 1, 1, 1, 1, 1, 1, 1, 1, 1, 1, 1, 1, 1, 1, 1, 1, 1, 1, 1, 1, 1, 1],
    [0, 0, 0, 0, 0, 0, 0, 0, 0, 0, 0, 1, 1, 1, 1, 1, 1, 1, 1, 1, 1, 1, 1, 1, 1, 1, 1, 1, 1, 1, 1, 1, 1, 1, 1, 1, 1, 1, 1, 1, 1, 1, 1, 1, 1, 1, 1, 1, 1, 1, 1, 1, 1],
    [0, 0, 0, 0, 0, 0, 0, 0, 0, 0, 0, 1, 1, 1, 1, 1, 1, 1, 1, 1, 1, 1, 1, 1, 1, 1, 1, 1, 1, 1, 1, 1, 1, 1, 1, 1, 1, 1, 1, 1, 1, 1, 1, 1, 1, 1, 1, 1, 1, 1, 1, 1, 1],
    [0, 0, 0, 0, 0, 0, 0, 0, 0, 0, 0, 0, 1, 1, 1, 1, 1, 1, 1, 1, 1, 1, 1, 1, 1, 1, 1, 1, 1, 1, 1, 1, 1, 1, 1, 1, 1, 1, 1, 1, 1, 1, 1, 1, 1, 1, 1, 1, 1, 1, 1, 1, 1],
    [0, 0, 0, 0, 0, 0, 0, 0, 0, 0, 0, 0, 0, 1, 0, 0, 0, 0, 0, 0, 0, 0, 0, 0, 0, 1, 1, 1, 1, 1, 1, 1, 1, 1, 1, 1, 1, 1, 1, 1, 1, 1, 1, 1, 1, 1, 1, 1, 1, 1, 1, 1, 1],
    [0, 0, 0, 0, 0, 0, 0, 0, 0, 0, 0, 0, 0, 0, 0, 0, 0, 0, 0, 0, 0, 0, 0, 0, 0, 0, 0, 1, 1, 1, 1, 1, 1, 1, 1, 1, 1, 1, 1, 1, 1, 1, 1, 1, 1, 1, 1, 1, 1, 1, 1, 1, 1],
    [0, 0, 0, 0, 0, 0, 0, 0, 0, 0, 0, 0, 0, 0, 0, 1, 1, 1, 1, 1, 1, 1, 1, 1, 1, 1, 1, 1, 1, 1, 1, 1, 1, 1, 1, 1, 1, 1, 1, 1, 1, 1, 1, 1, 1, 1, 1, 1, 1, 1, 1, 1, 1],
    [0, 0, 0, 0, 0, 0, 0, 0, 0, 0, 0, 0, 0, 0, 0, 0, 1, 1, 1, 1, 1, 1, 1, 1, 1, 1, 1, 1, 1, 1, 1, 1, 1, 1, 1, 1, 1, 1, 1, 1, 1, 1, 1, 1, 1, 1, 1, 1, 1, 1, 1, 1, 1],
    [0, 0, 0, 0, 0, 0, 0, 0, 0, 0, 0, 0, 0, 0, 0, 0, 0, 1, 1, 1, 1, 1, 1, 1, 1, 1, 1, 1, 1, 1, 1, 1, 1, 1, 1, 1, 1, 1, 1, 1, 1, 1, 1, 1, 1, 1, 1, 1, 1, 1, 1, 1, 1],
    [0, 0, 0, 0, 0, 0, 0, 0, 0, 0, 0, 0, 0, 0, 0, 0, 0, 0, 1, 1, 1, 1, 1, 1, 1, 1, 1, 1, 1, 1, 1, 1, 1, 1, 1, 1, 1, 1, 1, 1, 1, 1, 1, 1, 1, 1, 1, 1, 1, 1, 1, 1, 1],
    [0, 0, 0, 0, 0, 0, 0, 0, 0, 0, 0, 0, 0, 0, 0, 0, 0, 0, 0, 1, 1, 1, 1, 1, 1, 1, 1, 1, 1, 1, 1, 1, 1, 1, 1, 1, 1, 1, 1, 1, 1, 1, 1, 1, 1, 1, 1, 1, 1, 1, 1, 1, 1],
    [0, 0, 0, 0, 0, 0, 0, 0, 0, 0, 0, 0, 0, 0, 0, 0, 0, 0, 0, 0, 1, 1, 1, 1, 1, 1, 1, 1, 1, 1, 1, 1, 1, 1, 1, 1, 1, 1, 1, 1, 1, 1, 1, 1, 1, 1, 1, 1, 1, 1, 1, 1, 1],
    [0, 0, 0, 0, 0, 0, 0, 0, 0, 0, 0, 0, 0, 0, 0, 0, 0, 0, 0, 0, 0, 1, 0, 0, 0, 1, 1, 1, 1, 1, 1, 1, 1, 1, 1, 1, 1, 1, 1, 1, 1, 1, 1, 1, 1, 1, 1, 1, 1, 1, 1, 1, 1],
    [0, 0, 0, 0, 0, 0, 0, 0, 0, 0, 0, 0, 0, 0, 0, 0, 0, 0, 0, 0, 0, 0, 0, 0, 0, 1, 1, 1, 1, 1, 1, 1, 1, 1, 1, 1, 1, 1, 1, 1, 1, 1, 1, 1, 1, 1, 1, 1, 1, 1, 1, 1, 1],
    [0, 0, 0, 0, 0, 0, 0, 0, 0, 0, 0, 0, 0, 0, 0, 0, 0, 0, 0, 0, 0, 0, 0, 1, 1, 1, 1, 1, 1, 1, 1, 1, 1, 1, 1, 1, 1, 1, 1, 1, 1, 1, 1, 1, 1, 1, 1, 1, 1, 1, 1, 1, 1],
    [0, 0, 0, 0, 0, 0, 0, 0, 0, 0, 0, 0, 0, 0, 0, 0, 0, 0, 0, 0, 0, 0, 0, 0, 1, 1, 1, 1, 1, 1, 1, 1, 1, 1, 1, 1, 1, 1, 1, 1, 1, 1, 1, 1, 1, 1, 1, 1, 1, 1, 1, 1, 1],
    [0, 0, 0, 0, 0, 0, 0, 0, 0, 0, 0, 0, 0, 0, 0, 0, 0, 0, 0, 0, 0, 0, 0, 0, 0, 1, 1, 1, 1, 1, 1, 1, 1, 1, 1, 1, 1, 1, 1, 1, 1, 1, 1, 1, 1, 1, 1, 1, 1, 1, 1, 1, 1],
    [0, 0, 0, 0, 0, 0, 0, 0, 0, 0, 0, 0, 0, 0, 0, 0, 0, 0, 0, 0, 0, 0, 0, 0, 0, 0, 1, 1, 1, 1, 1, 1, 1, 1, 1, 1, 1, 1, 1, 1, 1, 1, 1, 1, 1, 1, 1, 1, 1, 1, 1, 1, 1],
    [0, 0, 0, 0, 0, 0, 0, 0, 0, 0, 0, 0, 0, 0, 0, 0, 0, 0, 0, 0, 0, 0, 0, 0, 0, 0, 0, 1, 1, 1, 1, 1, 1, 1, 1, 1, 1, 1, 1, 1, 1, 1, 1, 1, 1, 1, 1, 1, 1, 1, 1, 1, 1],
    [0, 0, 0, 0, 0, 0, 0, 0, 0, 0, 0, 0, 0, 0, 0, 0, 0, 0, 0, 0, 0, 0, 0, 0, 0, 0, 0, 0, 1, 1, 1, 1, 1, 1, 1, 1, 1, 1, 1, 1, 1, 1, 1, 1, 1, 1, 1, 1, 1, 1, 1, 1, 1],
    [0, 0, 0, 0, 0, 0, 0, 0, 0, 0, 0, 0, 0, 0, 0, 0, 0, 0, 0, 0, 0, 0, 0, 0, 0, 0, 0, 0, 0, 0, 1, 1, 1, 1, 1, 1, 1, 1, 1, 1, 1, 1, 1, 1, 1, 1, 1, 1, 1, 1, 1, 1, 1],
    [0, 0, 0, 0, 0, 0, 0, 0, 0, 0, 0, 0, 0, 0, 0, 0, 0, 0, 0, 0, 0, 0, 0, 0, 0, 0, 0, 0, 0, 0, 1, 1, 1, 1, 1, 1, 1, 1, 1, 1, 1, 1, 1, 1, 1, 1, 1, 1, 1, 1, 1, 1, 1],
    [0, 0, 0, 0, 0, 0, 0, 0, 0, 0, 0, 0, 0, 0, 0, 0, 0, 0, 0, 0, 0, 0, 0, 0, 0, 0, 0, 0, 0, 0, 0, 1, 1, 1, 1, 1, 1, 1, 1, 1, 1, 1, 1, 1, 1, 1, 1, 1, 1, 1, 1, 1, 1],
    [0, 0, 0, 0, 0, 0, 0, 0, 0, 0, 0, 0, 0, 0, 0, 0, 0, 0, 0, 0, 0, 0, 0, 0, 0, 0, 0, 0, 0, 0, 0, 0, 1, 1, 1, 1, 1, 1, 1, 1, 1, 1, 1, 1, 1, 1, 1, 1, 1, 1, 1, 1, 1],
    [0, 0, 0, 0, 0, 0, 0, 0, 0, 0, 0, 0, 0, 0, 0, 0, 0, 0, 0, 0, 0, 0, 0, 0, 0, 0, 0, 0, 0, 0, 0, 0, 0, 1, 1, 1, 1, 1, 1, 1, 1, 1, 1, 1, 1, 1, 1, 1, 1, 1, 1, 1, 1],
    [0, 0, 0, 0, 0, 0, 0, 0, 0, 0, 0, 0, 0, 0, 0, 0, 0, 0, 0, 0, 0, 0, 0, 0, 0, 0, 0, 0, 0, 0, 0, 0, 0, 0, 1, 1, 0, 0, 1, 0, 0, 0, 0, 0, 1, 1, 1, 1, 1, 1, 1, 1, 1],
    [0, 0, 0, 0, 0, 0, 0, 0, 0, 0, 0, 0, 0, 0, 0, 0, 0, 0, 0, 0, 0, 0, 0, 0, 0, 0, 0, 0, 0, 0, 0, 0, 0, 0, 0, 1, 0, 0, 1, 0, 0, 0, 0, 0, 1, 1, 1, 1, 1, 1, 1, 1, 1],
    [0, 0, 0, 0, 0, 0, 0, 0, 0, 0, 0, 0, 0, 0, 0, 0, 0, 0, 0, 0, 0, 0, 0, 0, 0, 0, 0, 0, 0, 0, 0, 0, 0, 0, 0, 0, 0, 0, 0, 0, 0, 0, 0, 0, 0, 0, 0, 0, 0, 0, 0, 0, 0],
    [0, 0, 0, 0, 0, 0, 0, 0, 0, 0, 0, 0, 0, 0, 0, 0, 0, 0, 0, 0, 0, 0, 0, 0, 0, 0, 0, 0, 0, 0, 0, 0, 0, 0, 0, 0, 0, 1, 1, 1, 1, 1, 1, 1, 1, 1, 1, 1, 1, 1, 1, 1, 1],
    [0, 0, 0, 0, 0, 0, 0, 0, 0, 0, 0, 0, 0, 0, 0, 0, 0, 0, 0, 0, 0, 0, 0, 0, 0, 0, 0, 0, 0, 0, 0, 0, 0, 0, 0, 0, 0, 0, 1, 1, 1, 1, 1, 1, 1, 1, 1, 1, 1, 1, 1, 1, 1],
    [0, 0, 0, 0, 0, 0, 0, 0, 0, 0, 0, 0, 0, 0, 0, 0, 0, 0, 0, 0, 0, 0, 0, 0, 0, 0, 0, 0, 0, 0, 0, 0, 0, 0, 0, 0, 0, 0, 0, 0, 0, 0, 0, 0, 0, 0, 0, 0, 0, 0, 0, 0, 0],
    [0, 0, 0, 0, 0, 0, 0, 0, 0, 0, 0, 0, 0, 0, 0, 0, 0, 0, 0, 0, 0, 0, 0, 0, 0, 0, 0, 0, 0, 0, 0, 0, 0, 0, 0, 0, 0, 0, 0, 0, 1, 1, 1, 1, 1, 1, 1, 1, 1, 1, 1, 1, 1],
    [0, 0, 0, 0, 0, 0, 0, 0, 0, 0, 0, 0, 0, 0, 0, 0, 0, 0, 0, 0, 0, 0, 0, 0, 0, 0, 0, 0, 0, 0, 0, 0, 0, 0, 0, 0, 0, 0, 0, 0, 0, 1, 1, 1, 1, 1, 1, 1, 1, 1, 1, 1, 1],
    [0, 0, 0, 0, 0, 0, 0, 0, 0, 0, 0, 0, 0, 0, 0, 0, 0, 0, 0, 0, 0, 0, 0, 0, 0, 0, 0, 0, 0, 0, 0, 0, 0, 0, 0, 0, 0, 0, 0, 0, 0, 0, 1, 1, 1, 1, 1, 1, 1, 1, 1, 1, 1],
    [0, 0, 0, 0, 0, 0, 0, 0, 0, 0, 0, 0, 0, 0, 0, 0, 0, 0, 0, 0, 0, 0, 0, 0, 0, 0, 0, 0, 0, 0, 0, 0, 0, 0, 0, 0, 0, 0, 0, 0, 0, 0, 0, 1, 1, 1, 1, 1, 1, 1, 1, 1, 1],
    [0, 0, 0, 0, 0, 0, 0, 0, 0, 0, 0, 0, 0, 0, 0, 0, 0, 0, 0, 0, 0, 0, 0, 0, 0, 0, 0, 0, 0, 0, 0, 0, 0, 0, 0, 0, 0, 0, 0, 0, 0, 0, 0, 0, 1, 1, 1, 1, 1, 1, 1, 1, 1],
    [0, 0, 0, 0, 0, 0, 0, 0, 0, 0, 0, 0, 0, 0, 0, 0, 0, 0, 0, 0, 0, 0, 0, 0, 0, 0, 0, 0, 0, 0, 0, 0, 0, 0, 0, 0, 0, 0, 0, 0, 0, 0, 0, 0, 0, 1, 1, 1, 1, 1, 1, 1, 1],
    [0, 0, 0, 0, 0, 0, 0, 0, 0, 0, 0, 0, 0, 0, 0, 0, 0, 0, 0, 0, 0, 0, 0, 0, 0, 0, 0, 0, 0, 0, 0, 0, 0, 0, 0, 0, 0, 0, 0, 0, 0, 0, 0, 0, 0, 0, 1, 1, 1, 1, 1, 1, 1],
    [0, 0, 0, 0, 0, 0, 0, 0, 0, 0, 0, 0, 0, 0, 0, 0, 0, 0, 0, 0, 0, 0, 0, 0, 0, 0, 0, 0, 0, 0, 0, 0, 0, 0, 0, 0, 0, 0, 0, 0, 0, 0, 0, 0, 0, 0, 0, 1, 1, 1, 1, 1, 1],
    [0, 0, 0, 0, 0, 0, 0, 0, 0, 0, 0, 0, 0, 0, 0, 0, 0, 0, 0, 0, 0, 0, 0, 0, 0, 0, 0, 0, 0, 0, 0, 0, 0, 0, 0, 0, 0, 0, 0, 0, 0, 0, 0, 0, 0, 0, 0, 0, 1, 1, 1, 1, 1],
    [0, 0, 0, 0, 0, 0, 0, 0, 0, 0, 0, 0, 0, 0, 0, 0, 0, 0, 0, 0, 0, 0, 0, 0, 0, 0, 0, 0, 0, 0, 0, 0, 0, 0, 0, 0, 0, 0, 0, 0, 0, 0, 0, 0, 0, 0, 0, 0, 0, 1, 1, 1, 1],
    [0, 0, 0, 0, 0, 0, 0, 0, 0, 0, 0, 0, 0, 0, 0, 0, 0, 0, 0, 0, 0, 0, 0, 0, 0, 0, 0, 0, 0, 0, 0, 0, 0, 0, 0, 0, 0, 0, 0, 0, 0, 0, 0, 0, 0, 0, 0, 0, 0, 0, 1, 1, 1],
    [0, 0, 0, 0, 0, 0, 0, 0, 0, 0, 0, 0, 0, 0, 0, 0, 0, 0, 0, 0, 0, 0, 0, 0, 0, 0, 0, 0, 0, 0, 0, 0, 0, 0, 0, 0, 0, 0, 0, 0, 0, 0, 0, 0, 0, 0, 0, 0, 0, 0, 0, 1, 1],
    [0, 0, 0, 0, 0, 0, 0, 0, 0, 0, 0, 0, 0, 0, 0, 0, 0, 0, 0, 0, 0, 0, 0, 0, 0, 0, 0, 0, 0, 0, 0, 0, 0, 0, 0, 0, 0, 0, 0, 0, 0, 0, 0, 0, 0, 0, 0, 0, 0, 0, 0, 0, 1],
    [0, 0, 0, 0, 0, 0, 0, 0, 0, 0, 0, 0, 0, 0, 0, 0, 0, 0, 0, 0, 0, 0, 0, 0, 0, 0, 0, 0, 0, 0, 0, 0, 0, 0, 0, 0, 0, 0, 0, 0, 0, 0, 0, 0, 0, 0, 0, 0, 0, 0, 0, 0, 0]
  ]
}