{
  "N": "./examples/nets/fifo.json",
  "L": "./examples/logs/fifo_2.json",
  "info": {
    "t": {"decompose": 0.0003097057342529297, "individual_alignments": 0.014586448669433594, "compose": 0.0022110939025878906, "split": 3.337860107421875e-06, "ilps": 0.12588024139404297, "realign": 0.010847806930541992, "total": 0.15397095680236816},
    "individual": {
      "c3": {"t": {"total": 0.0030460357666015625}, "search": {"visited": 3, "queued": 8, "traversed": 8, "lp_solved": 1, "duration": 0.0021200180053710938}, "cost": 1},
      "c2": {"t": {"total": 0.002609729766845703}, "search": {"visited": 3, "queued": 8, "traversed": 8, "lp_solved": 1, "duration": 0.0019154548645019531}, "cost": 1},
      "c1": {"t": {"total": 0.002472400665283203}, "search": {"visited": 3, "queued": 8, "traversed": 8, "lp_solved": 1, "duration": 0.0017268657684326172}, "cost": 1}
    },
    "composed_alignment_cost": 3,
    "ilp": [
      {"n": 9, "n_rc": 9, "constraints": 627, "t": {"setup": 0.019205808639526367, "solve": 0.1030888557434082}, "status": "Optimal", "cost": 10009.0}
    ],
    "realign_intervals": [{"t": {"total": 0.008743047714233398}, "search": {"visited": 5, "queued": 13, "traversed": 13, "lp_solved": 13, "duration": 0.007235527038574219}, "cost": 20001}],
    "cost": 20003
  },
  "verification": {
    "t": {"log": 0.00015020370483398438, "permutations": 0.0018069744110107422, "check_sigmas": 0.0008673667907714844, "total": 0.0028676986694335938},
    "log": true,
    "model": true,
    "number_of_permutations": 2
  },
  "exact": false,
  "M": [
    [[[">>", "st1"], [">>", null]], ["c", "w1", "w2"], {">>,p_w1_": {"c3,r1": 1}, ">>,p_w2": {"_,r2": 1}}, {">>,p_w1": {"_,r1": 1}, ">>,p_w2_": {"c3,r2": 1}}],
    [[["l_c3_1", "l"], ["l", "l"]], ["c", "w2"], {">>,p1": {"c3,_": 1}, ">>,p_w2_": {"c3,r2": 1}, "p_0,>>": {"c3,_": 1}}, {">>,p_w2": {"_,r2": 1}, ">>,pf": {"c3,_": 1}, "p_2,>>": {"c3,_": 1}}],
    [[["e_c2_0", "e"], ["e", "e"]], ["c", "w1"], {">>,p_w1": {"_,r1": 1}, ">>,pi": {"c2,_": 1}, "p_1,>>": {"c2,_": 1}}, {">>,p1": {"c2,_": 1}, ">>,p_w1_": {"c2,r1": 1}, "p_0,>>": {"c2,_": 1}}],
    [[["l_c2_1", "l"], ["l", "l"]], ["c", "w2"], {">>,p1": {"c2,_": 1}, ">>,p_w2_": {"c2,r2": 1}, "p_0,>>": {"c2,_": 1}}, {">>,p_w2": {"_,r2": 1}, ">>,pf": {"c2,_": 1}, "p_2,>>": {"c2,_": 1}}],
    [[["e_c1_0", "e"], ["e", "e"]], ["c", "w1"], {">>,p_w1": {"_,r1": 1}, ">>,pi": {"c1,_": 1}, "p_1,>>": {"c1,_": 1}}, {">>,p1": {"c1,_": 1}, ">>,p_w1_": {"c1,r1": 1}, "p_0,>>": {"c1,_": 1}}],
    [[[">>", "st1"], [">>", null]], ["c", "w1", "w2"], {">>,p_w1_": {"c1,r1": 1}, ">>,p_w2": {"_,r2": 1}}, {">>,p_w1": {"_,r1": 1}, ">>,p_w2_": {"c1,r2": 1}}],
    [[[">>", "l"], [">>", "l"]], ["c", "w2"], {">>,p1": {"c1,_": 1}, ">>,p_w2_": {"c1,r2": 1}}, {">>,p_w2": {"_,r2": 1}, ">>,pf": {"c1,_": 1}}],
    [[[">>", "st1"], [">>", null]], ["c", "w1", "w2"], {">>,p_w1_": {"c2,r1": 1}, ">>,p_w2": {"_,r2": 1}}, {">>,p_w1": {"_,r1": 1}, ">>,p_w2_": {"c2,r2": 1}}],
    [[["e_c3_0", "e"], ["e", "e"]], ["c", "w1"], {">>,p_w1": {"_,r1": 1}, ">>,pi": {"c3,_": 1}, "p_0,>>": {"c3,_": 1}}, {">>,p1": {"c3,_": 1}, ">>,p_w1_": {"c3,r1": 1}, "p_1,>>": {"c3,_": 1}, "p_4,>>": {"_,_": 1}}],
    [[["l_c1_1", ">>"], ["l", ">>"]], ["c"], {"p_2,>>": {"c1,_": 1}, "p_4,>>": {"_,_": 1}}, {"p_3,>>": {"c1,_": 1}}]
  ],
  "r": [
    [0, 1, 0, 0, 0, 0, 0, 0, 0, 0],
    [0, 0, 0, 0, 0, 0, 0, 0, 0, 0],
    [1, 1, 0, 1, 0, 0, 0, 1, 1, 1],
    [1, 1, 0, 0, 0, 0, 0, 0, 0, 0],
    [1, 1, 1, 1, 0, 1, 1, 1, 1, 1],
    [1, 1, 1, 1, 0, 0, 1, 1, 1, 1],
    [1, 1, 0, 0, 0, 0, 0, 1, 1, 1],
    [1, 1, 0, 1, 0, 0, 0, 0, 1, 1],
    [1, 1, 0, 1, 0, 0, 0, 0, 0, 1],
    [1, 1, 0, 1, 0, 0, 0, 0, 0, 0]
  ]
}