{
  "N": "./examples/nets/running_example.json",
  "L": "./examples/logs/running_example_paper.json",
  "info": {
    "t": {"decompose": 0.0003790855407714844, "individual_alignments": 0.08676624298095703, "compose": 0.0032291412353515625, "split": 3.337860107421875e-06, "ilps": 0.3280212879180908, "realign": 0.19343328475952148, "total": 0.612036943435669},
    "individual": {
      "c2": {"t": {"total": 0.03058481216430664}, "search": {"visited": 12, "queued": 42, "traversed": 42, "lp_solved": 1, "duration": 0.02780294418334961}, "cost": 10001},
      "c1": {"t": {"total": 0.04993271827697754}, "search": {"visited": 22, "queued": 62, "traversed": 70, "lp_solved": 42, "duration": 0.04680633544921875}, "cost": 30002}
    },
    "composed_alignment_cost": 40003,
    "ilp": [
      {"n": 26, "n_rc": 18, "constraints": 4365, "t": {"setup": 0.11575126647949219, "solve": 0.19669437408447266}, "status": "Optimal", "cost": 60008.0}
    ],
    "realign_intervals": [{"t": {"total": 0.011765480041503906}, "search": {"visited": 7, "queued": 19, "traversed": 21, "lp_solved": 14, "duration": 0.010467529296875}, "cost": 20001}, {"t": {"total": 0.010035991668701172}, "search": {"visited": 7, "queued": 29, "traversed": 30, "lp_solved": 22, "duration": 0.008970975875854492}, "cost": 20000}, {"t": {"total": 0.15764403343200684}, "search": {"visited": 22, "queued": 84, "traversed": 94, "lp_solved": 72, "duration": 0.06809425354003906}, "cost": 40000}],
    "cost": 100003
  },
  "verification": {
    "t": {"log": 0.00028967857360839844, "permutations": 0.0049479007720947266, "check_sigmas": 0.02083754539489746, "total": 0.026117801666259766},
    "log": true,
    "model": true,
    "number_of_permutations": 10
  },
  "exact": false,
  "M": [
    [[["i_p_c2_0", "i_p"], ["i_p", "i_p"]], ["c", "g"], {">>,p7": {"c2,_": 1}, ">>,p_g_": {"c2,g1": 1}, "p_0,>>": {"_,g1": 1}, "p_17,>>": {"c2,_": 1}}, {">>,p8": {"c2,_": 1}, ">>,p_g": {"_,g1": 1}, "p_8,>>": {"c2,_": 1}}],
    [[["p_w_c2_5", "p_w"], ["p_w", "p_w"]], ["c", "g"], {">>,p9": {"c2,_": 1}, ">>,p_g": {"_,g1": 1}, ">>,p_g_memory": {"c2,g1": 1}, "p_13,>>": {"c2,_": 1}, "p_6,>>": {"_,g1": 1}}, {">>,p10": {"c2,_": 1}, ">>,p_g": {"_,g1": 1}, "p_14,>>": {"c2,_": 1}}],
    [[["w_e_c2_6", "w_e"], ["w_e", "w_e"]], ["c", "w1"], {">>,p10": {"c2,_": 1}, ">>,p_w1": {"_,=": 1}, "p_14,>>": {"c2,_": 1}}, {">>,p11": {"c2,_": 1}, ">>,p_w1_": {"c2,=": 1}, "p_15,>>": {"c2,_": 1}}],
    [[[">>", "st4"], [">>", null]], ["c", "w1", "w2"], {">>,p_w1_": {"c2,=": 1}, ">>,p_w2": {"_,-": 1}}, {">>,p_w1": {"_,=": 1}, ">>,p_w2_": {"c2,-": 1}}],
    [[["p_r_c2_8", "p_r"], ["p_r", "p_r"]], ["c"], {">>,p12": {"c2,_": 1}, "p_16,>>": {"c2,_": 1}}, {">>,pf": {"c2,_": 1}, "p_19,>>": {"c2,_": 1}}],
    [[["i_s_c1_0", "i_s"], ["i_s", "i_s"]], ["c", "g"], {">>,p_g": {"_,g1": 1}, ">>,pi": {"c1,_": 1}, "p_0,>>": {"_,g1": 1}, "p_20,>>": {"c1,_": 1}}, {">>,p7": {"c1,_": 1}, ">>,p_g_": {"c1,g1": 1}, ">>,p_g_memory": {"c1,g1": 1}, "p_9,>>": {"c1,_": 1}}],
    [[["o_p_c1_2", "o_p"], ["o_p", "o_p"]], ["a", "c"], {">>,p8": {"c1,_": 1}, ">>,p_a": {"_,a1": 1}, "p_10,>>": {"c1,_": 1}, "p_2,>>": {"_,a1": 1}}, {">>,p1": {"c1,_": 1}, ">>,p2": {"c1,_": 1}, ">>,p_a_": {"c1,a1": 1}, "p_11,>>": {"c1,_": 1}, "p_12,>>": {"c1,_": 1}}],
    [[["o_a_c1_3", "o_a"], ["o_a", "o_a"]], ["a", "c"], {">>,p1": {"c1,_": 1}, ">>,p_a_": {"c1,a1": 1}, "p_11,>>": {"c1,_": 1}, "p_3,>>": {"_,a1": 1}}, {">>,p3": {"c1,_": 1}, ">>,p_a_": {"c1,a1": 1}, "p_13,>>": {"c1,_": 1}}],
    [[["o_sc_c1_4", "o_sc"], ["o_sc", "o_sc"]], ["c", "s"], {">>,p2": {"c1,_": 1}, ">>,p_s": {"_,s1": 1}, "p_12,>>": {"c1,_": 1}, "p_4,>>": {"_,s1": 1}}, {">>,p4": {"c1,_": 1}, ">>,p_s_": {"c1,s1": 1}, "p_14,>>": {"c1,_": 1}}],
    [[[">>", "st2"], [">>", null]], ["c"], {">>,p3": {"c1,_": 1}, ">>,p4": {"c1,_": 1}}, {">>,p6": {"c1,_": 1}}],
    [[[">>", "p_w"], [">>", "p_w"]], ["c", "g"], {">>,p9": {"c1,_": 1}, ">>,p_g": {"_,g1": 1}, ">>,p_g_memory": {"c1,g1": 1}}, {">>,p10": {"c1,_": 1}, ">>,p_g": {"_,g1": 1}}],
    [[["p_w_c1_7", ">>"], ["p_w", ">>"]], ["c", "g"], {"p_16,>>": {"c1,_": 1}, "p_8,>>": {"_,g2": 1}}, {"p_17,>>": {"c1,_": 1}}],
    [[["p_r_c1_10", "p_r"], ["p_r", "p_r"]], ["c"], {">>,p12": {"c1,_": 1}, "p_19,>>": {"c1,_": 1}}, {">>,pf": {"c1,_": 1}, "p_21,>>": {"c1,_": 1}}],
    [[["w_e_c1_8", "w_e"], ["w_e", "w_e"]], ["c", "w1"], {">>,p10": {"c1,_": 1}, ">>,p_w1": {"_,=": 1}, "p_17,>>": {"c1,_": 1}}, {">>,p11": {"c1,_": 1}, ">>,p_w1_": {"c1,=": 1}, "p_18,>>": {"c1,_": 1}}],
    [[[">>", "w_l"], [">>", "w_l"]], ["c", "w2"], {">>,p11": {"c2,_": 1}, ">>,p_w2_": {"c2,-": 1}}, {">>,p12": {"c2,_": 1}, ">>,p_w2": {"_,-": 1}}],
    [[[">>", "st4"], [">>", null]], ["c", "w1", "w2"], {">>,p_w1_": {"c1,=": 1}, ">>,p_w2": {"_,-": 1}}, {">>,p_w1": {"_,=": 1}, ">>,p_w2_": {"c1,-": 1}}],
    [[["w_l_c2_1", ">>"], ["w_l", ">>"]], ["c"], {"p_2,>>": {"c2,_": 1}, "p_4,>>": {"_,_": 1}}, {"p_3,>>": {"c2,_": 1}}],
    [[["w_l_c1_0", "w_l"], ["w_l", "w_l"]], ["c", "w2"], {">>,p11": {"c1,_": 1}, ">>,p_w2_": {"c1,-": 1}, "p_0,>>": {"c1,_": 1}}, {">>,p12": {"c1,_": 1}, ">>,p_w2": {"_,-": 1}, "p_1,>>": {"c1,_": 1}, "p_4,>>": {"_,_": 1}}],
    [[[">>", "i_p"], [">>", "i_p"]], ["c", "g"], {">>,p7": {"c1,_": 1}, ">>,p_g_": {"c1,g1": 1}}, {">>,p8": {"c1,_": 1}, ">>,p_g": {"_,g1": 1}}],
    [[["i_s_c2_1", "i_s"], ["i_s", "i_s"]], ["c", "g"], {">>,p_g": {"_,g1": 1}, ">>,pi": {"c2,_": 1}, "p_1,>>": {"_,g1": 1}, "p_4,>>": {"c2,_": 1}}, {">>,p7": {"c2,_": 1}, ">>,p_g_": {"c2,g1": 1}, ">>,p_g_memory": {"c2,g1": 1}, "p_5,>>": {"c2,_": 1}, "p_6,>>": {"_,_": 1}}],
    [[["i_p_c1_0", ">>"], ["i_p", ">>"]], ["c", "g"], {"p_0,>>": {"_,g1": 1}, "p_2,>>": {"c1,_": 1}, "p_6,>>": {"_,_": 1}}, {"p_3,>>": {"c1,_": 1}}],
    [[[">>", "o_f"], [">>", "o_f"]], ["a", "c", "s"], {">>,p6": {"c1,_": 1}, ">>,p_a_": {"c1,a1": 1}, ">>,p_s_": {"c1,s1": 1}}, {">>,p9": {"c1,_": 1}, ">>,p_a": {"_,a1": 1}, ">>,p_s": {"_,s1": 1}}],
    [[["o_p_c2_0", "o_p"], ["o_p", "o_p"]], ["a", "c"], {">>,p8": {"c2,_": 1}, ">>,p_a": {"_,a1": 1}, "p_0,>>": {"_,a1": 1}, "p_12,>>": {"c2,_": 1}}, {">>,p1": {"c2,_": 1}, ">>,p2": {"c2,_": 1}, ">>,p_a_": {"c2,a1": 1}, "p_8,>>": {"c2,_": 1}, "p_9,>>": {"c2,_": 1}}],
    [[["o_so_c2_2", "o_so"], ["o_so", "o_so"]], ["c", "s"], {">>,p2": {"c2,_": 1}, ">>,p_s": {"_,s1": 1}, "p_2,>>": {"_,s1": 1}, "p_9,>>": {"c2,_": 1}}, {">>,p5": {"c2,_": 1}, ">>,p_s_": {"c2,s1": 1}, "p_11,>>": {"c2,_": 1}, "p_18,>>": {"_,_": 1}}],
    [[["o_a_c2_1", "o_a"], ["o_a", "o_a"]], ["a", "c"], {">>,p1": {"c2,_": 1}, ">>,p_a_": {"c2,a1": 1}, "p_1,>>": {"_,a1": 1}, "p_8,>>": {"c2,_": 1}}, {">>,p3": {"c2,_": 1}, ">>,p_a_": {"c2,a1": 1}, "p_10,>>": {"c2,_": 1}, "p_17,>>": {"_,_": 1}}],
    [[[">>", "o_c"], [">>", "o_c"]], ["c", "s"], {">>,p3": {"c2,_": 1}, ">>,p5": {"c2,_": 1}, ">>,p_s_": {"c2,s1": 1}}, {">>,p6": {"c2,_": 1}, ">>,p_s_": {"c2,s1": 1}}],
    [[["o_c_c1_3", ">>"], ["o_c", ">>"]], ["c", "s"], {"p_15,>>": {"c1,_": 1}, "p_17,>>": {"_,_": 1}, "p_18,>>": {"_,_": 1}, "p_3,>>": {"_,s1": 1}}, {"p_14,>>": {"c1,_": 1}, "p_19,>>": {"_,_": 1}}],
    [[["o_f_c2_4", "o_f"], ["o_f", "o_f"]], ["a", "c", "s"], {">>,p6": {"c2,_": 1}, ">>,p_a_": {"c2,a1": 1}, ">>,p_s_": {"c2,s1": 1}, "p_10,>>": {"c2,_": 1}, "p_11,>>": {"c2,_": 1}, "p_19,>>": {"_,_": 1}, "p_4,>>": {"_,s1": 1}, "p_5,>>": {"_,a1": 1}}, {">>,p9": {"c2,_": 1}, ">>,p_a": {"_,a1": 1}, ">>,p_s": {"_,s1": 1}, "p_13,>>": {"c2,_": 1}, "p_20,>>": {"_,_": 1}}],
    [[["o_f_c1_5", ">>"], ["o_f", ">>"]], ["a", "c", "s"], {"p_14,>>": {"c1,_": 1}, "p_20,>>": {"_,_": 1}, "p_6,>>": {"_,s1": 1}, "p_7,>>": {"_,a1": 1}}, {"p_16,>>": {"c1,_": 1}}]
  ],
  "r": [
    [0, 1, 1, 1, 1, 0, 0, 0, 0, 0, 1, 1, 1, 1, 0, 0, 1, 1, 0, 0, 0, 0, 1, 1, 1, 1, 1, 1, 1],
    [0, 0, 1, 1, 1, 0, 0, 0, 0, 0, 1, 0, 1, 1, 0, 0, 1, 1, 0, 0, 0, 0, 0, 0, 0, 0, 0, 0, 0],
    [0, 0, 0, 1, 1, 0, 0, 0, 0, 0, 0, 0, 1, 1, 1, 1, 1, 1, 0, 0, 0, 0, 0, 0, 0, 0, 0, 0, 0],
    [0, 0, 0, 0, 1, 0, 0, 0, 0, 0, 0, 0, 1, 1, 1, 1, 1, 1, 0, 0, 0, 0, 0, 0, 0, 0, 0, 0, 0],
    [0, 0, 0, 0, 0, 0, 0, 0, 0, 0, 0, 0, 0, 0, 0, 0, 0, 0, 0, 0, 0, 0, 0, 0, 0, 0, 0, 0, 0],
    [1, 1, 1, 1, 1, 0, 1, 1, 1, 1, 1, 1, 1, 1, 0, 0, 1, 1, 1, 1, 1, 0, 1, 1, 1, 1, 1, 1, 1],
    [0, 1, 1, 1, 1, 0, 0, 1, 1, 1, 1, 1, 1, 1, 0, 0, 1, 1, 0, 0, 0, 1, 1, 1, 1, 1, 1, 1, 1],
    [0, 1, 1, 1, 1, 0, 0, 0, 0, 1, 1, 1, 1, 1, 0, 0, 1, 1, 0, 0, 0, 1, 1, 1, 1, 1, 1, 1, 1],
    [0, 1, 1, 1, 1, 0, 0, 0, 0, 1, 1, 1, 1, 1, 0, 0, 1, 1, 0, 0, 0, 1, 1, 1, 1, 1, 1, 1, 1],
    [0, 1, 1, 1, 1, 0, 0, 0, 0, 0, 1, 1, 1, 1, 0, 0, 0, 0, 0, 0, 0, 1, 1, 1, 1, 1, 1, 1, 1],
    [0, 0, 0, 0, 1, 0, 0, 0, 0, 0, 0, 0, 1, 1, 0, 0, 0, 0, 0, 0, 0, 0, 0, 0, 0, 0, 0, 0, 0],
    [0, 0, 0, 0, 1, 0, 0, 0, 0, 0, 0, 0, 1, 1, 0, 0, 1, 1, 0, 0, 0, 0, 0, 0, 0, 0, 0, 0, 0],
    [0, 0, 0, 0, 0, 0, 0, 0, 0, 0, 0, 0, 0, 0, 0, 0, 0, 0, 0, 0, 0, 0, 0, 0, 0, 0, 0, 0, 0],
    [0, 0, 0, 0, 1, 0, 0, 0, 0, 0, 0, 0, 1, 0, 0, 1, 1, 1, 0, 0, 0, 0, 0, 0, 0, 0, 0, 0, 0],
    [0, 0, 0, 0, 1, 0, 0, 0, 0, 0, 0, 0, 0, 0, 0, 1, 1, 1, 0, 0, 0, 0, 0, 0, 0, 0, 0, 0, 0],
    [0, 0, 0, 0, 0, 0, 0, 0, 0, 0, 0, 0, 0, 0, 0, 0, 1, 1, 0, 0, 0, 0, 0, 0, 0, 0, 0, 0, 0],
    [0, 0, 0, 0, 1, 0, 0, 0, 0, 0, 0, 0, 1, 0, 0, 0, 0, 0, 0, 0, 0, 0, 0, 0, 0, 0, 0, 0, 0],
    [0, 0, 0, 0, 1, 0, 0, 0, 0, 0, 0, 0, 1, 0, 0, 0, 1, 0, 0, 0, 0, 0, 0, 0, 0, 0, 0, 0, 0],
    [0, 1, 1, 1, 1, 0, 1, 1, 1, 1, 1, 1, 1, 1, 0, 0, 1, 1, 0, 1, 1, 0, 0, 0, 0, 0, 0, 0, 0],
    [1, 1, 1, 1, 1, 0, 1, 1, 1, 1, 1, 1, 1, 1, 1, 1, 1, 1, 0, 0, 1, 0, 1, 1, 1, 1, 1, 1, 1],
    [1, 1, 1, 1, 1, 0, 1, 1, 1, 1, 1, 1, 1, 1, 1, 1, 1, 1, 0, 0, 0, 0, 1, 1, 1, 1, 1, 1, 1],
    [0, 0, 0, 0, 1, 0, 0, 0, 0, 0, 1, 0, 1, 1, 0, 0, 0, 0, 0, 0, 0, 0, 1, 1, 1, 1, 1, 1, 1],
    [0, 1, 1, 1, 1, 0, 0, 0, 0, 0, 1, 1, 1, 1, 1, 1, 1, 1, 0, 0, 0, 0, 0, 1, 1, 1, 1, 1, 1],
    [0, 1, 1, 1, 1, 0, 0, 0, 0, 0, 1, 1, 1, 1, 1, 1, 1, 1, 0, 0, 0, 0, 0, 0, 0, 1, 1, 1, 1],
    [0, 1, 1, 1, 1, 0, 0, 0, 0, 0, 1, 1, 1, 1, 1, 1, 1, 1, 0, 0, 0, 0, 0, 0, 0, 1, 1, 1, 1],
    [0, 0, 0, 0, 0, 0, 0, 0, 0, 0, 0, 0, 0, 0, 0, 0, 0, 0, 0, 0, 0, 0, 0, 0, 0, 0, 0, 1, 1],
    [0, 1, 1, 1, 1, 0, 0, 0, 0, 0, 1, 1, 1, 1, 1, 1, 1, 1, 0, 0, 0, 0, 0, 0, 0, 0, 0, 1, 1],
    [0, 1, 1, 1, 1, 0, 0, 0, 0, 0, 1, 1, 1, 1, 1, 1, 1, 1, 0, 0, 0, 0, 0, 0, 0, 0, 0, 0, 1],
    [0, 1, 1, 1, 1, 0, 0, 0, 0, 0, 1, 1, 1, 1, 1, 1, 1, 1, 0, 0, 0, 0, 0, 0, 0, 0, 0, 0, 0]
  ]
}