{
  "N": "./examples/nets/running_example.json",
  "L": "./examples/logs/running_example_1.json",
  "info": {
    "t": {"decompose": 0.0011386871337890625, "individual_alignments": 0.0289456844329834, "compose": 0.002900362014770508, "split": 4.76837158203125e-06, "ilps": 0.12346911430358887, "realign": 0.015801191329956055, "total": 0.17240309715270996},
    "individual": {
      "c2": {"t": {"total": 0.013019800186157227}, "search": {"visited": 7, "queued": 20, "traversed": 20, "lp_solved": 6, "duration": 0.010704994201660156}, "cost": 10003},
      "c1": {"t": {"total": 0.007573366165161133}, "search": {"visited": 7, "queued": 22, "traversed": 22, "lp_solved": 1, "duration": 0.0058536529541015625}, "cost": 3}
    },
    "composed_alignment_cost": 10006,
    "ilp": [
      {"n": 14, "n_rc": 8, "constraints": 382, "t": {"setup": 0.015437602996826172, "solve": 0.10325956344604492}, "status": "Optimal", "cost": 20003.0}
    ],
    "realign_intervals": [{"t": {"total": 0.012804031372070312}, "search": {"visited": 7, "queued": 19, "traversed": 21, "lp_solved": 14, "duration": 0.011546850204467773}, "cost": 20001}],
    "cost": 30006
  },
  "verification": {
    "t": {"log": 0.00021409988403320312, "permutations": 0.0026617050170898438, "check_sigmas": 0.0073392391204833984, "total": 0.010269403457641602},
    "log": true,
    "model": true,
    "number_of_permutations": 10
  },
  "exact": false,
  "M": [
    [[[">>", "st1"], [">>", null]], ["c"], {">>,pi": {"c2,_": 1}}, {">>,p8": {"c2,_": 1}, ">>,p_g_memory": {"c2,_": 1}}],
    [[[">>", "st3"], [">>", null]], ["c"], {">>,p8": {"c2,_": 1}}, {">>,p9": {"c2,_": 1}}],
    [[["w_e_c2_1", "w_e"], ["w_e", "w_e"]], ["c", "w1"], {">>,p10": {"c2,_": 1}, ">>,p_w1": {"_,=": 1}, "p_1,>>": {"c2,_": 1}}, {">>,p11": {"c2,_": 1}, ">>,p_w1_": {"c2,=": 1}, "p_2,>>": {"c2,_": 1}}],
    [[["p_w_c2_0", "p_w"], ["p_w", "p_w"]], ["c", "g"], {">>,p9": {"c2,_": 1}, ">>,p_g": {"_,g1": 1}, ">>,p_g_memory": {"c2,_": 1}, "p_0,>>": {"_,g1": 1}, "p_3,>>": {"c2,_": 1}}, {">>,p10": {"c2,_": 1}, ">>,p_g": {"_,g1": 1}, "p_1,>>": {"c2,_": 1}}],
    [[[">>", "p_r"], [">>", "p_r"]], ["c"], {">>,p12": {"c2,_": 1}}, {">>,pf": {"c2,_": 1}}],
    [[[">>", "st1"], [">>", null]], ["c"], {">>,pi": {"c1,_": 1}}, {">>,p8": {"c1,_": 1}, ">>,p_g_memory": {"c1,_": 1}}],
    [[[">>", "st3"], [">>", null]], ["c"], {">>,p8": {"c1,_": 1}}, {">>,p9": {"c1,_": 1}}],
    [[["w_e_c1_1", "w_e"], ["w_e", "w_e"]], ["c", "w1"], {">>,p10": {"c1,_": 1}, ">>,p_w1": {"_,=": 1}, "p_1,>>": {"c1,_": 1}}, {">>,p11": {"c1,_": 1}, ">>,p_w1_": {"c1,=": 1}, "p_2,>>": {"c1,_": 1}}],
    [[["p_w_c1_0", "p_w"], ["p_w", "p_w"]], ["c", "g"], {">>,p9": {"c1,_": 1}, ">>,p_g": {"_,g1": 1}, ">>,p_g_memory": {"c1,_": 1}, "p_0,>>": {"_,g1": 1}, "p_4,>>": {"c1,_": 1}}, {">>,p10": {"c1,_": 1}, ">>,p_g": {"_,g1": 1}, "p_1,>>": {"c1,_": 1}}],
    [[[">>", "st4"], [">>", null]], ["c", "w1", "w2"], {">>,p_w1_": {"c1,=": 1}, ">>,p_w2": {"_,-": 1}}, {">>,p_w1": {"_,=": 1}, ">>,p_w2_": {"c1,-": 1}}],
    [[["p_r_c1_3", "p_r"], ["p_r", "p_r"]], ["c"], {">>,p12": {"c1,_": 1}, "p_3,>>": {"c1,_": 1}}, {">>,pf": {"c1,_": 1}, "p_5,>>": {"c1,_": 1}}],
    [[[">>", "w_l"], [">>", "w_l"]], ["c", "w2"], {">>,p11": {"c1,_": 1}, ">>,p_w2_": {"c1,-": 1}}, {">>,p12": {"c1,_": 1}, ">>,p_w2": {"_,-": 1}}],
    [[[">>", "st4"], [">>", null]], ["c", "w1", "w2"], {">>,p_w1_": {"c2,=": 1}, ">>,p_w2": {"_,-": 1}}, {">>,p_w1": {"_,=": 1}, ">>,p_w2_": {"c2,-": 1}}],
    [[["w_l_c1_1", ">>"], ["w_l", ">>"]], ["c"], {"p_2,>>": {"c1,_": 1}, "p_4,>>": {"_,_": 1}}, {"p_3,>>": {"c1,_": 1}}],
    [[["w_l_c2_0", "w_l"], ["w_l", "w_l"]], ["c", "w2"], {">>,p11": {"c2,_": 1}, ">>,p_w2_": {"c2,-": 1}, "p_0,>>": {"c2,_": 1}}, {">>,p12": {"c2,_": 1}, ">>,p_w2": {"_,-": 1}, "p_1,>>": {"c2,_": 1}, "p_4,>>": {"_,_": 1}}]
  ],
  "r": [
    [0, 1, 1, 1, 1, 0, 0, 0, 0, 0, 1, 0, 0, 0, 0],
    [0, 0, 1, 1, 1, 0, 0, 0, 0, 0, 1, 0, 0, 0, 0],
    [0, 0, 0, 0, 1, 0, 0, 0, 0, 0, 1, 0, 1, 1, 1],
    [0, 0, 1, 0, 1, 0, 0, 0, 0, 0, 1, 0, 0, 1, 1],
    [0, 0, 0, 0, 0, 0, 0, 0, 0, 0, 0, 0, 0, 0, 0],
    [0, 0, 1, 1, 1, 0, 1, 1, 1, 1, 1, 0, 0, 0, 0],
    [0, 0, 1, 1, 1, 0, 0, 1, 1, 1, 1, 0, 0, 0, 0],
    [0, 0, 1, 1, 1, 0, 0, 0, 0, 1, 1, 1, 1, 1, 1],
    [0, 0, 1, 1, 1, 0, 0, 1, 0, 1, 1, 0, 0, 1, 1],
    [0, 0, 1, 0, 1, 0, 0, 0, 0, 0, 1, 1, 1, 1, 1],
    [0, 0, 0, 0, 0, 0, 0, 0, 0, 0, 0, 0, 0, 0, 0],
    [0, 0, 0, 0, 0, 0, 0, 0, 0, 0, 1, 0, 1, 1, 1],
    [0, 0, 0, 0, 0, 0, 0, 0, 0, 0, 0, 0, 0, 1, 1],
    [0, 0, 0, 0, 0, 0, 0, 0, 0, 0, 1, 0, 0, 0, 0],
    [0, 0, 0, 0, 1, 0, 0, 0, 0, 0, 1, 0, 0, 1, 0]
  ]
}