{
  "N": "./examples/nets/simple.json",
  "L": "./examples/logs/simple_1.json",
  "info": {
    "t": {"total": 0.022066354751586914},
    "search": {"visited": 17, "queued": 61, "traversed": 64, "lp_solved": 40, "duration": 0.02034282684326172},
    "cost": 40002
  },
  "verification": {
    "t": {"log": 0.00016808509826660156, "permutations": 0.013869047164916992, "check_sigmas": 0.0022988319396972656, "total": 0.01635456085205078},
    "log": true,
    "model": true,
    "number_of_permutations": 9
  },
  "exact": true,
  "M": [
    [[["a_c1_0", "a"], ["a", "a"]], ["c", "r"], {">>,p_r": {"_,r1": 1}, ">>,pi": {"c1,_": 1}, "p_0,>>": {"_,r1": 1}, "p_5,>>": {"c1,_": 1}}, {">>,p1": {"c1,_": 1}, ">>,p2": {"c1,_": 1}, ">>,p_r_": {"c1,r1": 1}, "p_10,>>": {"_,_": 1}, "p_4,>>": {"c1,_": 1}}],
    [[[">>", "c"], [">>", "c"]], ["c"], {">>,p2": {"c1,_": 1}}, {">>,p4": {"c1,_": 1}}],
    [[["a_c2_1", ">>"], ["a", ">>"]], ["c", "r"], {"p_1,>>": {"_,r1": 1}, "p_10,>>": {"_,_": 1}, "p_8,>>": {"c2,_": 1}}, {"p_11,>>": {"_,_": 1}, "p_7,>>": {"c2,_": 1}}],
    [[["b_c1_2", "b"], ["b", "b"]], ["c", "r"], {">>,p1": {"c1,_": 1}, ">>,p_r_": {"c1,r1": 1}, "p_11,>>": {"_,_": 1}, "p_2,>>": {"_,r1": 1}, "p_4,>>": {"c1,_": 1}}, {">>,p3": {"c1,_": 1}, ">>,p_r": {"_,r1": 1}, "p_12,>>": {"_,_": 1}, "p_6,>>": {"c1,_": 1}}],
    [[[">>", "a"], [">>", "a"]], ["c", "r"], {">>,p_r": {"_,r1": 1}, ">>,pi": {"c2,_": 1}}, {">>,p1": {"c2,_": 1}, ">>,p2": {"c2,_": 1}, ">>,p_r_": {"c2,r1": 1}}],
    [[[">>", "c"], [">>", "c"]], ["c"], {">>,p2": {"c2,_": 1}}, {">>,p4": {"c2,_": 1}}],
    [[[">>", "st"], [">>", null]], ["c"], {">>,p3": {"c1,_": 1}, ">>,p4": {"c1,_": 1}}, {">>,pf": {"c1,_": 1}}],
    [[["b_c2_3", "b"], ["b", "b"]], ["c", "r"], {">>,p1": {"c2,_": 1}, ">>,p_r_": {"c2,r1": 1}, "p_12,>>": {"_,_": 1}, "p_3,>>": {"_,r1": 1}, "p_7,>>": {"c2,_": 1}}, {">>,p3": {"c2,_": 1}, ">>,p_r": {"_,r1": 1}, "p_9,>>": {"c2,_": 1}}],
    [[[">>", "st"], [">>", null]], ["c"], {">>,p3": {"c2,_": 1}, ">>,p4": {"c2,_": 1}}, {">>,pf": {"c2,_": 1}}]
  ],
  "r": [
    [0, 1, 1, 1, 1, 1, 1, 1, 1],
    [0, 0, 0, 0, 0, 0, 1, 0, 0],
    [0, 0, 0, 1, 1, 1, 1, 1, 1],
    [0, 0, 0, 0, 1, 1, 1, 1, 1],
    [0, 0, 0, 0, 0, 1, 0, 1, 1],
    [0, 0, 0, 0, 0, 0, 0, 0, 1],
    [0, 0, 0, 0, 0, 0, 0, 0, 0],
    [0, 0, 0, 0, 0, 0, 0, 0, 1],
    [0, 0, 0, 0, 0, 0, 0, 0, 0]
  ]
}