{
  "N": "./examples/nets/simple_skip.json",
  "L": "./examples/logs/simple_skip_1.json",
  "info": {
    "t": {"decompose": 0.00022292137145996094, "individual_alignments": 0.01164555549621582, "compose": 0.0021088123321533203, "split": 4.5299530029296875e-06, "ilps": 0.09019613265991211, "realign": 0.010476827621459961, "total": 0.11481022834777832},
    "individual": {
      "c2": {"t": {"total": 0.0024802684783935547}, "search": {"visited": 2, "queued": 6, "traversed": 6, "lp_solved": 1, "duration": 0.001561880111694336}, "cost": 10000},
      "c1": {"t": {"total": 0.002016305923461914}, "search": {"visited": 2, "queued": 7, "traversed": 7, "lp_solved": 1, "duration": 0.0013651847839355469}, "cost": 0}
    },
    "composed_alignment_cost": 10000,
    "ilp": [
      {"n": 4, "n_rc": 4, "constraints": 47, "t": {"setup": 0.004350900650024414, "solve": 0.08172369003295898}, "status": "Optimal", "cost": 10001.0}
    ],
    "realign_intervals": [{"t": {"total": 0.008176803588867188}, "search": {"visited": 4, "queued": 13, "traversed": 13, "lp_solved": 13, "duration": 0.006585597991943359}, "cost": 20000}],
    "cost": 30000
  },
  "verification": {
    "t": {"log": 0.0002238750457763672, "permutations": 0.0021398067474365234, "check_sigmas": 0.0007574558258056641, "total": 0.0031812191009521484},
    "log": true,
    "model": true,
    "number_of_permutations": 1
  },
  "exact": false,
  "M": [
    [[[">>", "a"], [">>", "a"]], ["c", "r"], {">>,p_r": {"_,r1": 1}, ">>,pi": {"c2,_": 1}}, {">>,p1": {"c2,_": 1}, ">>,p_r_": {"c2,r1": 1}}],
    [[["b_c1_1", "b"], ["b", "b"]], ["c", "r"], {">>,p1": {"c1,_": 1}, ">>,p_r_": {"c1,r1": 1}, "p_1,>>": {"_,r1": 1}, "p_2,>>": {"c1,_": 1}}, {">>,p_r": {"_,r1": 1}, ">>,pf": {"c1,_": 1}, "p_4,>>": {"c1,_": 1}}],
    [[[">>", "b"], [">>", "b"]], ["c", "r"], {">>,p1": {"c2,_": 1}, ">>,p_r_": {"c2,r1": 1}}, {">>,p_r": {"_,r1": 1}, ">>,pf": {"c2,_": 1}}],
    [[["a_c1_0", "a"], ["a", "a"]], ["c", "r"], {">>,p_r": {"_,r1": 1}, ">>,pi": {"c1,_": 1}, "p_0,>>": {"_,r1": 1}, "p_2,>>": {"c1,_": 1}}, {">>,p1": {"c1,_": 1}, ">>,p_r_": {"c1,r1": 1}, "p_3,>>": {"c1,_": 1}, "p_6,>>": {"_,_": 1}}],
    [[["b_c2_1", ">>"], ["b", ">>"]], ["c", "r"], {"p_1,>>": {"_,r1": 1}, "p_4,>>": {"c2,_": 1}, "p_6,>>": {"_,_": 1}}, {"p_5,>>": {"c2,_": 1}}]
  ],
  "r": [
    [0, 1, 1, 1, 1],
    [0, 0, 0, 0, 0],
    [0, 0, 0, 1, 1],
    [0, 1, 0, 0, 1],
    [0, 1, 0, 0, 0]
  ]
}