{
  "N": "./datasets/nets/omron_relaxed.json",
  "L": 19,
  "info": {
    "cost": 105000000,
    "visited": 19,
    "queued": 1007,
    "traversed": 1007,
    "lp_solved": 429,
    "enabled_check": 228,
    "duration": 6.4616711139678955
  },
  "exact": true,
  "relaxed": true,
  "n_overflow": 2,
  "m_i": "[[([c1])]\u00b7c1,[([c2])]\u00b7c2,[([c4])]\u00b7c4,[([c7])]\u00b7c7,[([400016945_0005]),([400016945_0006])]\u00b7fc10,[([400016945_0004], [c6])]\u00b7fc11,[([400016956_0012]),([400016956_0011]),([400016956_0005]),([400016956_0008]),([400016956_0006]),([400016945_0011]),([400016956_0007]),([400016956_0004]),([400016956_0003]),([400016945_0009]),([400016945_0012]),([400016956_0001]),([400016956_0010])]\u00b7i,[([400016945_0006], [c3])]\u00b7ia4,[([o1])]\u00b7o1,[([o2])]\u00b7o2,[([o3])]\u00b7o3,[([400016945_0004])]\u00b7oa0,[([400016945_0005]),([400016945_0006])]\u00b7oa10,[([400016945_0004], [c5])]\u00b7oa11,[([400016945_0005])]\u00b7ofc0,[([400016945_0005]),([400016945_0006])]\u00b7ofc10,[([400016945_0002])]\u00b7p0,[([400016945_0002]),([400016945_0004]),([400016945_0005]),([400016945_0006])]\u00b7p10]",
  "m_f": "[[([c1])]\u00b7c1,[([c2])]\u00b7c2,[([c7])]\u00b7c7,[([400016945_0005]),([400016945_0006])]\u00b7fc10,[([400016945_0004], [c6])]\u00b7fc11,[([400016956_0012]),([400016956_0011]),([400016956_0005]),([400016956_0008]),([400016956_0006]),([400016945_0011]),([400016956_0007]),([400016956_0004]),([400016956_0003]),([400016945_0009]),([400016945_0012]),([400016956_0001]),([400016956_0010])]\u00b7i,[([400016945_0006])]\u00b7ia0,[([400016945_0006], [c3])]\u00b7ia11,[([o1])]\u00b7o1,[([o2])]\u00b7o2,[([o3])]\u00b7o3,[([400016945_0004])]\u00b7oa0,[([400016945_0005]),([400016945_0006])]\u00b7oa10,[([400016945_0004], [c5])]\u00b7oa11,[([400016945_0005])]\u00b7ofc0,[([400016945_0006])]\u00b7ofc10,[([400016945_0005], [c4])]\u00b7ofc11,[([400016945_0002])]\u00b7p0,[([400016945_0002]),([400016945_0004]),([400016945_0005]),([400016945_0006])]\u00b7p10]",
  "M": [
    ["tau_OFC-WPPs_2", null, "log", {"c4": "c4", "c400016945_0005": "400016945_0005"}, "[[([c4])]\u00b7p_C^(2),[([400016945_0005])]\u00b7p_P^(2)]", "[[([c4])]\u00b7p_C^(.2),[([400016945_0005])]\u00b7p_P^(.2)]"],
    ["OFC-WPPs_2-OFC-WPPs", "OFC-WPPs", "synchronous", {"p": "400016945_0005", "c": "c4"}, "[[([c4])]\u00b7c4,[([400016945_0005])]\u00b7ofc10,[([c4])]\u00b7p_C^(.2),[([400016945_0005])]\u00b7p_P^(.2)]", "[[([400016945_0005], [c4])]\u00b7ofc11,[([c4])]\u00b7p_C^(2,1),[([400016945_0005])]\u00b7p_P^(2,1)]"],
    ["tau_IA-WCSc_1", null, "log", {"c400016945_0006": "400016945_0006", "c4": "c4", "o3": "o3", "c400016945_0005": "400016945_0005", "c3": "c3"}, "[[([c3])]\u00b7p_C^(1),[([c4])]\u00b7p_C^(2,1),[([o3])]\u00b7p_O^(1),[([400016945_0006])]\u00b7p_P^(1),[([400016945_0005])]\u00b7p_P^(2,1)]", "[[([c3])]\u00b7p_C^(.1),[([o3])]\u00b7p_O^(.1),[([400016945_0006])]\u00b7p_P^(.1)]"],
    ["IA-WCSc_1-IA-WCSc", "IA-WCSc", "synchronous", {"c": "c3", "o": "o3", "p": "400016945_0006"}, "[[([400016945_0006], [c3])]\u00b7ia4,[([o3])]\u00b7o3,[([c3])]\u00b7p_C^(.1),[([o3])]\u00b7p_O^(.1),[([400016945_0006])]\u00b7p_P^(.1)]", "[[([400016945_0006], [c3], [o3])]\u00b7ia5,[([c3])]\u00b7p_C^(1,0),[([o3])]\u00b7p_O^(1,0),[([400016945_0006])]\u00b7p_P^(1,0)]"],
    ["IA-WSFs", "IA-WSFs", "model", {"p": "400016945_0006", "c": "c3", "o": "o3"}, "[[([400016945_0006], [c3], [o3])]\u00b7ia5]", "[[([400016945_0006], [c3])]\u00b7ia6,[([o3])]\u00b7o3]"],
    ["IA-WSFc", "IA-WSFc", "model", {"p": "400016945_0006", "c": "c3"}, "[[([400016945_0006], [c3])]\u00b7ia6]", "[[([c3])]\u00b7c3,[([400016945_0006])]\u00b7ofc0]"],
    ["315", null, "model", {"p": "400016945_0006"}, "[[([400016945_0006])]\u00b7ofc0]", "[[([400016945_0006])]\u00b7ia0,[([400016945_0006])]\u00b7ia10]"],
    ["tau_IA-WSs_0", null, "log", {"c3": "c3", "o3": "o3", "c400016945_0006": "400016945_0006"}, "[[([c3])]\u00b7p_C^(0),[([c3])]\u00b7p_C^(1,0),[([o3])]\u00b7p_O^(1,0),[([400016945_0006])]\u00b7p_P^(0),[([400016945_0006])]\u00b7p_P^(1,0)]", "[[([c3])]\u00b7p_C^(.0),[([400016945_0006])]\u00b7p_P^(.0)]"],
    ["IA-WSs_0-IA-WSs", "IA-WSs", "synchronous", {"p": "400016945_0006", "c": "c3"}, "[[([c3])]\u00b7c3,[([400016945_0006])]\u00b7ia10,[([c3])]\u00b7p_C^(.0),[([400016945_0006])]\u00b7p_P^(.0)]", "[[([400016945_0006], [c3])]\u00b7ia11]"]
  ],
  "r": [
    [0, 1, 1, 1, 1, 1, 1, 1, 1],
    [0, 0, 1, 1, 1, 1, 1, 1, 1],
    [0, 0, 0, 1, 1, 1, 1, 1, 1],
    [0, 0, 0, 0, 1, 1, 1, 1, 1],
    [0, 0, 0, 0, 0, 1, 1, 0, 1],
    [0, 0, 0, 0, 0, 0, 1, 0, 1],
    [0, 0, 0, 0, 0, 0, 0, 0, 1],
    [0, 0, 0, 0, 0, 0, 0, 0, 1],
    [0, 0, 0, 0, 0, 0, 0, 0, 0]
  ]
}