{
  "N": "./datasets/nets/omron_relaxed.json",
  "L": 19,
  "info": {
    "cost": 4010001,
    "visited": 7205,
    "queued": 359181,
    "traversed": 359181,
    "lp_solved": 288001,
    "enabled_check": 19319,
    "duration": 5446.723223924637
  },
  "exact": true,
  "relaxed": true,
  "n_overflow": 2,
  "m_i": "[[([c1])]\u00b7c1,[([c2])]\u00b7c2,[([c7])]\u00b7c7,[([400016945_0005]),([400016945_0006])]\u00b7fc10,[([400016945_0004], [c6])]\u00b7fc11,[([400016956_0012]),([400016956_0011]),([400016956_0005]),([400016956_0008]),([400016956_0006]),([400016945_0011]),([400016956_0007]),([400016956_0004]),([400016956_0003]),([400016945_0009]),([400016945_0012]),([400016956_0001]),([400016956_0010])]\u00b7i,[([400016945_0006])]\u00b7ia0,[([400016945_0006], [c3])]\u00b7ia11,[([o1])]\u00b7o1,[([o2])]\u00b7o2,[([o3])]\u00b7o3,[([400016945_0004])]\u00b7oa0,[([400016945_0005]),([400016945_0006])]\u00b7oa10,[([400016945_0004], [c5])]\u00b7oa11,[([400016945_0005])]\u00b7ofc0,[([400016945_0006])]\u00b7ofc10,[([400016945_0005], [c4])]\u00b7ofc11,[([400016945_0002])]\u00b7p0,[([400016945_0002]),([400016945_0004]),([400016945_0005]),([400016945_0006])]\u00b7p10]",
  "m_f": "[[([c1])]\u00b7c1,[([c2])]\u00b7c2,[([c7])]\u00b7c7,[([400016945_0005]),([400016945_0006])]\u00b7fc10,[([400016945_0004], [c6])]\u00b7fc11,[([400016956_0012]),([400016956_0011]),([400016956_0005]),([400016956_0008]),([400016956_0006]),([400016945_0011]),([400016956_0007]),([400016956_0004]),([400016956_0003]),([400016945_0009]),([400016945_0012]),([400016956_0001]),([400016956_0010])]\u00b7i,[([400016945_0006], [c3])]\u00b7ia4,[([o1])]\u00b7o1,[([o2])]\u00b7o2,[([400016945_0005]),([400016945_0006])]\u00b7oa10,[([400016945_0004], [c5], [o3])]\u00b7oa4,[([400016945_0005])]\u00b7ofc0,[([400016945_0006])]\u00b7ofc10,[([400016945_0005], [c4])]\u00b7ofc11,[([400016945_0002])]\u00b7p0,[([400016945_0002]),([400016945_0004]),([400016945_0005]),([400016945_0006])]\u00b7p10]",
  "M": [
    ["tau_IA-WSc_1", null, "log", {"c3": "c3", "c400016945_0006": "400016945_0006", "o3": "o3"}, "[[([c3])]\u00b7p_C^(1),[([o3])]\u00b7p_O^(1),[([400016945_0006])]\u00b7p_P^(1)]", "[[([c3])]\u00b7p_C^(.1),[([o3])]\u00b7p_O^(.1),[([400016945_0006])]\u00b7p_P^(.1)]"],
    ["IA-WSc_1-IA-WSc", "IA-WSc", "synchronous", {"p": "400016945_0006", "c": "c3", "o": "o3"}, "[[([400016945_0006])]\u00b7ia0,[([400016945_0006], [c3])]\u00b7ia11,[([o3])]\u00b7o3,[([c3])]\u00b7p_C^(.1),[([o3])]\u00b7p_O^(.1),[([400016945_0006])]\u00b7p_P^(.1)]", "[[([400016945_0006], [c3], [o3])]\u00b7ia1,[([c3])]\u00b7p_C^(1,0),[([o3])]\u00b7p_O^(1,0),[([400016945_0006])]\u00b7p_P^(1,0)]"],
    ["tau_IA-AP_0", null, "log", {"c400016945_0006": "400016945_0006", "c3": "c3", "o3": "o3"}, "[[([c3])]\u00b7p_C^(0),[([c3])]\u00b7p_C^(1,0),[([o3])]\u00b7p_O^(0),[([o3])]\u00b7p_O^(1,0),[([400016945_0006])]\u00b7p_P^(0),[([400016945_0006])]\u00b7p_P^(1,0)]", "[[([c3])]\u00b7p_C^(.0),[([o3])]\u00b7p_O^(.0),[([400016945_0006])]\u00b7p_P^(.0)]"],
    ["IA-AP_0-IA-AP", "IA-AP", "synchronous", {"o": "o3", "p": "400016945_0006", "c": "c3"}, "[[([400016945_0006], [c3], [o3])]\u00b7ia1,[([c3])]\u00b7p_C^(.0),[([o3])]\u00b7p_O^(.0),[([400016945_0006])]\u00b7p_P^(.0)]", "[[([400016945_0006], [c3], [o3])]\u00b7ia2,[([c3])]\u00b7p_C^(0,3),[([o3])]\u00b7p_O^(0,3),[([400016945_0006])]\u00b7p_P^(0,3)]"],
    ["tau_OA-WSc_3", null, "log", {"o3": "o3", "c400016945_0006": "400016945_0006", "c400016945_0004": "400016945_0004", "c5": "c5", "c3": "c3"}, "[[([c3])]\u00b7p_C^(0,3),[([c5])]\u00b7p_C^(3),[([o3])]\u00b7p_O^(0,3),[([o3])]\u00b7p_O^(3),[([400016945_0006])]\u00b7p_P^(0,3),[([400016945_0004])]\u00b7p_P^(3)]", "[[([c5])]\u00b7p_C^(.3),[([o3])]\u00b7p_O^(.3),[([400016945_0004])]\u00b7p_P^(.3)]"],
    ["t_destroy^", "ia2,{{P,C},{O}}", "model", {"p": "400016945_0006", "c": "c3", "o": "o3"}, "[[([400016945_0006], [c3], [o3])]\u00b7ia2]", "[[([o3])]\u00b7ia2\u21be{O},[([400016945_0006], [c3])]\u00b7ia2\u21be{P,C}]"],
    ["IA-STL\u21be{o}", "IA-STL\u21be{o}", "model", {"o": "o3"}, "[[([o3])]\u00b7ia2\u21be{O}]", "[[([o3])]\u00b7ia3\u21be{O}]"],
    ["IA-WCSs\u21be{o}", "IA-WCSs\u21be{o}", "model", {"o": "o3"}, "[[([o3])]\u00b7ia3\u21be{O}]", "[[([o3])]\u00b7o3]"],
    ["OA-WSc_3-OA-WSc", "OA-WSc", "synchronous", {"p": "400016945_0004", "o": "o3", "c": "c5"}, "[[([o3])]\u00b7o3,[([400016945_0004])]\u00b7oa0,[([400016945_0004], [c5])]\u00b7oa11,[([c5])]\u00b7p_C^(.3),[([o3])]\u00b7p_O^(.3),[([400016945_0004])]\u00b7p_P^(.3)]", "[[([400016945_0004], [c5], [o3])]\u00b7oa1,[([c5])]\u00b7p_C^(3,2),[([o3])]\u00b7p_O^(3,2),[([400016945_0004])]\u00b7p_P^(3,2)]"],
    ["tau_IA-STL_2", null, "log", {"c5": "c5", "c400016945_0006": "400016945_0006", "o3": "o3", "c400016945_0004": "400016945_0004", "c3": "c3"}, "[[([c3])]\u00b7p_C^(2),[([c5])]\u00b7p_C^(3,2),[([o3])]\u00b7p_O^(2),[([o3])]\u00b7p_O^(3,2),[([400016945_0006])]\u00b7p_P^(2),[([400016945_0004])]\u00b7p_P^(3,2)]", "[[([c3])]\u00b7p_C^(.2),[([o3])]\u00b7p_O^(.2),[([400016945_0006])]\u00b7p_P^(.2)]"],
    ["IA-STL_2\u21be{o3}", "IA-STL\u21be{o3}", "log", {"o3": "o3"}, "[[([o3])]\u00b7p_O^(.2)]", "[[([o3])]\u00b7p_O^(2,5)]"],
    ["IA-STL_2\u21be{c400016945_0006,c3}-IA-STL\u21be{c,p}", "IA-STL\u21be{c400016945_0006,c3}", "synchronous", {"p": "400016945_0006", "c": "c3"}, "[[([400016945_0006], [c3])]\u00b7ia2\u21be{P,C},[([c3])]\u00b7p_C^(.2),[([400016945_0006])]\u00b7p_P^(.2)]", "[[([400016945_0006], [c3])]\u00b7ia3\u21be{P,C},[([c3])]\u00b7p_C^(2,5),[([400016945_0006])]\u00b7p_P^(2,5)]"],
    ["tau_OA-AP_5", null, "log", {"c400016945_0006": "400016945_0006", "c5": "c5", "o3": "o3", "c3": "c3", "c400016945_0004": "400016945_0004"}, "[[([c3])]\u00b7p_C^(2,5),[([c5])]\u00b7p_C^(5),[([o3])]\u00b7p_O^(2,5),[([o3])]\u00b7p_O^(5),[([400016945_0006])]\u00b7p_P^(2,5),[([400016945_0004])]\u00b7p_P^(5)]", "[[([c5])]\u00b7p_C^(.5),[([o3])]\u00b7p_O^(.5),[([400016945_0004])]\u00b7p_P^(.5)]"],
    ["OA-AP_5-OA-AP", "OA-AP", "synchronous", {"c": "c5", "p": "400016945_0004", "o": "o3"}, "[[([400016945_0004], [c5], [o3])]\u00b7oa1,[([c5])]\u00b7p_C^(.5),[([o3])]\u00b7p_O^(.5),[([400016945_0004])]\u00b7p_P^(.5)]", "[[([400016945_0004], [c5], [o3])]\u00b7oa2,[([c5])]\u00b7p_C^(5,4),[([o3])]\u00b7p_O^(5,4),[([400016945_0004])]\u00b7p_P^(5,4)]"],
    ["tau_IA-WCSs_4", null, "log", {"c400016945_0006": "400016945_0006", "o3": "o3", "c400016945_0004": "400016945_0004", "c3": "c3", "c5": "c5"}, "[[([c3])]\u00b7p_C^(4),[([c5])]\u00b7p_C^(5,4),[([o3])]\u00b7p_O^(4),[([o3])]\u00b7p_O^(5,4),[([400016945_0006])]\u00b7p_P^(4),[([400016945_0004])]\u00b7p_P^(5,4)]", "[[([c3])]\u00b7p_C^(.4),[([o3])]\u00b7p_O^(.4),[([400016945_0006])]\u00b7p_P^(.4)]"],
    ["IA-WCSs_4\u21be{o3}", "IA-WCSs\u21be{o3}", "log", {"o3": "o3"}, "[[([o3])]\u00b7p_O^(.4)]", "[[([o3])]\u00b7p_O^(4,6)]"],
    ["IA-WCSs_4\u21be{c400016945_0006,c3}-IA-WCSs\u21be{c,p}", "IA-WCSs\u21be{c400016945_0006,c3}", "synchronous", {"p": "400016945_0006", "c": "c3"}, "[[([400016945_0006], [c3])]\u00b7ia3\u21be{P,C},[([c3])]\u00b7p_C^(.4),[([400016945_0006])]\u00b7p_P^(.4)]", "[[([400016945_0006], [c3])]\u00b7ia4,[([c3])]\u00b7p_C^(4,6),[([400016945_0006])]\u00b7p_P^(4,6)]"],
    ["tau_OA-Lf1_6", null, "log", {"c400016945_0006": "400016945_0006", "c5": "c5", "c3": "c3", "o3": "o3", "c400016945_0004": "400016945_0004"}, "[[([c3])]\u00b7p_C^(4,6),[([c5])]\u00b7p_C^(6),[([o3])]\u00b7p_O^(4,6),[([o3])]\u00b7p_O^(6),[([400016945_0006])]\u00b7p_P^(4,6),[([400016945_0004])]\u00b7p_P^(6)]", "[[([c5])]\u00b7p_C^(.6),[([o3])]\u00b7p_O^(.6),[([400016945_0004])]\u00b7p_P^(.6)]"],
    ["OA-Lf1_6-OA-Lf1", "OA-Lf1", "synchronous", {"p": "400016945_0004", "c": "c5", "o": "o3"}, "[[([400016945_0004], [c5], [o3])]\u00b7oa2,[([c5])]\u00b7p_C^(.6),[([o3])]\u00b7p_O^(.6),[([400016945_0004])]\u00b7p_P^(.6)]", "[[([400016945_0004], [c5], [o3])]\u00b7oa3,[([c5])]\u00b7p_C^(6,7),[([o3])]\u00b7p_O^(6,7),[([400016945_0004])]\u00b7p_P^(6,7)]"],
    ["tau_OA-STL_7", null, "log", {"c5": "c5", "c400016945_0004": "400016945_0004", "o3": "o3"}, "[[([c5])]\u00b7p_C^(6,7),[([c5])]\u00b7p_C^(7),[([o3])]\u00b7p_O^(6,7),[([o3])]\u00b7p_O^(7),[([400016945_0004])]\u00b7p_P^(6,7),[([400016945_0004])]\u00b7p_P^(7)]", "[[([c5])]\u00b7p_C^(.7),[([o3])]\u00b7p_O^(.7),[([400016945_0004])]\u00b7p_P^(.7)]"],
    ["OA-STL_7-OA-STL", "OA-STL", "synchronous", {"o": "o3", "p": "400016945_0004", "c": "c5"}, "[[([400016945_0004], [c5], [o3])]\u00b7oa3,[([c5])]\u00b7p_C^(.7),[([o3])]\u00b7p_O^(.7),[([400016945_0004])]\u00b7p_P^(.7)]", "[[([400016945_0004], [c5], [o3])]\u00b7oa4]"]
  ],
  "r": [
    [0, 1, 1, 1, 1, 1, 1, 1, 1, 1, 1, 1, 1, 1, 1, 1, 1, 1, 1, 1, 1],
    [0, 0, 1, 1, 1, 1, 1, 1, 1, 1, 1, 1, 1, 1, 1, 1, 1, 1, 1, 1, 1],
    [0, 0, 0, 1, 1, 1, 1, 1, 1, 1, 1, 1, 1, 1, 1, 1, 1, 1, 1, 1, 1],
    [0, 0, 0, 0, 1, 1, 1, 1, 1, 1, 1, 1, 1, 1, 1, 1, 1, 1, 1, 1, 1],
    [0, 0, 0, 0, 0, 0, 0, 0, 1, 1, 1, 1, 1, 1, 1, 1, 1, 1, 1, 1, 1],
    [0, 0, 0, 0, 0, 0, 1, 1, 1, 1, 1, 1, 1, 1, 1, 1, 1, 1, 1, 1, 1],
    [0, 0, 0, 0, 0, 0, 0, 1, 1, 1, 1, 1, 1, 1, 1, 1, 1, 1, 1, 1, 1],
    [0, 0, 0, 0, 0, 0, 0, 0, 1, 1, 1, 1, 1, 1, 1, 1, 1, 1, 1, 1, 1],
    [0, 0, 0, 0, 0, 0, 0, 0, 0, 1, 1, 1, 1, 1, 1, 1, 1, 1, 1, 1, 1],
    [0, 0, 0, 0, 0, 0, 0, 0, 0, 0, 1, 1, 1, 1, 1, 1, 1, 1, 1, 1, 1],
    [0, 0, 0, 0, 0, 0, 0, 0, 0, 0, 0, 0, 1, 1, 1, 1, 1, 1, 1, 1, 1],
    [0, 0, 0, 0, 0, 0, 0, 0, 0, 0, 0, 0, 1, 1, 1, 1, 1, 1, 1, 1, 1],
    [0, 0, 0, 0, 0, 0, 0, 0, 0, 0, 0, 0, 0, 1, 1, 1, 1, 1, 1, 1, 1],
    [0, 0, 0, 0, 0, 0, 0, 0, 0, 0, 0, 0, 0, 0, 1, 1, 1, 1, 1, 1, 1],
    [0, 0, 0, 0, 0, 0, 0, 0, 0, 0, 0, 0, 0, 0, 0, 1, 1, 1, 1, 1, 1],
    [0, 0, 0, 0, 0, 0, 0, 0, 0, 0, 0, 0, 0, 0, 0, 0, 0, 1, 1, 1, 1],
    [0, 0, 0, 0, 0, 0, 0, 0, 0, 0, 0, 0, 0, 0, 0, 0, 0, 1, 1, 1, 1],
    [0, 0, 0, 0, 0, 0, 0, 0, 0, 0, 0, 0, 0, 0, 0, 0, 0, 0, 1, 1, 1],
    [0, 0, 0, 0, 0, 0, 0, 0, 0, 0, 0, 0, 0, 0, 0, 0, 0, 0, 0, 1, 1],
    [0, 0, 0, 0, 0, 0, 0, 0, 0, 0, 0, 0, 0, 0, 0, 0, 0, 0, 0, 0, 1],
    [0, 0, 0, 0, 0, 0, 0, 0, 0, 0, 0, 0, 0, 0, 0, 0, 0, 0, 0, 0, 0]
  ]
}