{
  "N": "./datasets/nets/omron_relaxed.json",
  "L": 19,
  "info": {
    "cost": 105004000,
    "visited": 469,
    "queued": 20676,
    "traversed": 20676,
    "lp_solved": 18170,
    "enabled_check": 1963,
    "duration": 283.70408511161804
  },
  "exact": true,
  "relaxed": true,
  "n_overflow": 2,
  "m_i": "[[([c1])]\u00b7c1,[([c2])]\u00b7c2,[([400016945_0005]),([400016945_0006])]\u00b7fc10,[([400016945_0004], [c6])]\u00b7fc11,[([400016956_0012]),([400016956_0011]),([400016956_0005]),([400016956_0008]),([400016956_0006]),([400016945_0011]),([400016956_0007]),([400016956_0004]),([400016956_0003]),([400016945_0009]),([400016945_0012]),([400016956_0001]),([400016956_0010])]\u00b7i,[([400016945_0006], [c3], [o3])]\u00b7ia3,[([o1])]\u00b7o1,[([o2])]\u00b7o2,[-1\u00b7([o3])]\u00b7o3,[([400016945_0005]),([400016945_0006])]\u00b7oa10,[([400016945_0004], [c5])]\u00b7oa5,[([400016945_0006])]\u00b7ofc10,[([400016945_0005], [c4])]\u00b7ofc4,[([400016945_0002])]\u00b7p0,[([400016945_0002]),([400016945_0005]),([400016945_0006])]\u00b7p10,[([400016945_0004], [c7])]\u00b7p11]",
  "m_f": "[[([c1])]\u00b7c1,[([c2])]\u00b7c2,[([400016945_0005]),([400016945_0006])]\u00b7fc10,[([400016945_0004], [c6])]\u00b7fc11,[([400016956_0012]),([400016956_0011]),([400016956_0005]),([400016956_0008]),([400016956_0006]),([400016945_0011]),([400016956_0007]),([400016956_0004]),([400016956_0003]),([400016945_0009]),([400016945_0012]),([400016956_0001]),([400016956_0010])]\u00b7i,[([400016945_0006])]\u00b7ia0,[([400016945_0006], [c3])]\u00b7ia11,[([o1])]\u00b7o1,[([o2])]\u00b7o2,[([400016945_0005]),([400016945_0006])]\u00b7oa10,[([400016945_0004], [c5])]\u00b7oa5,[([400016945_0006])]\u00b7ofc10,[([400016945_0005], [c4])]\u00b7ofc4,[([400016945_0002])]\u00b7p0,[([400016945_0002]),([400016945_0005]),([400016945_0006])]\u00b7p10,[([400016945_0004], [c7])]\u00b7p11]",
  "M": [
    ["tau_IA-WCSs_2", null, "log", {"o3": "o3", "c3": "c3", "c400016945_0006": "400016945_0006"}, "[[([c3])]\u00b7p_C^(2),[([o3])]\u00b7p_O^(2),[([400016945_0006])]\u00b7p_P^(2)]", "[[([c3])]\u00b7p_C^(.2),[([o3])]\u00b7p_O^(.2),[([400016945_0006])]\u00b7p_P^(.2)]"],
    ["IA-WCSs_2-IA-WCSs", "IA-WCSs", "synchronous", {"o": "o3", "c": "c3", "p": "400016945_0006"}, "[[([400016945_0006], [c3], [o3])]\u00b7ia3,[([c3])]\u00b7p_C^(.2),[([o3])]\u00b7p_O^(.2),[([400016945_0006])]\u00b7p_P^(.2)]", "[[([400016945_0006], [c3])]\u00b7ia4,[([o3])]\u00b7o3,[([c3])]\u00b7p_C^(2,0),[([o3])]\u00b7p_O^(2,0),[([400016945_0006])]\u00b7p_P^(2,0)]"],
    ["tau_IA-WCSc_0", null, "log", {"o3": "o3", "c400016945_0006": "400016945_0006", "c3": "c3"}, "[[([c3])]\u00b7p_C^(0),[([c3])]\u00b7p_C^(2,0),[([o3])]\u00b7p_O^(0),[([o3])]\u00b7p_O^(2,0),[([400016945_0006])]\u00b7p_P^(0),[([400016945_0006])]\u00b7p_P^(2,0)]", "[[([c3])]\u00b7p_C^(.0),[([o3])]\u00b7p_O^(.0),[([400016945_0006])]\u00b7p_P^(.0)]"],
    ["IA-WCSc_0\u21be{c400016945_0006,c3}-IA-WCSc\u21be{c,p}", "IA-WCSc\u21be{c400016945_0006,c3}", "synchronous", {"p": "400016945_0006", "c": "c3"}, "[[([400016945_0006], [c3])]\u00b7ia4,[([c3])]\u00b7p_C^(.0),[([400016945_0006])]\u00b7p_P^(.0)]", "[[([400016945_0006], [c3])]\u00b7ia5\u21be{P,C},[([c3])]\u00b7p_C^(0,1),[([400016945_0006])]\u00b7p_P^(0,1)]"],
    ["IA-WSFs\u21be{c,p}", "IA-WSFs\u21be{c,p}", "model", {"p": "400016945_0006", "c": "c3"}, "[[([400016945_0006], [c3])]\u00b7ia5\u21be{P,C}]", "[[([400016945_0006], [c3])]\u00b7ia6]"],
    ["IA-WSFc", "IA-WSFc", "model", {"p": "400016945_0006", "c": "c3"}, "[[([400016945_0006], [c3])]\u00b7ia6]", "[[([c3])]\u00b7c3,[([400016945_0006])]\u00b7ofc0]"],
    ["315", null, "model", {"p": "400016945_0006"}, "[[([400016945_0006])]\u00b7ofc0]", "[[([400016945_0006])]\u00b7ia0,[([400016945_0006])]\u00b7ia10]"],
    ["IA-WCSc_0\u21be{o3}", "IA-WCSc\u21be{o3}", "log", {"o3": "o3"}, "[[([o3])]\u00b7p_O^(.0)]", "[[([o3])]\u00b7p_O^(0,1)]"],
    ["tau_IA-WSs_1", null, "log", {"c400016945_0006": "400016945_0006", "o3": "o3", "c3": "c3"}, "[[([c3])]\u00b7p_C^(0,1),[([c3])]\u00b7p_C^(1),[([o3])]\u00b7p_O^(0,1),[([400016945_0006])]\u00b7p_P^(0,1),[([400016945_0006])]\u00b7p_P^(1)]", "[[([c3])]\u00b7p_C^(.1),[([400016945_0006])]\u00b7p_P^(.1)]"],
    ["IA-WSs_1-IA-WSs", "IA-WSs", "synchronous", {"p": "400016945_0006", "c": "c3"}, "[[([c3])]\u00b7c3,[([400016945_0006])]\u00b7ia10,[([c3])]\u00b7p_C^(.1),[([400016945_0006])]\u00b7p_P^(.1)]", "[[([400016945_0006], [c3])]\u00b7ia11]"]
  ],
  "r": [
    [0, 1, 1, 1, 1, 1, 1, 1, 1, 1],
    [0, 0, 1, 1, 1, 1, 1, 1, 1, 1],
    [0, 0, 0, 1, 1, 1, 1, 1, 1, 1],
    [0, 0, 0, 0, 1, 1, 1, 0, 1, 1],
    [0, 0, 0, 0, 0, 1, 1, 0, 0, 1],
    [0, 0, 0, 0, 0, 0, 1, 0, 0, 1],
    [0, 0, 0, 0, 0, 0, 0, 0, 0, 1],
    [0, 0, 0, 0, 0, 0, 0, 0, 1, 1],
    [0, 0, 0, 0, 0, 0, 0, 0, 0, 1],
    [0, 0, 0, 0, 0, 0, 0, 0, 0, 0]
  ]
}