{
  "N": "./datasets/nets/omron_relaxed.json",
  "L": 15,
  "info": {
    "cost": 2005001,
    "visited": 523,
    "queued": 17697,
    "traversed": 17697,
    "lp_solved": 14136,
    "enabled_check": 2108,
    "duration": 162.88556718826294
  },
  "exact": true,
  "relaxed": true,
  "n_overflow": 2,
  "m_i": "[[([c1])]\u00b7c1,[([c2])]\u00b7c2,[([c7])]\u00b7c7,[([400016948_0002]),([400016948_0003])]\u00b7fc10,[([400016948_0001], [c6])]\u00b7fc11,[([400016948_0003])]\u00b7ia0,[([400016948_0003], [c3])]\u00b7ia11,[([o1])]\u00b7o1,[([o2])]\u00b7o2,[([400016948_0001], [c5], [o3])]\u00b7oa1,[([400016948_0002]),([400016948_0003])]\u00b7oa10,[([400016948_0002])]\u00b7ofc0,[([400016948_0003])]\u00b7ofc10,[([400016948_0002], [c4])]\u00b7ofc11,[([400016948_0001]),([400016948_0002]),([400016948_0003])]\u00b7p10]",
  "m_f": "[[([c1])]\u00b7c1,[([c2])]\u00b7c2,[([c7])]\u00b7c7,[([400016948_0002]),([400016948_0003])]\u00b7fc10,[([400016948_0001], [c6])]\u00b7fc11,[([400016948_0003], [c3], [o3])]\u00b7ia3,[([o1])]\u00b7o1,[([o2])]\u00b7o2,[([400016948_0002]),([400016948_0003])]\u00b7oa10,[([400016948_0001], [c5])]\u00b7oa5,[([400016948_0002])]\u00b7ofc0,[([400016948_0003])]\u00b7ofc10,[([400016948_0002], [c4])]\u00b7ofc11,[([400016948_0001]),([400016948_0002]),([400016948_0003])]\u00b7p10]",
  "M": [
    ["tau_OA-AP_4", null, "log", {"o3": "o3", "c5": "c5", "c400016948_0001": "400016948_0001"}, "[[([c5])]\u00b7p_C^(4),[([o3])]\u00b7p_O^(4),[([400016948_0001])]\u00b7p_P^(4)]", "[[([c5])]\u00b7p_C^(.4),[([o3])]\u00b7p_O^(.4),[([400016948_0001])]\u00b7p_P^(.4)]"],
    ["OA-AP_4-OA-AP", "OA-AP", "synchronous", {"o": "o3", "p": "400016948_0001", "c": "c5"}, "[[([400016948_0001], [c5], [o3])]\u00b7oa1,[([c5])]\u00b7p_C^(.4),[([o3])]\u00b7p_O^(.4),[([400016948_0001])]\u00b7p_P^(.4)]", "[[([400016948_0001], [c5], [o3])]\u00b7oa2,[([c5])]\u00b7p_C^(4,1),[([o3])]\u00b7p_O^(4,1),[([400016948_0001])]\u00b7p_P^(4,1)]"],
    ["tau_OA-Lf1_1", null, "log", {"o3": "o3", "c400016948_0001": "400016948_0001", "c5": "c5"}, "[[([c5])]\u00b7p_C^(1),[([c5])]\u00b7p_C^(4,1),[([o3])]\u00b7p_O^(1),[([o3])]\u00b7p_O^(4,1),[([400016948_0001])]\u00b7p_P^(1),[([400016948_0001])]\u00b7p_P^(4,1)]", "[[([c5])]\u00b7p_C^(.1),[([o3])]\u00b7p_O^(.1),[([400016948_0001])]\u00b7p_P^(.1)]"],
    ["OA-Lf1_1-OA-Lf1", "OA-Lf1", "synchronous", {"p": "400016948_0001", "c": "c5", "o": "o3"}, "[[([400016948_0001], [c5], [o3])]\u00b7oa2,[([c5])]\u00b7p_C^(.1),[([o3])]\u00b7p_O^(.1),[([400016948_0001])]\u00b7p_P^(.1)]", "[[([400016948_0001], [c5], [o3])]\u00b7oa3,[([c5])]\u00b7p_C^(1,3),[([o3])]\u00b7p_O^(1,3),[([400016948_0001])]\u00b7p_P^(1,3)]"],
    ["tau_IA-WSc_3", null, "log", {"c400016948_0003": "400016948_0003", "c400016948_0001": "400016948_0001", "c3": "c3", "o3": "o3", "c5": "c5"}, "[[([c5])]\u00b7p_C^(1,3),[([c3])]\u00b7p_C^(3),[([o3])]\u00b7p_O^(1,3),[([o3])]\u00b7p_O^(3),[([400016948_0001])]\u00b7p_P^(1,3),[([400016948_0003])]\u00b7p_P^(3)]", "[[([c3])]\u00b7p_C^(.3),[([o3])]\u00b7p_O^(.3),[([400016948_0003])]\u00b7p_P^(.3)]"],
    ["IA-WSc_3\u21be{c400016948_0003,c3}-IA-WSc\u21be{c,p}", "IA-WSc\u21be{c400016948_0003,c3}", "synchronous", {"p": "400016948_0003", "c": "c3"}, "[[([400016948_0003])]\u00b7ia0,[([400016948_0003], [c3])]\u00b7ia11,[([c3])]\u00b7p_C^(.3),[([400016948_0003])]\u00b7p_P^(.3)]", "[[([400016948_0003], [c3])]\u00b7ia1\u21be{P,C},[([c3])]\u00b7p_C^(3,0),[([400016948_0003])]\u00b7p_P^(3,0)]"],
    ["IA-WSc_3\u21be{o3}", "IA-WSc\u21be{o3}", "log", {"o3": "o3"}, "[[([o3])]\u00b7p_O^(.3)]", "[[([o3])]\u00b7p_O^(3,0)]"],
    ["tau_OA-STL_0", null, "log", {"o3": "o3", "c400016948_0003": "400016948_0003", "c5": "c5", "c3": "c3", "c400016948_0001": "400016948_0001"}, "[[([c5])]\u00b7p_C^(0),[([c3])]\u00b7p_C^(3,0),[([o3])]\u00b7p_O^(0),[([o3])]\u00b7p_O^(3,0),[([400016948_0001])]\u00b7p_P^(0),[([400016948_0003])]\u00b7p_P^(3,0)]", "[[([c5])]\u00b7p_C^(.0),[([o3])]\u00b7p_O^(.0),[([400016948_0001])]\u00b7p_P^(.0)]"],
    ["OA-STL_0-OA-STL", "OA-STL", "synchronous", {"c": "c5", "p": "400016948_0001", "o": "o3"}, "[[([400016948_0001], [c5], [o3])]\u00b7oa3,[([c5])]\u00b7p_C^(.0),[([o3])]\u00b7p_O^(.0),[([400016948_0001])]\u00b7p_P^(.0)]", "[[([400016948_0001], [c5], [o3])]\u00b7oa4,[([c5])]\u00b7p_C^(0,2),[([o3])]\u00b7p_O^(0,2),[([400016948_0001])]\u00b7p_P^(0,2)]"],
    ["tau_OA-WSFs_2", null, "log", {"c5": "c5", "c400016948_0001": "400016948_0001", "o3": "o3"}, "[[([c5])]\u00b7p_C^(0,2),[([c5])]\u00b7p_C^(2),[([o3])]\u00b7p_O^(0,2),[([o3])]\u00b7p_O^(2),[([400016948_0001])]\u00b7p_P^(0,2),[([400016948_0001])]\u00b7p_P^(2)]", "[[([c5])]\u00b7p_C^(.2),[([o3])]\u00b7p_O^(.2),[([400016948_0001])]\u00b7p_P^(.2)]"],
    ["OA-WSFs_2-OA-WSFs", "OA-WSFs", "synchronous", {"o": "o3", "c": "c5", "p": "400016948_0001"}, "[[([400016948_0001], [c5], [o3])]\u00b7oa4,[([c5])]\u00b7p_C^(.2),[([o3])]\u00b7p_O^(.2),[([400016948_0001])]\u00b7p_P^(.2)]", "[[([o3])]\u00b7o3,[([400016948_0001], [c5])]\u00b7oa5,[([c5])]\u00b7p_C^(2,5),[([o3])]\u00b7p_O^(2,5),[([400016948_0001])]\u00b7p_P^(2,5)]"],
    ["IA-WSc\u21be{o}", "IA-WSc\u21be{o}", "model", {"o": "o3"}, "[[([o3])]\u00b7o3]", "[[([o3])]\u00b7ia1\u21be{O}]"],
    ["t_create^", "ia1,{{P,C},{O}}", "model", {"o": "o3", "p": "400016948_0003", "c": "c3"}, "[[([o3])]\u00b7ia1\u21be{O},[([400016948_0003], [c3])]\u00b7ia1\u21be{P,C}]", "[[([400016948_0003], [c3], [o3])]\u00b7ia1]"],
    ["tau_IA-AP_5", null, "log", {"c3": "c3", "o3": "o3", "c400016948_0003": "400016948_0003", "c400016948_0001": "400016948_0001", "c5": "c5"}, "[[([c5])]\u00b7p_C^(2,5),[([c3])]\u00b7p_C^(5),[([o3])]\u00b7p_O^(2,5),[([o3])]\u00b7p_O^(5),[([400016948_0001])]\u00b7p_P^(2,5),[([400016948_0003])]\u00b7p_P^(5)]", "[[([c3])]\u00b7p_C^(.5),[([o3])]\u00b7p_O^(.5),[([400016948_0003])]\u00b7p_P^(.5)]"],
    ["IA-AP_5-IA-AP", "IA-AP", "synchronous", {"p": "400016948_0003", "o": "o3", "c": "c3"}, "[[([400016948_0003], [c3], [o3])]\u00b7ia1,[([c3])]\u00b7p_C^(.5),[([o3])]\u00b7p_O^(.5),[([400016948_0003])]\u00b7p_P^(.5)]", "[[([400016948_0003], [c3], [o3])]\u00b7ia2,[([c3])]\u00b7p_C^(5,6),[([o3])]\u00b7p_O^(5,6),[([400016948_0003])]\u00b7p_P^(5,6)]"],
    ["tau_IA-STL_6", null, "log", {"o3": "o3", "c400016948_0003": "400016948_0003", "c3": "c3"}, "[[([c3])]\u00b7p_C^(5,6),[([c3])]\u00b7p_C^(6),[([o3])]\u00b7p_O^(5,6),[([o3])]\u00b7p_O^(6),[([400016948_0003])]\u00b7p_P^(5,6),[([400016948_0003])]\u00b7p_P^(6)]", "[[([c3])]\u00b7p_C^(.6),[([o3])]\u00b7p_O^(.6),[([400016948_0003])]\u00b7p_P^(.6)]"],
    ["IA-STL_6-IA-STL", "IA-STL", "synchronous", {"o": "o3", "p": "400016948_0003", "c": "c3"}, "[[([400016948_0003], [c3], [o3])]\u00b7ia2,[([c3])]\u00b7p_C^(.6),[([o3])]\u00b7p_O^(.6),[([400016948_0003])]\u00b7p_P^(.6)]", "[[([400016948_0003], [c3], [o3])]\u00b7ia3]"]
  ],
  "r": [
    [0, 1, 1, 1, 1, 1, 1, 1, 1, 1, 1, 1, 1, 1, 1, 1, 1],
    [0, 0, 1, 1, 1, 1, 1, 1, 1, 1, 1, 1, 1, 1, 1, 1, 1],
    [0, 0, 0, 1, 1, 1, 1, 1, 1, 1, 1, 1, 1, 1, 1, 1, 1],
    [0, 0, 0, 0, 1, 1, 1, 1, 1, 1, 1, 1, 1, 1, 1, 1, 1],
    [0, 0, 0, 0, 0, 1, 1, 1, 1, 1, 1, 1, 1, 1, 1, 1, 1],
    [0, 0, 0, 0, 0, 0, 0, 1, 1, 1, 1, 1, 1, 1, 1, 1, 1],
    [0, 0, 0, 0, 0, 0, 0, 1, 1, 1, 1, 1, 1, 1, 1, 1, 1],
    [0, 0, 0, 0, 0, 0, 0, 0, 1, 1, 1, 1, 1, 1, 1, 1, 1],
    [0, 0, 0, 0, 0, 0, 0, 0, 0, 1, 1, 1, 1, 1, 1, 1, 1],
    [0, 0, 0, 0, 0, 0, 0, 0, 0, 0, 1, 1, 1, 1, 1, 1, 1],
    [0, 0, 0, 0, 0, 0, 0, 0, 0, 0, 0, 1, 1, 1, 1, 1, 1],
    [0, 0, 0, 0, 0, 0, 0, 0, 0, 0, 0, 0, 1, 0, 1, 1, 1],
    [0, 0, 0, 0, 0, 0, 0, 0, 0, 0, 0, 0, 0, 0, 1, 1, 1],
    [0, 0, 0, 0, 0, 0, 0, 0, 0, 0, 0, 0, 0, 0, 1, 1, 1],
    [0, 0, 0, 0, 0, 0, 0, 0, 0, 0, 0, 0, 0, 0, 0, 1, 1],
    [0, 0, 0, 0, 0, 0, 0, 0, 0, 0, 0, 0, 0, 0, 0, 0, 1],
    [0, 0, 0, 0, 0, 0, 0, 0, 0, 0, 0, 0, 0, 0, 0, 0, 0]
  ]
}