{
  "N": "./datasets/nets/omron_relaxed.json",
  "L": 28,
  "info": {
    "cost": 105000000,
    "visited": 15,
    "queued": 860,
    "traversed": 860,
    "lp_solved": 1,
    "enabled_check": 185,
    "duration": 8.598566055297852
  },
  "exact": true,
  "relaxed": true,
  "n_overflow": 2,
  "m_i": "[[([c1])]\u00b7c1,[([c2])]\u00b7c2,[([c4])]\u00b7c4,[([c5])]\u00b7c5,[([c6])]\u00b7c6,[([400017036_0003]),([400017036_0006]),([400017036_0007]),([400017036_0008]),([400017036_0009]),([400017036_0010]),([400017036_0011]),([400017037_0006]),([400017037_0007]),([400017037_0008]),([400017037_0009]),([400017037_0010]),([400017037_0011]),([400017037_0012]),([400017045_0001]),([400017045_0003]),([400017045_0004]),([400017045_0005]),([400017045_0006]),([400017045_0007]),([400017045_0008])]\u00b7f,[([400017045_0012])]\u00b7fc10,[([400017045_0012], [c3], [o3])]\u00b7ia3,[([o1])]\u00b7o1,[([o2])]\u00b7o2,[([400017045_0012])]\u00b7oa10,[([400017045_0012])]\u00b7ofc10,[([400017045_0012])]\u00b7p10,[([400017045_0009], [c7])]\u00b7p6]",
  "m_f": "[[([c1])]\u00b7c1,[([c2])]\u00b7c2,[([c5])]\u00b7c5,[([c6])]\u00b7c6,[([400017036_0003]),([400017036_0006]),([400017036_0007]),([400017036_0008]),([400017036_0009]),([400017036_0010]),([400017036_0011]),([400017037_0006]),([400017037_0007]),([400017037_0008]),([400017037_0009]),([400017037_0010]),([400017037_0011]),([400017037_0012]),([400017045_0001]),([400017045_0003]),([400017045_0004]),([400017045_0005]),([400017045_0006]),([400017045_0007]),([400017045_0008]),([400017045_0009])]\u00b7f,[([400017045_0012])]\u00b7fc10,[([400017045_0012])]\u00b7ia0,[([400017045_0012], [c3])]\u00b7ia11,[([o1])]\u00b7o1,[([o2])]\u00b7o2,[([o3])]\u00b7o3,[([400017045_0012])]\u00b7oa10,[([400017045_0012], [c4])]\u00b7ofc11,[([400017045_0012], [c7])]\u00b7p11]",
  "M": [
    ["tau_IA-WCSs_5", null, "log", {"c400017045_0012": "400017045_0012", "o3": "o3", "c3": "c3"}, "[[([c3])]\u00b7p_C^(5),[([o3])]\u00b7p_O^(5),[([400017045_0012])]\u00b7p_P^(5)]", "[[([c3])]\u00b7p_C^(.5),[([o3])]\u00b7p_O^(.5),[([400017045_0012])]\u00b7p_P^(.5)]"],
    ["IA-WCSs_5-IA-WCSs", "IA-WCSs", "synchronous", {"o": "o3", "c": "c3", "p": "400017045_0012"}, "[[([400017045_0012], [c3], [o3])]\u00b7ia3,[([c3])]\u00b7p_C^(.5),[([o3])]\u00b7p_O^(.5),[([400017045_0012])]\u00b7p_P^(.5)]", "[[([400017045_0012], [c3])]\u00b7ia4,[([o3])]\u00b7o3,[([c3])]\u00b7p_C^(5,4),[([o3])]\u00b7p_O^(5,4),[([400017045_0012])]\u00b7p_P^(5,4)]"],
    ["tau_IA-WCSc_4", null, "log", {"c3": "c3", "o3": "o3", "c400017045_0012": "400017045_0012"}, "[[([c3])]\u00b7p_C^(4),[([c3])]\u00b7p_C^(5,4),[([o3])]\u00b7p_O^(4),[([o3])]\u00b7p_O^(5,4),[([400017045_0012])]\u00b7p_P^(4),[([400017045_0012])]\u00b7p_P^(5,4)]", "[[([c3])]\u00b7p_C^(.4),[([o3])]\u00b7p_O^(.4),[([400017045_0012])]\u00b7p_P^(.4)]"],
    ["IA-WCSc_4-IA-WCSc", "IA-WCSc", "synchronous", {"c": "c3", "o": "o3", "p": "400017045_0012"}, "[[([400017045_0012], [c3])]\u00b7ia4,[([o3])]\u00b7o3,[([c3])]\u00b7p_C^(.4),[([o3])]\u00b7p_O^(.4),[([400017045_0012])]\u00b7p_P^(.4)]", "[[([400017045_0012], [c3], [o3])]\u00b7ia5,[([c3])]\u00b7p_C^(4,1),[([o3])]\u00b7p_O^(4,1),[([400017045_0012])]\u00b7p_P^(4,1)]"],
    ["IA-WSFs", "IA-WSFs", "model", {"p": "400017045_0012", "c": "c3", "o": "o3"}, "[[([400017045_0012], [c3], [o3])]\u00b7ia5]", "[[([400017045_0012], [c3])]\u00b7ia6,[([o3])]\u00b7o3]"],
    ["IA-WSFc", "IA-WSFc", "model", {"p": "400017045_0012", "c": "c3"}, "[[([400017045_0012], [c3])]\u00b7ia6]", "[[([c3])]\u00b7c3,[([400017045_0012])]\u00b7ofc0]"],
    ["315", null, "model", {"p": "400017045_0012"}, "[[([400017045_0012])]\u00b7ofc0]", "[[([400017045_0012])]\u00b7ia0,[([400017045_0012])]\u00b7ia10]"],
    ["tau_P-WSFc_1", null, "log", {"c400017045_0012": "400017045_0012", "c400017045_0009": "400017045_0009", "c7": "c7", "o3": "o3", "c3": "c3"}, "[[([c7])]\u00b7p_C^(1),[([c3])]\u00b7p_C^(4,1),[([o3])]\u00b7p_O^(4,1),[([400017045_0009])]\u00b7p_P^(1),[([400017045_0012])]\u00b7p_P^(4,1)]", "[[([c7])]\u00b7p_C^(.1),[([400017045_0009])]\u00b7p_P^(.1)]"],
    ["P-WSFc_1-P-WSFc", "P-WSFc", "synchronous", {"p": "400017045_0009", "c": "c7"}, "[[([400017045_0009], [c7])]\u00b7p6,[([c7])]\u00b7p_C^(.1),[([400017045_0009])]\u00b7p_P^(.1)]", "[[([c7])]\u00b7c7,[([400017045_0009])]\u00b7f,[([c7])]\u00b7p_C^(1,3),[([400017045_0009])]\u00b7p_P^(1,3)]"],
    ["tau_OFC-WPPs_3", null, "log", {"c7": "c7", "c4": "c4", "c400017045_0009": "400017045_0009", "c400017045_0012": "400017045_0012"}, "[[([c7])]\u00b7p_C^(1,3),[([c4])]\u00b7p_C^(3),[([400017045_0009])]\u00b7p_P^(1,3),[([400017045_0012])]\u00b7p_P^(3)]", "[[([c4])]\u00b7p_C^(.3),[([400017045_0012])]\u00b7p_P^(.3)]"],
    ["OFC-WPPs_3-OFC-WPPs", "OFC-WPPs", "synchronous", {"c": "c4", "p": "400017045_0012"}, "[[([c4])]\u00b7c4,[([400017045_0012])]\u00b7ofc10,[([c4])]\u00b7p_C^(.3),[([400017045_0012])]\u00b7p_P^(.3)]", "[[([400017045_0012], [c4])]\u00b7ofc11,[([c4])]\u00b7p_C^(3,0),[([400017045_0012])]\u00b7p_P^(3,0)]"],
    ["tau_P-WSs_0", null, "log", {"c400017045_0012": "400017045_0012", "c4": "c4", "c7": "c7"}, "[[([c7])]\u00b7p_C^(0),[([c4])]\u00b7p_C^(3,0),[([400017045_0012])]\u00b7p_P^(0),[([400017045_0012])]\u00b7p_P^(3,0)]", "[[([c7])]\u00b7p_C^(.0),[([400017045_0012])]\u00b7p_P^(.0)]"],
    ["P-WSs_0-P-WSs", "P-WSs", "synchronous", {"p": "400017045_0012", "c": "c7"}, "[[([c7])]\u00b7c7,[([400017045_0012])]\u00b7p10,[([c7])]\u00b7p_C^(.0),[([400017045_0012])]\u00b7p_P^(.0)]", "[[([400017045_0012], [c7])]\u00b7p11,[([c7])]\u00b7p_C^(0,2),[([400017045_0012])]\u00b7p_P^(0,2)]"],
    ["tau_IA-WSs_2", null, "log", {"c400017045_0012": "400017045_0012", "c3": "c3", "c7": "c7"}, "[[([c7])]\u00b7p_C^(0,2),[([c3])]\u00b7p_C^(2),[([400017045_0012])]\u00b7p_P^(0,2),[([400017045_0012])]\u00b7p_P^(2)]", "[[([c3])]\u00b7p_C^(.2),[([400017045_0012])]\u00b7p_P^(.2)]"],
    ["IA-WSs_2-IA-WSs", "IA-WSs", "synchronous", {"c": "c3", "p": "400017045_0012"}, "[[([c3])]\u00b7c3,[([400017045_0012])]\u00b7ia10,[([c3])]\u00b7p_C^(.2),[([400017045_0012])]\u00b7p_P^(.2)]", "[[([400017045_0012], [c3])]\u00b7ia11]"]
  ],
  "r": [
    [0, 1, 1, 1, 1, 1, 1, 1, 1, 1, 1, 1, 1, 1, 1],
    [0, 0, 1, 1, 1, 1, 1, 1, 1, 1, 1, 1, 1, 1, 1],
    [0, 0, 0, 1, 1, 1, 1, 1, 1, 1, 1, 1, 1, 1, 1],
    [0, 0, 0, 0, 1, 1, 1, 1, 1, 1, 1, 1, 1, 1, 1],
    [0, 0, 0, 0, 0, 1, 1, 0, 0, 0, 0, 0, 0, 0, 1],
    [0, 0, 0, 0, 0, 0, 1, 0, 0, 0, 0, 0, 0, 0, 1],
    [0, 0, 0, 0, 0, 0, 0, 0, 0, 0, 0, 0, 0, 0, 1],
    [0, 0, 0, 0, 0, 0, 0, 0, 1, 1, 1, 1, 1, 1, 1],
    [0, 0, 0, 0, 0, 0, 0, 0, 0, 1, 1, 1, 1, 1, 1],
    [0, 0, 0, 0, 0, 0, 0, 0, 0, 0, 1, 1, 1, 1, 1],
    [0, 0, 0, 0, 0, 0, 0, 0, 0, 0, 0, 1, 1, 1, 1],
    [0, 0, 0, 0, 0, 0, 0, 0, 0, 0, 0, 0, 1, 1, 1],
    [0, 0, 0, 0, 0, 0, 0, 0, 0, 0, 0, 0, 0, 1, 1],
    [0, 0, 0, 0, 0, 0, 0, 0, 0, 0, 0, 0, 0, 0, 1],
    [0, 0, 0, 0, 0, 0, 0, 0, 0, 0, 0, 0, 0, 0, 0]
  ]
}