{
  "N": "./datasets/nets/delivery_extended_relaxed.json",
  "L": "./datasets/logs/delivery_extended/per_deviation/log_missing_event_load.json",
  "info": {
    "cost": 6008000,
    "visited": 42,
    "queued": 1025,
    "traversed": 1025,
    "lp_solved": 100,
    "enabled_check": 856,
    "duration": 5.3367650508880615
  },
  "exact": true,
  "relaxed": true,
  "m_i": "[[([d1]),([d2])]\u00b7p_d_on,[2\u00b7([v1])]\u00b7p_v_ava,[4\u00b7([w1]),5\u00b7([w2])]\u00b7p_w,[([e1])]\u00b7p_we,[([y])]\u00b7q1,[([y])]\u00b7q2,[([y])]\u00b7q3]",
  "m_f": "[[([d1]),([d2])]\u00b7p_d_on,[2\u00b7([v1])]\u00b7p_v_ava,[4\u00b7([w1]),5\u00b7([w2])]\u00b7p_w,[([e1])]\u00b7p_we,[([y])]\u00b7q1,[([y])]\u00b7q2,[([y])]\u00b7q3]",
  "M": [
    ["tau_create_0", null, "log", {"p_001": "p_001"}, "[[([p_001])]\u00b7p_P^(0)]", "[[([p_001])]\u00b7p_P^(.0)]"],
    ["create_0-create", "create", "synchronous", {"p": "p_001"}, "[[([p_001])]\u00b7p_P^(.0)]", "[[([p_001])]\u00b7p1,[([p_001])]\u00b7p_P^(0,1)]"],
    ["tau_order depot_1", null, "log", {"y": "y", "p_001": "p_001"}, "[[([p_001])]\u00b7p_P^(0,1),[([p_001])]\u00b7p_P^(1),[([y])]\u00b7p_Y^(1)]", "[[([p_001])]\u00b7p_P^(.1),[([y])]\u00b7p_Y^(.1)]"],
    ["order depot_1-order depot", "order depot", "synchronous", {"p": "p_001", "y": "y"}, "[[([p_001])]\u00b7p1,[([p_001])]\u00b7p_P^(.1),[([y])]\u00b7p_Y^(.1),[([y])]\u00b7q1]", "[[([p_001])]\u00b7p12,[([p_001])]\u00b7p2,[([p_001])]\u00b7p8,[([p_001])]\u00b7p_P^(1,2),[([y])]\u00b7p_Y^(1,2),[([p_001], [y])]\u00b7q1_]"],
    ["tau_queue1", null, "model", {"y": "y", "p": "p_001"}, "[[([p_001], [y])]\u00b7q1_,[([y])]\u00b7q2]", "[[([y])]\u00b7q1,[([p_001], [y])]\u00b7q2_]"],
    ["tau_queue2", null, "model", {"p": "p_001", "y": "y"}, "[[([p_001], [y])]\u00b7q2_,[([y])]\u00b7q3]", "[[([y])]\u00b7q2,[([p_001], [y])]\u00b7q3_]"],
    ["tau_register depot_2", null, "log", {"p_001": "p_001", "w2": "w2", "y": "y"}, "[[([p_001])]\u00b7p_P^(1,2),[([p_001])]\u00b7p_P^(2),[([w2])]\u00b7p_W^(2),[([y])]\u00b7p_Y^(1,2)]", "[[([p_001])]\u00b7p_P^(.2),[([w2])]\u00b7p_W^(.2)]"],
    ["register depot_2-register depot", "register depot", "synchronous", {"w": "w2", "p": "p_001"}, "[[([p_001])]\u00b7p8,[([p_001])]\u00b7p_P^(.2),[([w2])]\u00b7p_W^(.2),[([w2])]\u00b7p_w]", "[[([p_001], [w2])]\u00b7p7,[([p_001])]\u00b7p_P^(2,3),[([w2])]\u00b7p_W^(2,3),[([w2])]\u00b7p_w]"],
    ["tau_create_3", null, "log", {"p_001": "p_001", "w2": "w2", "p_002": "p_002"}, "[[([p_001])]\u00b7p_P^(2,3),[([p_002])]\u00b7p_P^(3),[([w2])]\u00b7p_W^(2,3)]", "[[([p_002])]\u00b7p_P^(.3)]"],
    ["create_3-create", "create", "synchronous", {"p": "p_002"}, "[[([p_002])]\u00b7p_P^(.3)]", "[[([p_002])]\u00b7p1,[([p_002])]\u00b7p_P^(3,4)]"],
    ["tau_order depot_4", null, "log", {"y": "y", "p_002": "p_002"}, "[[([p_002])]\u00b7p_P^(3,4),[([p_002])]\u00b7p_P^(4),[([y])]\u00b7p_Y^(4)]", "[[([p_002])]\u00b7p_P^(.4),[([y])]\u00b7p_Y^(.4)]"],
    ["order depot_4-order depot", "order depot", "synchronous", {"y": "y", "p": "p_002"}, "[[([p_002])]\u00b7p1,[([p_002])]\u00b7p_P^(.4),[([y])]\u00b7p_Y^(.4),[([y])]\u00b7q1]", "[[([p_002])]\u00b7p12,[([p_002])]\u00b7p2,[([p_002])]\u00b7p8,[([p_002])]\u00b7p_P^(4,5),[([y])]\u00b7p_Y^(4,5),[([p_002], [y])]\u00b7q1_]"],
    ["tau_queue1", null, "model", {"y": "y", "p": "p_002"}, "[[([p_002], [y])]\u00b7q1_,[([y])]\u00b7q2]", "[[([y])]\u00b7q1,[([p_002], [y])]\u00b7q2_]"],
    ["tau_register depot_5", null, "log", {"p_002": "p_002", "w2": "w2", "y": "y"}, "[[([p_002])]\u00b7p_P^(4,5),[([p_002])]\u00b7p_P^(5),[([w2])]\u00b7p_W^(5),[([y])]\u00b7p_Y^(4,5)]", "[[([p_002])]\u00b7p_P^(.5),[([w2])]\u00b7p_W^(.5)]"],
    ["register depot_5-register depot", "register depot", "synchronous", {"p": "p_002", "w": "w2"}, "[[([p_002])]\u00b7p8,[([p_002])]\u00b7p_P^(.5),[([w2])]\u00b7p_W^(.5),[([w2])]\u00b7p_w]", "[[([p_002], [w2])]\u00b7p7,[([p_002])]\u00b7p_P^(5,6),[([w2])]\u00b7p_W^(5,6),[([w2])]\u00b7p_w]"],
    ["tau_pick package_6", null, "log", {"p_001": "p_001", "w2": "w2", "p_002": "p_002", "y": "y", "e1": "e1"}, "[[([e1])]\u00b7p_E^(6),[([p_002])]\u00b7p_P^(5,6),[([p_001])]\u00b7p_P^(6),[([w2])]\u00b7p_W^(5,6),[([y])]\u00b7p_Y^(6)]", "[[([e1])]\u00b7p_E^(.6),[([p_001])]\u00b7p_P^(.6),[([y])]\u00b7p_Y^(.6)]"],
    ["pick package_6-pick package", "pick package", "synchronous", {"p": "p_001", "e": "e1", "y": "y"}, "[[([p_001])]\u00b7p2,[([e1])]\u00b7p_E^(.6),[([p_001])]\u00b7p_P^(.6),[([y])]\u00b7p_Y^(.6),[([e1])]\u00b7p_we,[([p_001], [y])]\u00b7q3_]", "[[([p_001], [e1])]\u00b7p3,[([e1])]\u00b7p_E^(6,7),[([p_001])]\u00b7p_P^(6,7),[([y])]\u00b7p_Y^(6,7),[([y])]\u00b7q3]"],
    ["load in truck", "load in truck", "model", {"v": "v1", "p": "p_001", "e": "e1"}, "[[([p_001], [e1])]\u00b7p3,[([v1])]\u00b7p_v_ava]", "[[([p_001], [v1])]\u00b7p4,[([p_001], [v1])]\u00b7p_v_occ,[([v1])]\u00b7p_v_occ_v,[([e1])]\u00b7p_we]"],
    ["tau_queue2", null, "model", {"p": "p_002", "y": "y"}, "[[([p_002], [y])]\u00b7q2_,[([y])]\u00b7q3]", "[[([y])]\u00b7q2,[([p_002], [y])]\u00b7q3_]"],
    ["tau_pick package_7", null, "log", {"e1": "e1", "p_001": "p_001", "y": "y", "p_002": "p_002"}, "[[([e1])]\u00b7p_E^(6,7),[([e1])]\u00b7p_E^(7),[([p_001])]\u00b7p_P^(6,7),[([p_002])]\u00b7p_P^(7),[([y])]\u00b7p_Y^(6,7),[([y])]\u00b7p_Y^(7)]", "[[([e1])]\u00b7p_E^(.7),[([p_002])]\u00b7p_P^(.7),[([y])]\u00b7p_Y^(.7)]"],
    ["pick package_7-pick package", "pick package", "synchronous", {"y": "y", "e": "e1", "p": "p_002"}, "[[([p_002])]\u00b7p2,[([e1])]\u00b7p_E^(.7),[([p_002])]\u00b7p_P^(.7),[([y])]\u00b7p_Y^(.7),[([e1])]\u00b7p_we,[([p_002], [y])]\u00b7q3_]", "[[([p_002], [e1])]\u00b7p3,[([e1])]\u00b7p_E^(7,8),[([p_002])]\u00b7p_P^(7,8),[([y])]\u00b7p_Y^(7,8),[([y])]\u00b7q3]"],
    ["load in truck", "load in truck", "model", {"v": "v1", "p": "p_002", "e": "e1"}, "[[([p_002], [e1])]\u00b7p3,[([v1])]\u00b7p_v_ava]", "[[([p_002], [v1])]\u00b7p4,[([p_002], [v1])]\u00b7p_v_occ,[([v1])]\u00b7p_v_occ_v,[([e1])]\u00b7p_we]"],
    ["tau_d_1", null, "model", {"d": "d1", "p": "p_001", "v": "v1"}, "[[([p_001], [v1])]\u00b7p4,[([d1])]\u00b7p_d_on]", "[[([p_001], [d1])]\u00b7p6,[([v1], [d1])]\u00b7p_v_d,[([v1])]\u00b7p_v_transit]"],
    ["tau_deliver depot_8", null, "log", {"p_001": "p_001", "y": "y", "d1": "d1", "v1": "v1", "e1": "e1", "w2": "w2", "p_002": "p_002"}, "[[([d1])]\u00b7p_D^(8),[([e1])]\u00b7p_E^(7,8),[([p_002])]\u00b7p_P^(7,8),[([p_001])]\u00b7p_P^(8),[([v1])]\u00b7p_V^(8),[([w2])]\u00b7p_W^(8),[([y])]\u00b7p_Y^(7,8)]", "[[([d1])]\u00b7p_D^(.8),[([p_001])]\u00b7p_P^(.8),[([v1])]\u00b7p_V^(.8),[([w2])]\u00b7p_W^(.8)]"],
    ["deliver depot_8-deliver depot", "deliver depot", "synchronous", {"w": "w2", "p": "p_001", "v": "v1", "d": "d1"}, "[[([p_001])]\u00b7p12,[([p_001], [d1])]\u00b7p6,[([p_001], [w2])]\u00b7p7,[([d1])]\u00b7p_D^(.8),[([p_001])]\u00b7p_P^(.8),[([v1])]\u00b7p_V^(.8),[([w2])]\u00b7p_W^(.8),[([p_001], [v1])]\u00b7p_v_occ,[([v1])]\u00b7p_v_occ_v,[([w2])]\u00b7p_w]", "[[([p_001], [w2])]\u00b7p9,[([d1])]\u00b7p_D^(8,9),[([p_001])]\u00b7p_P^(8,9),[([v1])]\u00b7p_V^(8,9),[([w2])]\u00b7p_W^(8,9),[([d1])]\u00b7p_d_on,[([v1])]\u00b7p_v_free,[([v1])]\u00b7p_v_free_imm]"],
    ["tau_deliver depot_9", null, "log", {"w2": "w2", "d1": "d1", "p_001": "p_001", "p_002": "p_002", "v1": "v1"}, "[[([d1])]\u00b7p_D^(8,9),[([d1])]\u00b7p_D^(9),[([p_001])]\u00b7p_P^(8,9),[([p_002])]\u00b7p_P^(9),[([v1])]\u00b7p_V^(8,9),[([v1])]\u00b7p_V^(9),[([w2])]\u00b7p_W^(8,9),[([w2])]\u00b7p_W^(9)]", "[[([d1])]\u00b7p_D^(.9),[([p_002])]\u00b7p_P^(.9),[([v1])]\u00b7p_V^(.9),[([w2])]\u00b7p_W^(.9)]"],
    ["tau_d_2", null, "model", {"p": "p_002", "v": "v1", "d": "d1"}, "[[([p_002], [v1])]\u00b7p4,[([d1])]\u00b7p_d_on,[([v1], [d1])]\u00b7p_v_d,[([v1])]\u00b7p_v_transit]", "[[([p_002], [d1])]\u00b7p6,[2\u00b7([v1], [d1])]\u00b7p_v_d,[2\u00b7([v1])]\u00b7p_v_transit]"],
    ["deliver depot_9-deliver depot", "deliver depot", "synchronous", {"w": "w2", "d": "d1", "p": "p_002", "v": "v1"}, "[[([p_002])]\u00b7p12,[([p_002], [d1])]\u00b7p6,[([p_002], [w2])]\u00b7p7,[([d1])]\u00b7p_D^(.9),[([p_002])]\u00b7p_P^(.9),[([v1])]\u00b7p_V^(.9),[([w2])]\u00b7p_W^(.9),[([p_002], [v1])]\u00b7p_v_occ,[([v1])]\u00b7p_v_occ_v,[([w2])]\u00b7p_w]", "[[([p_002], [w2])]\u00b7p9,[([d1])]\u00b7p_D^(9,10),[([p_002])]\u00b7p_P^(9,10),[([v1])]\u00b7p_V^(9,10),[([w2])]\u00b7p_W^(9,10),[([d1])]\u00b7p_d_on,[([v1])]\u00b7p_v_free,[([v1])]\u00b7p_v_free_imm]"],
    ["tau_free", null, "model", {"v": "v1", "d": "d1"}, "[[([v1], [d1])]\u00b7p_v_d,[([v1])]\u00b7p_v_free,[([v1])]\u00b7p_v_free_imm,[([v1])]\u00b7p_v_transit]", "[[([v1])]\u00b7p_v_ava]"],
    ["tau_free", null, "model", {"v": "v1", "d": "d1"}, "[[([v1], [d1])]\u00b7p_v_d,[([v1])]\u00b7p_v_free,[([v1])]\u00b7p_v_free_imm,[([v1])]\u00b7p_v_transit]", "[[([v1])]\u00b7p_v_ava]"],
    ["tau_collect_10", null, "log", {"d1": "d1", "w2": "w2", "v1": "v1", "p_002": "p_002"}, "[[([d1])]\u00b7p_D^(9,10),[([p_002])]\u00b7p_P^(10),[([p_002])]\u00b7p_P^(9,10),[([v1])]\u00b7p_V^(9,10),[([w2])]\u00b7p_W^(10),[([w2])]\u00b7p_W^(9,10)]", "[[([p_002])]\u00b7p_P^(.10),[([w2])]\u00b7p_W^(.10)]"],
    ["collect_10-collect", "collect", "synchronous", {"w": "w2", "p": "p_002"}, "[[([p_002], [w2])]\u00b7p9,[([p_002])]\u00b7p_P^(.10),[([w2])]\u00b7p_W^(.10)]", "[[([p_002])]\u00b7p10,[([p_002])]\u00b7p_P^(10,11),[([w2])]\u00b7p_W^(10,11),[([w2])]\u00b7p_w]"],
    ["tau_destroy_11", null, "log", {"w2": "w2", "p_002": "p_002"}, "[[([p_002])]\u00b7p_P^(10,11),[([p_002])]\u00b7p_P^(11),[([w2])]\u00b7p_W^(10,11)]", "[[([p_002])]\u00b7p_P^(.11)]"],
    ["destroy_11-destroy", "destroy", "synchronous", {"p": "p_002"}, "[[([p_002])]\u00b7p10,[([p_002])]\u00b7p_P^(.11)]", "[[([p_002])]\u00b7p_P^(11,12)]"],
    ["tau_collect_12", null, "log", {"w2": "w2", "p_002": "p_002", "p_001": "p_001"}, "[[([p_002])]\u00b7p_P^(11,12),[([p_001])]\u00b7p_P^(12),[([w2])]\u00b7p_W^(12)]", "[[([p_001])]\u00b7p_P^(.12),[([w2])]\u00b7p_W^(.12)]"],
    ["collect_12-collect", "collect", "synchronous", {"w": "w2", "p": "p_001"}, "[[([p_001], [w2])]\u00b7p9,[([p_001])]\u00b7p_P^(.12),[([w2])]\u00b7p_W^(.12)]", "[[([p_001])]\u00b7p10,[([p_001])]\u00b7p_P^(12,13),[([w2])]\u00b7p_W^(12,13),[([w2])]\u00b7p_w]"],
    ["tau_destroy_13", null, "log", {"p_001": "p_001", "w2": "w2"}, "[[([p_001])]\u00b7p_P^(12,13),[([p_001])]\u00b7p_P^(13),[([w2])]\u00b7p_W^(12,13)]", "[[([p_001])]\u00b7p_P^(.13)]"],
    ["destroy_13-destroy", "destroy", "synchronous", {"p": "p_001"}, "[[([p_001])]\u00b7p10,[([p_001])]\u00b7p_P^(.13)]", "[]"]
  ],
  "r": [
    [0, 1, 1, 1, 1, 1, 1, 1, 1, 1, 1, 1, 1, 1, 1, 1, 1, 1, 1, 1, 1, 1, 1, 1, 1, 1, 1, 1, 1, 1, 1, 1, 1, 1, 1, 1, 1, 1],
    [0, 0, 1, 1, 1, 1, 1, 1, 1, 1, 1, 1, 1, 1, 1, 1, 1, 1, 1, 1, 1, 1, 1, 1, 1, 1, 1, 1, 1, 1, 1, 1, 1, 1, 1, 1, 1, 1],
    [0, 0, 0, 1, 1, 1, 1, 1, 1, 1, 1, 1, 1, 1, 1, 1, 1, 1, 1, 1, 1, 1, 1, 1, 1, 1, 1, 1, 1, 1, 1, 1, 1, 1, 1, 1, 1, 1],
    [0, 0, 0, 0, 1, 1, 1, 1, 1, 1, 1, 1, 1, 1, 1, 1, 1, 1, 1, 1, 1, 1, 1, 1, 1, 1, 1, 1, 1, 1, 1, 1, 1, 1, 1, 1, 1, 1],
    [0, 0, 0, 0, 0, 1, 0, 0, 0, 0, 0, 1, 1, 1, 1, 1, 1, 1, 1, 1, 1, 1, 1, 1, 1, 1, 1, 1, 1, 1, 1, 1, 1, 1, 1, 1, 1, 1],
    [0, 0, 0, 0, 0, 0, 0, 0, 0, 0, 0, 0, 1, 0, 0, 0, 1, 1, 1, 1, 1, 1, 1, 1, 1, 1, 1, 1, 1, 1, 1, 1, 1, 1, 1, 1, 1, 1],
    [0, 0, 0, 0, 0, 0, 0, 1, 1, 1, 1, 1, 1, 1, 1, 1, 1, 1, 1, 1, 1, 1, 1, 1, 1, 1, 1, 1, 1, 1, 1, 1, 1, 1, 1, 1, 1, 1],
    [0, 0, 0, 0, 0, 0, 0, 0, 1, 1, 1, 1, 1, 1, 1, 1, 1, 1, 1, 1, 1, 1, 1, 1, 1, 1, 1, 1, 1, 1, 1, 1, 1, 1, 1, 1, 1, 1],
    [0, 0, 0, 0, 0, 0, 0, 0, 0, 1, 1, 1, 1, 1, 1, 1, 1, 1, 1, 1, 1, 1, 1, 1, 1, 1, 1, 1, 1, 1, 1, 1, 1, 1, 1, 1, 1, 1],
    [0, 0, 0, 0, 0, 0, 0, 0, 0, 0, 1, 1, 1, 1, 1, 1, 1, 1, 1, 1, 1, 1, 1, 1, 1, 1, 1, 1, 1, 1, 1, 1, 1, 1, 1, 1, 1, 1],
    [0, 0, 0, 0, 0, 0, 0, 0, 0, 0, 0, 1, 1, 1, 1, 1, 1, 1, 1, 1, 1, 1, 1, 1, 1, 1, 1, 1, 1, 1, 1, 1, 1, 1, 1, 1, 1, 1],
    [0, 0, 0, 0, 0, 0, 0, 0, 0, 0, 0, 0, 1, 1, 1, 1, 1, 1, 1, 1, 1, 1, 1, 1, 1, 1, 1, 1, 1, 1, 1, 1, 1, 1, 1, 1, 1, 1],
    [0, 0, 0, 0, 0, 0, 0, 0, 0, 0, 0, 0, 0, 0, 0, 0, 0, 0, 1, 0, 1, 1, 1, 1, 1, 1, 1, 1, 1, 1, 1, 1, 1, 1, 1, 1, 1, 1],
    [0, 0, 0, 0, 0, 0, 0, 0, 0, 0, 0, 0, 0, 0, 1, 1, 1, 1, 1, 1, 1, 1, 1, 1, 1, 1, 1, 1, 1, 1, 1, 1, 1, 1, 1, 1, 1, 1],
    [0, 0, 0, 0, 0, 0, 0, 0, 0, 0, 0, 0, 0, 0, 0, 1, 1, 1, 1, 1, 1, 1, 1, 1, 1, 1, 1, 1, 1, 1, 1, 1, 1, 1, 1, 1, 1, 1],
    [0, 0, 0, 0, 0, 0, 0, 0, 0, 0, 0, 0, 0, 0, 0, 0, 1, 1, 1, 1, 1, 1, 1, 1, 1, 1, 1, 1, 1, 1, 1, 1, 1, 1, 1, 1, 1, 1],
    [0, 0, 0, 0, 0, 0, 0, 0, 0, 0, 0, 0, 0, 0, 0, 0, 0, 1, 1, 1, 1, 1, 1, 1, 1, 1, 1, 1, 1, 1, 1, 1, 1, 1, 1, 1, 1, 1],
    [0, 0, 0, 0, 0, 0, 0, 0, 0, 0, 0, 0, 0, 0, 0, 0, 0, 0, 0, 0, 1, 1, 1, 1, 1, 1, 1, 1, 1, 1, 1, 1, 1, 1, 1, 1, 1, 1],
    [0, 0, 0, 0, 0, 0, 0, 0, 0, 0, 0, 0, 0, 0, 0, 0, 0, 0, 0, 0, 1, 1, 1, 1, 1, 1, 1, 1, 1, 1, 1, 1, 1, 1, 1, 1, 1, 1],
    [0, 0, 0, 0, 0, 0, 0, 0, 0, 0, 0, 0, 0, 0, 0, 0, 0, 0, 0, 0, 1, 1, 1, 1, 1, 1, 1, 1, 1, 1, 1, 1, 1, 1, 1, 1, 1, 1],
    [0, 0, 0, 0, 0, 0, 0, 0, 0, 0, 0, 0, 0, 0, 0, 0, 0, 0, 0, 0, 0, 1, 1, 1, 1, 1, 1, 1, 1, 1, 1, 1, 1, 1, 1, 1, 1, 1],
    [0, 0, 0, 0, 0, 0, 0, 0, 0, 0, 0, 0, 0, 0, 0, 0, 0, 0, 0, 0, 0, 0, 1, 0, 1, 1, 1, 1, 1, 1, 1, 1, 1, 1, 1, 1, 1, 1],
    [0, 0, 0, 0, 0, 0, 0, 0, 0, 0, 0, 0, 0, 0, 0, 0, 0, 0, 0, 0, 0, 0, 0, 0, 1, 1, 1, 1, 1, 1, 1, 1, 1, 1, 1, 1, 1, 1],
    [0, 0, 0, 0, 0, 0, 0, 0, 0, 0, 0, 0, 0, 0, 0, 0, 0, 0, 0, 0, 0, 0, 0, 0, 1, 1, 1, 1, 1, 1, 1, 1, 1, 1, 1, 1, 1, 1],
    [0, 0, 0, 0, 0, 0, 0, 0, 0, 0, 0, 0, 0, 0, 0, 0, 0, 0, 0, 0, 0, 0, 0, 0, 0, 1, 1, 1, 1, 1, 1, 1, 1, 1, 1, 1, 1, 1],
    [0, 0, 0, 0, 0, 0, 0, 0, 0, 0, 0, 0, 0, 0, 0, 0, 0, 0, 0, 0, 0, 0, 0, 0, 0, 0, 0, 1, 1, 1, 1, 1, 1, 1, 1, 1, 1, 1],
    [0, 0, 0, 0, 0, 0, 0, 0, 0, 0, 0, 0, 0, 0, 0, 0, 0, 0, 0, 0, 0, 0, 0, 0, 0, 0, 0, 1, 1, 1, 1, 1, 1, 1, 1, 1, 1, 1],
    [0, 0, 0, 0, 0, 0, 0, 0, 0, 0, 0, 0, 0, 0, 0, 0, 0, 0, 0, 0, 0, 0, 0, 0, 0, 0, 0, 0, 1, 1, 1, 1, 1, 1, 1, 1, 1, 1],
    [0, 0, 0, 0, 0, 0, 0, 0, 0, 0, 0, 0, 0, 0, 0, 0, 0, 0, 0, 0, 0, 0, 0, 0, 0, 0, 0, 0, 0, 0, 0, 0, 0, 0, 0, 0, 0, 0],
    [0, 0, 0, 0, 0, 0, 0, 0, 0, 0, 0, 0, 0, 0, 0, 0, 0, 0, 0, 0, 0, 0, 0, 0, 0, 0, 0, 0, 0, 0, 0, 0, 0, 0, 0, 0, 0, 0],
    [0, 0, 0, 0, 0, 0, 0, 0, 0, 0, 0, 0, 0, 0, 0, 0, 0, 0, 0, 0, 0, 0, 0, 0, 0, 0, 0, 0, 0, 0, 0, 1, 1, 1, 1, 1, 1, 1],
    [0, 0, 0, 0, 0, 0, 0, 0, 0, 0, 0, 0, 0, 0, 0, 0, 0, 0, 0, 0, 0, 0, 0, 0, 0, 0, 0, 0, 0, 0, 0, 0, 1, 1, 1, 1, 1, 1],
    [0, 0, 0, 0, 0, 0, 0, 0, 0, 0, 0, 0, 0, 0, 0, 0, 0, 0, 0, 0, 0, 0, 0, 0, 0, 0, 0, 0, 0, 0, 0, 0, 0, 1, 1, 1, 1, 1],
    [0, 0, 0, 0, 0, 0, 0, 0, 0, 0, 0, 0, 0, 0, 0, 0, 0, 0, 0, 0, 0, 0, 0, 0, 0, 0, 0, 0, 0, 0, 0, 0, 0, 0, 1, 1, 1, 1],
    [0, 0, 0, 0, 0, 0, 0, 0, 0, 0, 0, 0, 0, 0, 0, 0, 0, 0, 0, 0, 0, 0, 0, 0, 0, 0, 0, 0, 0, 0, 0, 0, 0, 0, 0, 1, 1, 1],
    [0, 0, 0, 0, 0, 0, 0, 0, 0, 0, 0, 0, 0, 0, 0, 0, 0, 0, 0, 0, 0, 0, 0, 0, 0, 0, 0, 0, 0, 0, 0, 0, 0, 0, 0, 0, 1, 1],
    [0, 0, 0, 0, 0, 0, 0, 0, 0, 0, 0, 0, 0, 0, 0, 0, 0, 0, 0, 0, 0, 0, 0, 0, 0, 0, 0, 0, 0, 0, 0, 0, 0, 0, 0, 0, 0, 1],
    [0, 0, 0, 0, 0, 0, 0, 0, 0, 0, 0, 0, 0, 0, 0, 0, 0, 0, 0, 0, 0, 0, 0, 0, 0, 0, 0, 0, 0, 0, 0, 0, 0, 0, 0, 0, 0, 0]
  ]
}