{
  "T": ["i_s", "i_m", "i_p", "st1", "p_w", "w_e", "w_l", "p_r",
        "o_p", "o_a", "o_s", "o_f", "st2", "st3"],
  "P": ["i", 1, 2, 3, 4, 5, 6, 7, 8, 9, 10, 11, 11, "f"],
  "F": [
    ["i", "i_s"],
    ["i", "st1"],
    ["st1", 3],
    ["i_s", 1],
    [1, "i_m"],
    ["i_m", 2],
    [2, "i_p"],
    ["i_p", 3],

    [3, "o_p"],
    [3, "st2"],
    ["o_p", 4],
    ["o_p", 5],
    [5, "o_a"],
    ["o_a", 6],
    [4, "o_s"],
    ["o_s", 7],
    [6, "o_f"],
    [7, "o_f"],
    ["o_f", 8],
    ["st2", 8],
    [8, "p_w"],
    ["p_w", 9],
    [9, "w_e"],
    ["w_e", 10],
    [10, "w_l"],
    ["w_l", 11],
    [11, "p_r"],
    ["p_r", "f"],
    ["st1", "p_d_memory"]
  ],
  "R": {
    "a": [{"a1": 1, "a2": 1}, ["o_p", "i_m"], ["o_f", "i_m"], ["o_a"]],
    "d": [{"d1": 1, "d2": 1}, ["i_s", "o_p", "p_w"], ["i_p", "o_f", "p_w"], ["o_s"]],
    "w1": [{"=": 1}, ["w_e"], ["st3"], []],
    "w2": [{"-": 1}, ["st3"], ["w_l"], []]
  },
  "R_memory": {
    "d": ["i_s", "p_w"]
  }
}