{
  "T": ["i_s", "i_p", "st1", "p_w", "w_e", "w_l", "p_r",
        "o_p", "o_a", "o_sc", "o_so", "o_c", "o_f", "st2", "st3", "st4"],
  "P": ["i", 1, 2, 3, 4, 5, 6, 7, 8, 9, 10, 11, 12, "f"],
  "F": [
    ["i", "i_s"],
    ["i", "st1"],
    ["st1", 8],
    ["i_s", 7],
    [7, "i_p"],
    ["i_p", 8],
    [8, "o_p"],
    [8, "st3"],
    ["o_p", 1],
    ["o_p", 2],
    [1, "o_a"],
    ["o_a", 3],
    [3, "st2"],
    [3, "o_c"],
    [2, "o_sc"],
    [2, "o_so"],
    ["o_sc", 4],
    ["o_so", 5],
    [4, "st2"],
    [5, "o_c"],
    ["st2", 6],
    ["o_c", 6],
    [6, "o_f"],
    ["o_f", 9],
    ["st3", 9],
    [9, "p_w"],
    ["p_w", 10],
    [10, "w_e"],
    ["w_e", 11],
    [11, "w_l"],
    ["w_l", 12],
    [12, "p_r"],
    ["p_r", "f"],
    ["st1", "p_g_memory"]
  ],
  "R": {
    "a": [{"a1": 1}, ["o_p"], ["o_f"], ["o_p", "o_a", "o_f"]],
    "g": [{"g1": 1, "g2": 1}, ["i_s", "p_w"], ["i_p", "p_w"], ["i_s", "i_p", "p_w"]],
    "s": [{"s1": 1}, ["o_so", "o_sc"], ["o_f"], ["o_so", "o_sc", "o_c", "o_f"]],
    "w1": [{"=": 1}, ["w_e"], ["st4"], ["w_e", "st4"]],
    "w2": [{"-": 1}, ["st4"], ["w_l"], ["st4", "w_l"]]
  },
  "R_memory": {
    "g": ["i_s", "p_w"]
  }
}