{
  "comment": "",
  "events": [
    ["create",         "[p1]"],
    ["order home",     "[p1]"],
    ["register depot", "[p1, w1]"],
    ["deliver depot",  "[p1, d1, w1]"],
    ["collect",        "[p1, w1]"],
    ["destroy",        "[p1]"],

    ["create",         "[p2]"],
    ["order depot",    "[p2]"],
    ["ring",           "[p2, d1]"],
    ["register depot", "[p2, w1]"],
    ["deliver depot",  "[p2, d1, w1]"],
    ["collect",        "[p2, w1]"],
    ["destroy",        "[p2]"],

    ["start",          "[d1]"],
    ["stop",           "[d1]"]
  ],
  "O": {"P": ["p1", "p2"], "D": ["d1", "d2"], "W": ["w1", "w2"]},
  "<": [
    [0, 1], [1, 2], [2, 3], [3, 4], [4, 5],
    [6, 7], [7, 8], [8, 9], [9, 10], [10, 11], [11, 12],
    [3, 8],
    [13, 3], [10, 14]
  ],
  "||": []
}