{
  "type": "tPNID",
  "T": ["a", "b", "c"],
  "P": ["p1", "p2", "p3"],
  "F": {
    "[([p])]": [
      ["p1", "a"], ["p1", "c"], ["a", "p2"], ["p2", "b"], ["b", "p3"], ["c", "p3"]
    ]
  },
  "O": {"P": ["p1", "p2"]},
  "V": {"P": ["p"]},
  "m_i": "[[([p1])]·p1]",
  "m_f": "[[([p1])]·p3]"
}