{
  "type": "tPNID",
  "T": ["a", "b", "c"],
  "P": ["p1", "p2", "p3", "p4", "p5"],
  "F": {
    "[([p])]": [
      ["p1", "a"], ["a", "p2"], ["a", "p3"], ["p2", "b"], ["p3", "c"], ["b", "p4"], ["c", "p5"]
    ]
  },
  "O": {"P": ["p1"]},
  "V": {"P": ["p"]},
  "m_i": "[[([p1])]·p1]",
  "m_f": "[[([p1])]·p4, [([p1])]·p5]"
}