{
  "type": "tPNID",
  "T": ["<x>", "tau_<x>"],
  "P": ["*<x>", "<x>*"],
  "F": {
    "*": [
      ["*<x>", "<x>"], ["*<x>", "tau_<x>"], ["<x>", "<x>*"], ["tau_<x>", "<x>*"]
    ]
  },
  "O": {},
  "V": {},
  "m_i": "[]",
  "m_f": "[]"
}