{
  "N": "./datasets/nets/delivery_extended.json",
  "L": "./datasets/logs/delivery_extended/per_deviation/log_switch_role.json",
  "info": {
    "cost": 12022,
    "visited": 53,
    "queued": 264,
    "traversed": 264,
    "lp_solved": 49,
    "enabled_check": 285,
    "duration": 1.2203104496002197
  },
  "exact": true,
  "relaxed": false,
  "m_i": "[[([d1]),([d2])]\u00b7p_d_on,[2\u00b7([v1])]\u00b7p_v_ava,[4\u00b7([w1]),5\u00b7([w2])]\u00b7p_w,[([e1])]\u00b7p_we,[([y])]\u00b7q1,[([y])]\u00b7q2,[([y])]\u00b7q3]",
  "m_f": "[[([d1]),([d2])]\u00b7p_d_on,[2\u00b7([v1])]\u00b7p_v_ava,[4\u00b7([w1]),5\u00b7([w2])]\u00b7p_w,[([e1])]\u00b7p_we,[([y])]\u00b7q1,[([y])]\u00b7q2,[([y])]\u00b7q3]",
  "M": [
    ["tau_create_0", null, "log", {"p_001": "p_001"}, "[[([p_001])]\u00b7p_P^(0)]", "[[([p_001])]\u00b7p_P^(.0)]"],
    ["create_0-create", "create", "synchronous", {"p": "p_001"}, "[[([p_001])]\u00b7p_P^(.0)]", "[[([p_001])]\u00b7p1,[([p_001])]\u00b7p_P^(0,1)]"],
    ["tau_order home_1", null, "log", {"y": "y", "p_001": "p_001"}, "[[([p_001])]\u00b7p_P^(0,1),[([p_001])]\u00b7p_P^(1),[([y])]\u00b7p_Y^(1)]", "[[([p_001])]\u00b7p_P^(.1),[([y])]\u00b7p_Y^(.1)]"],
    ["order home_1-order home", "order home", "synchronous", {"p": "p_001", "y": "y"}, "[[([p_001])]\u00b7p1,[([p_001])]\u00b7p_P^(.1),[([y])]\u00b7p_Y^(.1),[([y])]\u00b7q1]", "[[([p_001])]\u00b7p11,[([p_001])]\u00b7p2,[([p_001])]\u00b7p_P^(1,2),[([y])]\u00b7p_Y^(1,2),[([p_001], [y])]\u00b7q1_]"],
    ["tau_queue1", null, "model", {"y": "y", "p": "p_001"}, "[[([p_001], [y])]\u00b7q1_,[([y])]\u00b7q2]", "[[([y])]\u00b7q1,[([p_001], [y])]\u00b7q2_]"],
    ["tau_queue2", null, "model", {"p": "p_001", "y": "y"}, "[[([p_001], [y])]\u00b7q2_,[([y])]\u00b7q3]", "[[([y])]\u00b7q2,[([p_001], [y])]\u00b7q3_]"],
    ["pick package", "pick package", "model", {"p": "p_001", "y": "y", "e": "e1"}, "[[([p_001])]\u00b7p2,[([e1])]\u00b7p_we,[([p_001], [y])]\u00b7q3_]", "[[([p_001], [e1])]\u00b7p3,[([y])]\u00b7q3]"],
    ["load in truck", "load in truck", "model", {"v": "v1", "p": "p_001", "e": "e1"}, "[[([p_001], [e1])]\u00b7p3,[([v1])]\u00b7p_v_ava]", "[[([p_001], [v1])]\u00b7p4,[([p_001], [v1])]\u00b7p_v_occ,[([v1])]\u00b7p_v_occ_v,[([e1])]\u00b7p_we]"],
    ["tau_create_2", null, "log", {"p_001": "p_001", "y": "y", "p_002": "p_002"}, "[[([p_001])]\u00b7p_P^(1,2),[([p_002])]\u00b7p_P^(2),[([y])]\u00b7p_Y^(1,2)]", "[[([p_002])]\u00b7p_P^(.2)]"],
    ["create_2-create", "create", "synchronous", {"p": "p_002"}, "[[([p_002])]\u00b7p_P^(.2)]", "[[([p_002])]\u00b7p1,[([p_002])]\u00b7p_P^(2,3)]"],
    ["tau_order home_3", null, "log", {"y": "y", "p_002": "p_002"}, "[[([p_002])]\u00b7p_P^(2,3),[([p_002])]\u00b7p_P^(3),[([y])]\u00b7p_Y^(3)]", "[[([p_002])]\u00b7p_P^(.3),[([y])]\u00b7p_Y^(.3)]"],
    ["order home_3-order home", "order home", "synchronous", {"p": "p_002", "y": "y"}, "[[([p_002])]\u00b7p1,[([p_002])]\u00b7p_P^(.3),[([y])]\u00b7p_Y^(.3),[([y])]\u00b7q1]", "[[([p_002])]\u00b7p11,[([p_002])]\u00b7p2,[([p_002])]\u00b7p_P^(3,4),[([y])]\u00b7p_Y^(3,4),[([p_002], [y])]\u00b7q1_]"],
    ["tau_queue1", null, "model", {"y": "y", "p": "p_002"}, "[[([p_002], [y])]\u00b7q1_,[([y])]\u00b7q2]", "[[([y])]\u00b7q1,[([p_002], [y])]\u00b7q2_]"],
    ["tau_queue2", null, "model", {"p": "p_002", "y": "y"}, "[[([p_002], [y])]\u00b7q2_,[([y])]\u00b7q3]", "[[([y])]\u00b7q2,[([p_002], [y])]\u00b7q3_]"],
    ["tau_pick package_4", null, "log", {"p_002": "p_002", "y": "y", "p_001": "p_001", "d1_e_": "d1(e)"}, "[[([d1(e)])]\u00b7p_D^(4),[([p_002])]\u00b7p_P^(3,4),[([p_001])]\u00b7p_P^(4),[([y])]\u00b7p_Y^(3,4),[([y])]\u00b7p_Y^(4)]", "[[([d1(e)])]\u00b7p_D^(.4),[([p_001])]\u00b7p_P^(.4),[([y])]\u00b7p_Y^(.4)]"],
    ["pick package_4", "pick package", "log", {"y": "y", "p_001": "p_001", "d1_e_": "d1(e)"}, "[[([d1(e)])]\u00b7p_D^(.4),[([p_001])]\u00b7p_P^(.4),[([y])]\u00b7p_Y^(.4)]", "[[([d1(e)])]\u00b7p_D^(4,5),[([p_001])]\u00b7p_P^(4,5),[([y])]\u00b7p_Y^(4,5)]"],
    ["tau_pick package_5", null, "log", {"y": "y", "p_001": "p_001", "p_002": "p_002", "e1": "e1", "d1_e_": "d1(e)"}, "[[([d1(e)])]\u00b7p_D^(4,5),[([e1])]\u00b7p_E^(5),[([p_001])]\u00b7p_P^(4,5),[([p_002])]\u00b7p_P^(5),[([y])]\u00b7p_Y^(4,5),[([y])]\u00b7p_Y^(5)]", "[[([e1])]\u00b7p_E^(.5),[([p_002])]\u00b7p_P^(.5),[([y])]\u00b7p_Y^(.5)]"],
    ["pick package_5-pick package", "pick package", "synchronous", {"p": "p_002", "y": "y", "e": "e1"}, "[[([p_002])]\u00b7p2,[([e1])]\u00b7p_E^(.5),[([p_002])]\u00b7p_P^(.5),[([y])]\u00b7p_Y^(.5),[([e1])]\u00b7p_we,[([p_002], [y])]\u00b7q3_]", "[[([p_002], [e1])]\u00b7p3,[([e1])]\u00b7p_E^(5,6),[([p_002])]\u00b7p_P^(5,6),[([y])]\u00b7p_Y^(5,6),[([y])]\u00b7q3]"],
    ["tau_load in truck_6", null, "log", {"p_002": "p_002", "y": "y", "v1": "v1", "e1": "e1"}, "[[([e1])]\u00b7p_E^(5,6),[([e1])]\u00b7p_E^(6),[([p_002])]\u00b7p_P^(5,6),[([p_002])]\u00b7p_P^(6),[([v1])]\u00b7p_V^(6),[([y])]\u00b7p_Y^(5,6)]", "[[([e1])]\u00b7p_E^(.6),[([p_002])]\u00b7p_P^(.6),[([v1])]\u00b7p_V^(.6)]"],
    ["load in truck_6-load in truck", "load in truck", "synchronous", {"p": "p_002", "v": "v1", "e": "e1"}, "[[([p_002], [e1])]\u00b7p3,[([e1])]\u00b7p_E^(.6),[([p_002])]\u00b7p_P^(.6),[([v1])]\u00b7p_V^(.6),[([v1])]\u00b7p_v_ava]", "[[([p_002], [v1])]\u00b7p4,[([e1])]\u00b7p_E^(6,7),[([p_002])]\u00b7p_P^(6,7),[([v1])]\u00b7p_V^(6,7),[([p_002], [v1])]\u00b7p_v_occ,[([v1])]\u00b7p_v_occ_v,[([e1])]\u00b7p_we]"],
    ["tau_d_1", null, "model", {"d": "d2", "p": "p_001", "v": "v1"}, "[[([p_001], [v1])]\u00b7p4,[([d2])]\u00b7p_d_on]", "[[([p_001], [d2])]\u00b7p6,[([v1], [d2])]\u00b7p_v_d,[([v1])]\u00b7p_v_transit]"],
    ["tau_load in truck_7", null, "log", {"v1": "v1", "p_002": "p_002", "e1": "e1", "d1_e_": "d1(e)", "p_001": "p_001"}, "[[([d1(e)])]\u00b7p_D^(7),[([e1])]\u00b7p_E^(6,7),[([p_002])]\u00b7p_P^(6,7),[([p_001])]\u00b7p_P^(7),[([v1])]\u00b7p_V^(6,7),[([v1])]\u00b7p_V^(7)]", "[[([d1(e)])]\u00b7p_D^(.7),[([p_001])]\u00b7p_P^(.7),[([v1])]\u00b7p_V^(.7)]"],
    ["load in truck_7", "load in truck", "log", {"v1": "v1", "p_001": "p_001", "d1_e_": "d1(e)"}, "[[([d1(e)])]\u00b7p_D^(.7),[([p_001])]\u00b7p_P^(.7),[([v1])]\u00b7p_V^(.7)]", "[[([d1(e)])]\u00b7p_D^(7,8),[([p_001])]\u00b7p_P^(7,8),[([v1])]\u00b7p_V^(7,8)]"],
    ["tau_ring_8", null, "log", {"d1_e_": "d1(e)", "v1": "v1", "d2": "d2", "p_001": "p_001"}, "[[([d1(e)])]\u00b7p_D^(7,8),[([d2])]\u00b7p_D^(8),[([p_001])]\u00b7p_P^(7,8),[([p_001])]\u00b7p_P^(8),[([v1])]\u00b7p_V^(7,8)]", "[[([d2])]\u00b7p_D^(.8),[([p_001])]\u00b7p_P^(.8)]"],
    ["ring_8-ring", "ring", "synchronous", {"d": "d2", "p": "p_001"}, "[[([p_001])]\u00b7p11,[([p_001], [d2])]\u00b7p6,[([d2])]\u00b7p_D^(.8),[([p_001])]\u00b7p_P^(.8)]", "[[([p_001], [d2])]\u00b7p5,[([d2])]\u00b7p_D^(8,9),[([p_001])]\u00b7p_P^(8,9)]"],
    ["tau_2", null, "model", {"p": "p_001", "d": "d2"}, "[[([p_001], [d2])]\u00b7p5]", "[[([p_001])]\u00b7p12,[([p_001], [d2])]\u00b7p6,[([p_001])]\u00b7p8]"],
    ["tau_register depot_9", null, "log", {"w1": "w1", "p_001": "p_001", "d2": "d2"}, "[[([d2])]\u00b7p_D^(8,9),[([p_001])]\u00b7p_P^(8,9),[([p_001])]\u00b7p_P^(9),[([w1])]\u00b7p_W^(9)]", "[[([p_001])]\u00b7p_P^(.9),[([w1])]\u00b7p_W^(.9)]"],
    ["register depot_9-register depot", "register depot", "synchronous", {"w": "w1", "p": "p_001"}, "[[([p_001])]\u00b7p8,[([p_001])]\u00b7p_P^(.9),[([w1])]\u00b7p_W^(.9),[([w1])]\u00b7p_w]", "[[([p_001], [w1])]\u00b7p7,[([p_001])]\u00b7p_P^(9,10),[([w1])]\u00b7p_W^(9,10),[([w1])]\u00b7p_w]"],
    ["tau_deliver depot_10", null, "log", {"p_001": "p_001", "w1": "w1", "d2": "d2", "v1": "v1"}, "[[([d2])]\u00b7p_D^(10),[([p_001])]\u00b7p_P^(10),[([p_001])]\u00b7p_P^(9,10),[([v1])]\u00b7p_V^(10),[([w1])]\u00b7p_W^(10),[([w1])]\u00b7p_W^(9,10)]", "[[([d2])]\u00b7p_D^(.10),[([p_001])]\u00b7p_P^(.10),[([v1])]\u00b7p_V^(.10),[([w1])]\u00b7p_W^(.10)]"],
    ["deliver depot_10-deliver depot", "deliver depot", "synchronous", {"d": "d2", "p": "p_001", "w": "w1", "v": "v1"}, "[[([p_001])]\u00b7p12,[([p_001], [d2])]\u00b7p6,[([p_001], [w1])]\u00b7p7,[([d2])]\u00b7p_D^(.10),[([p_001])]\u00b7p_P^(.10),[([v1])]\u00b7p_V^(.10),[([w1])]\u00b7p_W^(.10),[([p_001], [v1])]\u00b7p_v_occ,[([v1])]\u00b7p_v_occ_v,[([w1])]\u00b7p_w]", "[[([p_001], [w1])]\u00b7p9,[([d2])]\u00b7p_D^(10,11),[([p_001])]\u00b7p_P^(10,11),[([v1])]\u00b7p_V^(10,11),[([w1])]\u00b7p_W^(10,11),[([d2])]\u00b7p_d_on,[([v1])]\u00b7p_v_free,[([v1])]\u00b7p_v_free_imm]"],
    ["tau_d_2", null, "model", {"p": "p_002", "v": "v1", "d": "d2"}, "[[([p_002], [v1])]\u00b7p4,[([d2])]\u00b7p_d_on,[([v1], [d2])]\u00b7p_v_d,[([v1])]\u00b7p_v_transit]", "[[([p_002], [d2])]\u00b7p6,[2\u00b7([v1], [d2])]\u00b7p_v_d,[2\u00b7([v1])]\u00b7p_v_transit]"],
    ["tau_ring_11", null, "log", {"d2": "d2", "v1": "v1", "p_001": "p_001", "w1": "w1", "p_002": "p_002"}, "[[([d2])]\u00b7p_D^(10,11),[([d2])]\u00b7p_D^(11),[([p_001])]\u00b7p_P^(10,11),[([p_002])]\u00b7p_P^(11),[([v1])]\u00b7p_V^(10,11),[([w1])]\u00b7p_W^(10,11)]", "[[([d2])]\u00b7p_D^(.11),[([p_002])]\u00b7p_P^(.11)]"],
    ["ring_11-ring", "ring", "synchronous", {"d": "d2", "p": "p_002"}, "[[([p_002])]\u00b7p11,[([p_002], [d2])]\u00b7p6,[([d2])]\u00b7p_D^(.11),[([p_002])]\u00b7p_P^(.11)]", "[[([p_002], [d2])]\u00b7p5,[([d2])]\u00b7p_D^(11,12),[([p_002])]\u00b7p_P^(11,12)]"],
    ["tau_2", null, "model", {"p": "p_002", "d": "d2"}, "[[([p_002], [d2])]\u00b7p5]", "[[([p_002])]\u00b7p12,[([p_002], [d2])]\u00b7p6,[([p_002])]\u00b7p8]"],
    ["tau_register depot_12", null, "log", {"p_002": "p_002", "w1": "w1", "d2": "d2"}, "[[([d2])]\u00b7p_D^(11,12),[([p_002])]\u00b7p_P^(11,12),[([p_002])]\u00b7p_P^(12),[([w1])]\u00b7p_W^(12)]", "[[([p_002])]\u00b7p_P^(.12),[([w1])]\u00b7p_W^(.12)]"],
    ["register depot_12-register depot", "register depot", "synchronous", {"w": "w1", "p": "p_002"}, "[[([p_002])]\u00b7p8,[([p_002])]\u00b7p_P^(.12),[([w1])]\u00b7p_W^(.12),[([w1])]\u00b7p_w]", "[[([p_002], [w1])]\u00b7p7,[([p_002])]\u00b7p_P^(12,13),[([w1])]\u00b7p_W^(12,13),[([w1])]\u00b7p_w]"],
    ["tau_deliver depot_13", null, "log", {"d2": "d2", "w1": "w1", "v1": "v1", "p_002": "p_002"}, "[[([d2])]\u00b7p_D^(13),[([p_002])]\u00b7p_P^(12,13),[([p_002])]\u00b7p_P^(13),[([v1])]\u00b7p_V^(13),[([w1])]\u00b7p_W^(12,13),[([w1])]\u00b7p_W^(13)]", "[[([d2])]\u00b7p_D^(.13),[([p_002])]\u00b7p_P^(.13),[([v1])]\u00b7p_V^(.13),[([w1])]\u00b7p_W^(.13)]"],
    ["deliver depot_13-deliver depot", "deliver depot", "synchronous", {"v": "v1", "p": "p_002", "d": "d2", "w": "w1"}, "[[([p_002])]\u00b7p12,[([p_002], [d2])]\u00b7p6,[([p_002], [w1])]\u00b7p7,[([d2])]\u00b7p_D^(.13),[([p_002])]\u00b7p_P^(.13),[([v1])]\u00b7p_V^(.13),[([w1])]\u00b7p_W^(.13),[([p_002], [v1])]\u00b7p_v_occ,[([v1])]\u00b7p_v_occ_v,[([w1])]\u00b7p_w]", "[[([p_002], [w1])]\u00b7p9,[([d2])]\u00b7p_D^(13,14),[([p_002])]\u00b7p_P^(13,14),[([v1])]\u00b7p_V^(13,14),[([w1])]\u00b7p_W^(13,14),[([d2])]\u00b7p_d_on,[([v1])]\u00b7p_v_free,[([v1])]\u00b7p_v_free_imm]"],
    ["tau_free", null, "model", {"v": "v1", "d": "d2"}, "[[([v1], [d2])]\u00b7p_v_d,[([v1])]\u00b7p_v_free,[([v1])]\u00b7p_v_free_imm,[([v1])]\u00b7p_v_transit]", "[[([v1])]\u00b7p_v_ava]"],
    ["tau_free", null, "model", {"v": "v1", "d": "d2"}, "[[([v1], [d2])]\u00b7p_v_d,[([v1])]\u00b7p_v_free,[([v1])]\u00b7p_v_free_imm,[([v1])]\u00b7p_v_transit]", "[[([v1])]\u00b7p_v_ava]"],
    ["tau_collect_14", null, "log", {"w1": "w1", "p_001": "p_001", "p_002": "p_002", "d2": "d2", "v1": "v1"}, "[[([d2])]\u00b7p_D^(13,14),[([p_002])]\u00b7p_P^(13,14),[([p_001])]\u00b7p_P^(14),[([v1])]\u00b7p_V^(13,14),[([w1])]\u00b7p_W^(13,14),[([w1])]\u00b7p_W^(14)]", "[[([p_001])]\u00b7p_P^(.14),[([w1])]\u00b7p_W^(.14)]"],
    ["collect_14-collect", "collect", "synchronous", {"w": "w1", "p": "p_001"}, "[[([p_001], [w1])]\u00b7p9,[([p_001])]\u00b7p_P^(.14),[([w1])]\u00b7p_W^(.14)]", "[[([p_001])]\u00b7p10,[([p_001])]\u00b7p_P^(14,15),[([w1])]\u00b7p_W^(14,15),[([w1])]\u00b7p_w]"],
    ["tau_destroy_15", null, "log", {"w1": "w1", "p_001": "p_001"}, "[[([p_001])]\u00b7p_P^(14,15),[([p_001])]\u00b7p_P^(15),[([w1])]\u00b7p_W^(14,15)]", "[[([p_001])]\u00b7p_P^(.15)]"],
    ["destroy_15-destroy", "destroy", "synchronous", {"p": "p_001"}, "[[([p_001])]\u00b7p10,[([p_001])]\u00b7p_P^(.15)]", "[[([p_001])]\u00b7p_P^(15,16)]"],
    ["tau_collect_16", null, "log", {"p_002": "p_002", "w1": "w1", "p_001": "p_001"}, "[[([p_001])]\u00b7p_P^(15,16),[([p_002])]\u00b7p_P^(16),[([w1])]\u00b7p_W^(16)]", "[[([p_002])]\u00b7p_P^(.16),[([w1])]\u00b7p_W^(.16)]"],
    ["collect_16-collect", "collect", "synchronous", {"w": "w1", "p": "p_002"}, "[[([p_002], [w1])]\u00b7p9,[([p_002])]\u00b7p_P^(.16),[([w1])]\u00b7p_W^(.16)]", "[[([p_002])]\u00b7p10,[([p_002])]\u00b7p_P^(16,17),[([w1])]\u00b7p_W^(16,17),[([w1])]\u00b7p_w]"],
    ["tau_destroy_17", null, "log", {"w1": "w1", "p_002": "p_002"}, "[[([p_002])]\u00b7p_P^(16,17),[([p_002])]\u00b7p_P^(17),[([w1])]\u00b7p_W^(16,17)]", "[[([p_002])]\u00b7p_P^(.17)]"],
    ["destroy_17-destroy", "destroy", "synchronous", {"p": "p_002"}, "[[([p_002])]\u00b7p10,[([p_002])]\u00b7p_P^(.17)]", "[]"]
  ],
  "r": [
    [0, 1, 1, 1, 1, 1, 1, 1, 1, 1, 1, 1, 1, 1, 1, 1, 1, 1, 1, 1, 1, 1, 1, 1, 1, 1, 1, 1, 1, 1, 1, 1, 1, 1, 1, 1, 1, 1, 1, 1, 1, 1, 1, 1, 1, 1, 1, 1],
    [0, 0, 1, 1, 1, 1, 1, 1, 1, 1, 1, 1, 1, 1, 1, 1, 1, 1, 1, 1, 1, 1, 1, 1, 1, 1, 1, 1, 1, 1, 1, 1, 1, 1, 1, 1, 1, 1, 1, 1, 1, 1, 1, 1, 1, 1, 1, 1],
    [0, 0, 0, 1, 1, 1, 1, 1, 1, 1, 1, 1, 1, 1, 1, 1, 1, 1, 1, 1, 1, 1, 1, 1, 1, 1, 1, 1, 1, 1, 1, 1, 1, 1, 1, 1, 1, 1, 1, 1, 1, 1, 1, 1, 1, 1, 1, 1],
    [0, 0, 0, 0, 1, 1, 1, 1, 1, 1, 1, 1, 1, 1, 1, 1, 1, 1, 1, 1, 1, 1, 1, 1, 1, 1, 1, 1, 1, 1, 1, 1, 1, 1, 1, 1, 1, 1, 1, 1, 1, 1, 1, 1, 1, 1, 1, 1],
    [0, 0, 0, 0, 0, 1, 1, 1, 0, 0, 0, 1, 1, 1, 1, 1, 1, 1, 1, 1, 1, 1, 1, 1, 1, 1, 1, 1, 1, 1, 1, 1, 1, 1, 1, 1, 1, 1, 1, 1, 1, 1, 1, 1, 1, 1, 1, 1],
    [0, 0, 0, 0, 0, 0, 1, 1, 0, 0, 0, 0, 1, 1, 0, 0, 0, 1, 1, 1, 1, 1, 1, 1, 1, 1, 1, 1, 1, 1, 1, 1, 1, 1, 1, 1, 1, 1, 1, 1, 1, 1, 1, 1, 1, 1, 1, 1],
    [0, 0, 0, 0, 0, 0, 0, 1, 0, 0, 0, 0, 0, 1, 0, 0, 0, 1, 1, 1, 1, 1, 1, 1, 1, 1, 1, 1, 1, 1, 1, 1, 1, 1, 1, 1, 1, 1, 1, 1, 1, 1, 1, 1, 1, 1, 1, 1],
    [0, 0, 0, 0, 0, 0, 0, 0, 0, 0, 0, 0, 0, 0, 0, 0, 0, 1, 1, 1, 1, 1, 1, 1, 1, 1, 1, 1, 1, 1, 1, 1, 1, 1, 1, 1, 1, 1, 1, 1, 1, 1, 1, 1, 1, 1, 1, 1],
    [0, 0, 0, 0, 0, 0, 0, 0, 0, 1, 1, 1, 1, 1, 1, 1, 1, 1, 1, 1, 1, 1, 1, 1, 1, 1, 1, 1, 1, 1, 1, 1, 1, 1, 1, 1, 1, 1, 1, 1, 1, 1, 1, 1, 1, 1, 1, 1],
    [0, 0, 0, 0, 0, 0, 0, 0, 0, 0, 1, 1, 1, 1, 1, 1, 1, 1, 1, 1, 1, 1, 1, 1, 1, 1, 1, 1, 1, 1, 1, 1, 1, 1, 1, 1, 1, 1, 1, 1, 1, 1, 1, 1, 1, 1, 1, 1],
    [0, 0, 0, 0, 0, 0, 0, 0, 0, 0, 0, 1, 1, 1, 1, 1, 1, 1, 1, 1, 1, 1, 1, 1, 1, 1, 1, 1, 1, 1, 1, 1, 1, 1, 1, 1, 1, 1, 1, 1, 1, 1, 1, 1, 1, 1, 1, 1],
    [0, 0, 0, 0, 0, 0, 0, 0, 0, 0, 0, 0, 1, 1, 1, 1, 1, 1, 1, 1, 1, 1, 1, 1, 1, 1, 1, 1, 1, 1, 1, 1, 1, 1, 1, 1, 1, 1, 1, 1, 1, 1, 1, 1, 1, 1, 1, 1],
    [0, 0, 0, 0, 0, 0, 0, 0, 0, 0, 0, 0, 0, 1, 0, 0, 0, 1, 1, 1, 1, 1, 1, 1, 1, 1, 1, 1, 1, 1, 1, 1, 1, 1, 1, 1, 1, 1, 1, 1, 1, 1, 1, 1, 1, 1, 1, 1],
    [0, 0, 0, 0, 0, 0, 0, 0, 0, 0, 0, 0, 0, 0, 0, 0, 0, 1, 1, 1, 1, 1, 1, 1, 1, 1, 1, 1, 1, 1, 1, 1, 1, 1, 1, 1, 1, 1, 1, 1, 1, 1, 1, 1, 1, 1, 1, 1],
    [0, 0, 0, 0, 0, 0, 0, 0, 0, 0, 0, 0, 0, 0, 0, 1, 1, 1, 1, 1, 1, 1, 1, 1, 1, 1, 1, 1, 1, 1, 1, 1, 1, 1, 1, 1, 1, 1, 1, 1, 1, 1, 1, 1, 1, 1, 1, 1],
    [0, 0, 0, 0, 0, 0, 0, 0, 0, 0, 0, 0, 0, 0, 0, 0, 1, 1, 1, 1, 1, 1, 1, 1, 1, 1, 1, 1, 1, 1, 1, 1, 1, 1, 1, 1, 1, 1, 1, 1, 1, 1, 1, 1, 1, 1, 1, 1],
    [0, 0, 0, 0, 0, 0, 0, 0, 0, 0, 0, 0, 0, 0, 0, 0, 0, 1, 1, 1, 1, 1, 1, 1, 1, 1, 1, 1, 1, 1, 1, 1, 1, 1, 1, 1, 1, 1, 1, 1, 1, 1, 1, 1, 1, 1, 1, 1],
    [0, 0, 0, 0, 0, 0, 0, 0, 0, 0, 0, 0, 0, 0, 0, 0, 0, 0, 1, 1, 1, 1, 1, 1, 1, 1, 1, 1, 1, 1, 1, 1, 1, 1, 1, 1, 1, 1, 1, 1, 1, 1, 1, 1, 1, 1, 1, 1],
    [0, 0, 0, 0, 0, 0, 0, 0, 0, 0, 0, 0, 0, 0, 0, 0, 0, 0, 0, 1, 1, 1, 1, 1, 1, 1, 1, 1, 1, 1, 1, 1, 1, 1, 1, 1, 1, 1, 1, 1, 1, 1, 1, 1, 1, 1, 1, 1],
    [0, 0, 0, 0, 0, 0, 0, 0, 0, 0, 0, 0, 0, 0, 0, 0, 0, 0, 0, 0, 1, 1, 1, 1, 1, 1, 1, 1, 1, 1, 1, 1, 1, 1, 1, 1, 1, 1, 1, 1, 1, 1, 1, 1, 1, 1, 1, 1],
    [0, 0, 0, 0, 0, 0, 0, 0, 0, 0, 0, 0, 0, 0, 0, 0, 0, 0, 0, 0, 0, 0, 0, 0, 1, 1, 1, 1, 1, 1, 1, 1, 1, 1, 1, 1, 1, 1, 1, 1, 1, 1, 1, 1, 1, 1, 1, 1],
    [0, 0, 0, 0, 0, 0, 0, 0, 0, 0, 0, 0, 0, 0, 0, 0, 0, 0, 0, 0, 0, 0, 1, 1, 1, 1, 1, 1, 1, 1, 1, 1, 1, 1, 1, 1, 1, 1, 1, 1, 1, 1, 1, 1, 1, 1, 1, 1],
    [0, 0, 0, 0, 0, 0, 0, 0, 0, 0, 0, 0, 0, 0, 0, 0, 0, 0, 0, 0, 0, 0, 0, 1, 1, 1, 1, 1, 1, 1, 1, 1, 1, 1, 1, 1, 1, 1, 1, 1, 1, 1, 1, 1, 1, 1, 1, 1],
    [0, 0, 0, 0, 0, 0, 0, 0, 0, 0, 0, 0, 0, 0, 0, 0, 0, 0, 0, 0, 0, 0, 0, 0, 1, 1, 1, 1, 1, 1, 1, 1, 1, 1, 1, 1, 1, 1, 1, 1, 1, 1, 1, 1, 1, 1, 1, 1],
    [0, 0, 0, 0, 0, 0, 0, 0, 0, 0, 0, 0, 0, 0, 0, 0, 0, 0, 0, 0, 0, 0, 0, 0, 0, 1, 1, 1, 1, 1, 1, 1, 1, 1, 1, 1, 1, 1, 1, 1, 1, 1, 1, 1, 1, 1, 1, 1],
    [0, 0, 0, 0, 0, 0, 0, 0, 0, 0, 0, 0, 0, 0, 0, 0, 0, 0, 0, 0, 0, 0, 0, 0, 0, 0, 0, 1, 1, 1, 1, 1, 1, 1, 1, 1, 1, 1, 1, 1, 1, 1, 1, 1, 1, 1, 1, 1],
    [0, 0, 0, 0, 0, 0, 0, 0, 0, 0, 0, 0, 0, 0, 0, 0, 0, 0, 0, 0, 0, 0, 0, 0, 0, 0, 0, 1, 1, 1, 1, 1, 1, 1, 1, 1, 1, 1, 1, 1, 1, 1, 1, 1, 1, 1, 1, 1],
    [0, 0, 0, 0, 0, 0, 0, 0, 0, 0, 0, 0, 0, 0, 0, 0, 0, 0, 0, 0, 0, 0, 0, 0, 0, 0, 0, 0, 1, 1, 1, 1, 1, 1, 1, 1, 1, 1, 1, 1, 1, 1, 1, 1, 1, 1, 1, 1],
    [0, 0, 0, 0, 0, 0, 0, 0, 0, 0, 0, 0, 0, 0, 0, 0, 0, 0, 0, 0, 0, 0, 0, 0, 0, 0, 0, 0, 0, 1, 1, 1, 1, 1, 1, 1, 1, 1, 1, 1, 1, 1, 1, 1, 1, 1, 1, 1],
    [0, 0, 0, 0, 0, 0, 0, 0, 0, 0, 0, 0, 0, 0, 0, 0, 0, 0, 0, 0, 0, 0, 0, 0, 0, 0, 0, 0, 0, 0, 1, 1, 1, 1, 1, 1, 1, 1, 1, 1, 1, 1, 1, 1, 1, 1, 1, 1],
    [0, 0, 0, 0, 0, 0, 0, 0, 0, 0, 0, 0, 0, 0, 0, 0, 0, 0, 0, 0, 0, 0, 0, 0, 0, 0, 0, 0, 0, 0, 0, 0, 1, 1, 1, 1, 1, 1, 1, 1, 1, 1, 1, 1, 1, 1, 1, 1],
    [0, 0, 0, 0, 0, 0, 0, 0, 0, 0, 0, 0, 0, 0, 0, 0, 0, 0, 0, 0, 0, 0, 0, 0, 0, 0, 0, 0, 0, 0, 0, 0, 1, 1, 1, 1, 1, 1, 1, 1, 1, 1, 1, 1, 1, 1, 1, 1],
    [0, 0, 0, 0, 0, 0, 0, 0, 0, 0, 0, 0, 0, 0, 0, 0, 0, 0, 0, 0, 0, 0, 0, 0, 0, 0, 0, 0, 0, 0, 0, 0, 0, 1, 1, 1, 1, 1, 1, 1, 1, 1, 1, 1, 1, 1, 1, 1],
    [0, 0, 0, 0, 0, 0, 0, 0, 0, 0, 0, 0, 0, 0, 0, 0, 0, 0, 0, 0, 0, 0, 0, 0, 0, 0, 0, 0, 0, 0, 0, 0, 0, 0, 0, 1, 1, 1, 1, 1, 1, 1, 1, 1, 1, 1, 1, 1],
    [0, 0, 0, 0, 0, 0, 0, 0, 0, 0, 0, 0, 0, 0, 0, 0, 0, 0, 0, 0, 0, 0, 0, 0, 0, 0, 0, 0, 0, 0, 0, 0, 0, 0, 0, 1, 1, 1, 1, 1, 1, 1, 1, 1, 1, 1, 1, 1],
    [0, 0, 0, 0, 0, 0, 0, 0, 0, 0, 0, 0, 0, 0, 0, 0, 0, 0, 0, 0, 0, 0, 0, 0, 0, 0, 0, 0, 0, 0, 0, 0, 0, 0, 0, 0, 1, 1, 1, 1, 1, 1, 1, 1, 1, 1, 1, 1],
    [0, 0, 0, 0, 0, 0, 0, 0, 0, 0, 0, 0, 0, 0, 0, 0, 0, 0, 0, 0, 0, 0, 0, 0, 0, 0, 0, 0, 0, 0, 0, 0, 0, 0, 0, 0, 0, 1, 1, 1, 1, 1, 1, 1, 1, 1, 1, 1],
    [0, 0, 0, 0, 0, 0, 0, 0, 0, 0, 0, 0, 0, 0, 0, 0, 0, 0, 0, 0, 0, 0, 0, 0, 0, 0, 0, 0, 0, 0, 0, 0, 0, 0, 0, 0, 0, 0, 1, 1, 1, 1, 1, 1, 1, 1, 1, 1],
    [0, 0, 0, 0, 0, 0, 0, 0, 0, 0, 0, 0, 0, 0, 0, 0, 0, 0, 0, 0, 0, 0, 0, 0, 0, 0, 0, 0, 0, 0, 0, 0, 0, 0, 0, 0, 0, 0, 0, 0, 0, 0, 0, 0, 0, 0, 0, 0],
    [0, 0, 0, 0, 0, 0, 0, 0, 0, 0, 0, 0, 0, 0, 0, 0, 0, 0, 0, 0, 0, 0, 0, 0, 0, 0, 0, 0, 0, 0, 0, 0, 0, 0, 0, 0, 0, 0, 0, 0, 0, 0, 0, 0, 0, 0, 0, 0],
    [0, 0, 0, 0, 0, 0, 0, 0, 0, 0, 0, 0, 0, 0, 0, 0, 0, 0, 0, 0, 0, 0, 0, 0, 0, 0, 0, 0, 0, 0, 0, 0, 0, 0, 0, 0, 0, 0, 0, 0, 0, 1, 1, 1, 1, 1, 1, 1],
    [0, 0, 0, 0, 0, 0, 0, 0, 0, 0, 0, 0, 0, 0, 0, 0, 0, 0, 0, 0, 0, 0, 0, 0, 0, 0, 0, 0, 0, 0, 0, 0, 0, 0, 0, 0, 0, 0, 0, 0, 0, 0, 1, 1, 1, 1, 1, 1],
    [0, 0, 0, 0, 0, 0, 0, 0, 0, 0, 0, 0, 0, 0, 0, 0, 0, 0, 0, 0, 0, 0, 0, 0, 0, 0, 0, 0, 0, 0, 0, 0, 0, 0, 0, 0, 0, 0, 0, 0, 0, 0, 0, 1, 1, 1, 1, 1],
    [0, 0, 0, 0, 0, 0, 0, 0, 0, 0, 0, 0, 0, 0, 0, 0, 0, 0, 0, 0, 0, 0, 0, 0, 0, 0, 0, 0, 0, 0, 0, 0, 0, 0, 0, 0, 0, 0, 0, 0, 0, 0, 0, 0, 1, 1, 1, 1],
    [0, 0, 0, 0, 0, 0, 0, 0, 0, 0, 0, 0, 0, 0, 0, 0, 0, 0, 0, 0, 0, 0, 0, 0, 0, 0, 0, 0, 0, 0, 0, 0, 0, 0, 0, 0, 0, 0, 0, 0, 0, 0, 0, 0, 0, 1, 1, 1],
    [0, 0, 0, 0, 0, 0, 0, 0, 0, 0, 0, 0, 0, 0, 0, 0, 0, 0, 0, 0, 0, 0, 0, 0, 0, 0, 0, 0, 0, 0, 0, 0, 0, 0, 0, 0, 0, 0, 0, 0, 0, 0, 0, 0, 0, 0, 1, 1],
    [0, 0, 0, 0, 0, 0, 0, 0, 0, 0, 0, 0, 0, 0, 0, 0, 0, 0, 0, 0, 0, 0, 0, 0, 0, 0, 0, 0, 0, 0, 0, 0, 0, 0, 0, 0, 0, 0, 0, 0, 0, 0, 0, 0, 0, 0, 0, 1],
    [0, 0, 0, 0, 0, 0, 0, 0, 0, 0, 0, 0, 0, 0, 0, 0, 0, 0, 0, 0, 0, 0, 0, 0, 0, 0, 0, 0, 0, 0, 0, 0, 0, 0, 0, 0, 0, 0, 0, 0, 0, 0, 0, 0, 0, 0, 0, 0]
  ]
}