{
  "N": "./datasets/nets/delivery_extended.json",
  "L": "./datasets/logs/delivery_extended/per_deviation/log_missing_object_v.json",
  "info": {
    "cost": 10018,
    "visited": 46,
    "queued": 225,
    "traversed": 225,
    "lp_solved": 17,
    "enabled_check": 206,
    "duration": 0.741448163986206
  },
  "exact": true,
  "relaxed": false,
  "m_i": "[[([d1]),([d2])]\u00b7p_d_on,[2\u00b7([v1])]\u00b7p_v_ava,[4\u00b7([w1]),5\u00b7([w2])]\u00b7p_w,[([e1])]\u00b7p_we,[([y])]\u00b7q1,[([y])]\u00b7q2,[([y])]\u00b7q3]",
  "m_f": "[[([d1]),([d2])]\u00b7p_d_on,[2\u00b7([v1])]\u00b7p_v_ava,[4\u00b7([w1]),5\u00b7([w2])]\u00b7p_w,[([e1])]\u00b7p_we,[([y])]\u00b7q1,[([y])]\u00b7q2,[([y])]\u00b7q3]",
  "M": [
    ["tau_create_0", null, "log", {"p_001": "p_001"}, "[[([p_001])]\u00b7p_P^(0)]", "[[([p_001])]\u00b7p_P^(.0)]"],
    ["create_0-create", "create", "synchronous", {"p": "p_001"}, "[[([p_001])]\u00b7p_P^(.0)]", "[[([p_001])]\u00b7p1,[([p_001])]\u00b7p_P^(0,1)]"],
    ["tau_order home_1", null, "log", {"y": "y", "p_001": "p_001"}, "[[([p_001])]\u00b7p_P^(0,1),[([p_001])]\u00b7p_P^(1),[([y])]\u00b7p_Y^(1)]", "[[([p_001])]\u00b7p_P^(.1),[([y])]\u00b7p_Y^(.1)]"],
    ["order home_1-order home", "order home", "synchronous", {"p": "p_001", "y": "y"}, "[[([p_001])]\u00b7p1,[([p_001])]\u00b7p_P^(.1),[([y])]\u00b7p_Y^(.1),[([y])]\u00b7q1]", "[[([p_001])]\u00b7p11,[([p_001])]\u00b7p2,[([p_001])]\u00b7p_P^(1,2),[([y])]\u00b7p_Y^(1,2),[([p_001], [y])]\u00b7q1_]"],
    ["tau_queue1", null, "model", {"y": "y", "p": "p_001"}, "[[([p_001], [y])]\u00b7q1_,[([y])]\u00b7q2]", "[[([y])]\u00b7q1,[([p_001], [y])]\u00b7q2_]"],
    ["tau_queue2", null, "model", {"p": "p_001", "y": "y"}, "[[([p_001], [y])]\u00b7q2_,[([y])]\u00b7q3]", "[[([y])]\u00b7q2,[([p_001], [y])]\u00b7q3_]"],
    ["tau_create_2", null, "log", {"p_001": "p_001", "y": "y", "p_002": "p_002"}, "[[([p_001])]\u00b7p_P^(1,2),[([p_002])]\u00b7p_P^(2),[([y])]\u00b7p_Y^(1,2)]", "[[([p_002])]\u00b7p_P^(.2)]"],
    ["create_2-create", "create", "synchronous", {"p": "p_002"}, "[[([p_002])]\u00b7p_P^(.2)]", "[[([p_002])]\u00b7p1,[([p_002])]\u00b7p_P^(2,3)]"],
    ["tau_order depot_3", null, "log", {"y": "y", "p_002": "p_002"}, "[[([p_002])]\u00b7p_P^(2,3),[([p_002])]\u00b7p_P^(3),[([y])]\u00b7p_Y^(3)]", "[[([p_002])]\u00b7p_P^(.3),[([y])]\u00b7p_Y^(.3)]"],
    ["order depot_3-order depot", "order depot", "synchronous", {"p": "p_002", "y": "y"}, "[[([p_002])]\u00b7p1,[([p_002])]\u00b7p_P^(.3),[([y])]\u00b7p_Y^(.3),[([y])]\u00b7q1]", "[[([p_002])]\u00b7p12,[([p_002])]\u00b7p2,[([p_002])]\u00b7p8,[([p_002])]\u00b7p_P^(3,4),[([y])]\u00b7p_Y^(3,4),[([p_002], [y])]\u00b7q1_]"],
    ["tau_queue1", null, "model", {"y": "y", "p": "p_002"}, "[[([p_002], [y])]\u00b7q1_,[([y])]\u00b7q2]", "[[([y])]\u00b7q1,[([p_002], [y])]\u00b7q2_]"],
    ["tau_register depot_4", null, "log", {"p_002": "p_002", "w2": "w2", "y": "y"}, "[[([p_002])]\u00b7p_P^(3,4),[([p_002])]\u00b7p_P^(4),[([w2])]\u00b7p_W^(4),[([y])]\u00b7p_Y^(3,4)]", "[[([p_002])]\u00b7p_P^(.4),[([w2])]\u00b7p_W^(.4)]"],
    ["register depot_4-register depot", "register depot", "synchronous", {"w": "w2", "p": "p_002"}, "[[([p_002])]\u00b7p8,[([p_002])]\u00b7p_P^(.4),[([w2])]\u00b7p_W^(.4),[([w2])]\u00b7p_w]", "[[([p_002], [w2])]\u00b7p7,[([p_002])]\u00b7p_P^(4,5),[([w2])]\u00b7p_W^(4,5),[([w2])]\u00b7p_w]"],
    ["tau_pick package_5", null, "log", {"y": "y", "w2": "w2", "p_001": "p_001", "p_002": "p_002", "e1": "e1"}, "[[([e1])]\u00b7p_E^(5),[([p_002])]\u00b7p_P^(4,5),[([p_001])]\u00b7p_P^(5),[([w2])]\u00b7p_W^(4,5),[([y])]\u00b7p_Y^(5)]", "[[([e1])]\u00b7p_E^(.5),[([p_001])]\u00b7p_P^(.5),[([y])]\u00b7p_Y^(.5)]"],
    ["pick package_5-pick package", "pick package", "synchronous", {"y": "y", "e": "e1", "p": "p_001"}, "[[([p_001])]\u00b7p2,[([e1])]\u00b7p_E^(.5),[([p_001])]\u00b7p_P^(.5),[([y])]\u00b7p_Y^(.5),[([e1])]\u00b7p_we,[([p_001], [y])]\u00b7q3_]", "[[([p_001], [e1])]\u00b7p3,[([e1])]\u00b7p_E^(5,6),[([p_001])]\u00b7p_P^(5,6),[([y])]\u00b7p_Y^(5,6),[([y])]\u00b7q3]"],
    ["load in truck", "load in truck", "model", {"v": "v1", "p": "p_001", "e": "e1"}, "[[([p_001], [e1])]\u00b7p3,[([v1])]\u00b7p_v_ava]", "[[([p_001], [v1])]\u00b7p4,[([p_001], [v1])]\u00b7p_v_occ,[([v1])]\u00b7p_v_occ_v,[([e1])]\u00b7p_we]"],
    ["tau_queue2", null, "model", {"p": "p_002", "y": "y"}, "[[([p_002], [y])]\u00b7q2_,[([y])]\u00b7q3]", "[[([y])]\u00b7q2,[([p_002], [y])]\u00b7q3_]"],
    ["tau_load in truck_6", null, "log", {"p_001": "p_001", "y": "y", "e1": "e1"}, "[[([e1])]\u00b7p_E^(5,6),[([e1])]\u00b7p_E^(6),[([p_001])]\u00b7p_P^(5,6),[([p_001])]\u00b7p_P^(6),[([y])]\u00b7p_Y^(5,6)]", "[[([e1])]\u00b7p_E^(.6),[([p_001])]\u00b7p_P^(.6)]"],
    ["load in truck_6", "load in truck", "log", {"p_001": "p_001", "e1": "e1"}, "[[([e1])]\u00b7p_E^(.6),[([p_001])]\u00b7p_P^(.6)]", "[[([e1])]\u00b7p_E^(6,7),[([p_001])]\u00b7p_P^(6,7)]"],
    ["tau_pick package_7", null, "log", {"p_001": "p_001", "e1": "e1", "y": "y", "p_002": "p_002"}, "[[([e1])]\u00b7p_E^(6,7),[([e1])]\u00b7p_E^(7),[([p_001])]\u00b7p_P^(6,7),[([p_002])]\u00b7p_P^(7),[([y])]\u00b7p_Y^(7)]", "[[([e1])]\u00b7p_E^(.7),[([p_002])]\u00b7p_P^(.7),[([y])]\u00b7p_Y^(.7)]"],
    ["pick package_7-pick package", "pick package", "synchronous", {"y": "y", "e": "e1", "p": "p_002"}, "[[([p_002])]\u00b7p2,[([e1])]\u00b7p_E^(.7),[([p_002])]\u00b7p_P^(.7),[([y])]\u00b7p_Y^(.7),[([e1])]\u00b7p_we,[([p_002], [y])]\u00b7q3_]", "[[([p_002], [e1])]\u00b7p3,[([e1])]\u00b7p_E^(7,8),[([p_002])]\u00b7p_P^(7,8),[([y])]\u00b7p_Y^(7,8),[([y])]\u00b7q3]"],
    ["load in truck", "load in truck", "model", {"v": "v1", "p": "p_002", "e": "e1"}, "[[([p_002], [e1])]\u00b7p3,[([v1])]\u00b7p_v_ava]", "[[([p_002], [v1])]\u00b7p4,[([p_002], [v1])]\u00b7p_v_occ,[([v1])]\u00b7p_v_occ_v,[([e1])]\u00b7p_we]"],
    ["tau_d_1", null, "model", {"d": "d2", "p": "p_001", "v": "v1"}, "[[([p_001], [v1])]\u00b7p4,[([d2])]\u00b7p_d_on]", "[[([p_001], [d2])]\u00b7p6,[([v1], [d2])]\u00b7p_v_d,[([v1])]\u00b7p_v_transit]"],
    ["tau_load in truck_8", null, "log", {"y": "y", "p_002": "p_002", "e1": "e1"}, "[[([e1])]\u00b7p_E^(7,8),[([e1])]\u00b7p_E^(8),[([p_002])]\u00b7p_P^(7,8),[([p_002])]\u00b7p_P^(8),[([y])]\u00b7p_Y^(7,8)]", "[[([e1])]\u00b7p_E^(.8),[([p_002])]\u00b7p_P^(.8)]"],
    ["load in truck_8", "load in truck", "log", {"p_002": "p_002", "e1": "e1"}, "[[([e1])]\u00b7p_E^(.8),[([p_002])]\u00b7p_P^(.8)]", "[[([e1])]\u00b7p_E^(8,9),[([p_002])]\u00b7p_P^(8,9)]"],
    ["tau_ring_9", null, "log", {"p_002": "p_002", "e1": "e1", "p_001": "p_001", "d2": "d2"}, "[[([d2])]\u00b7p_D^(9),[([e1])]\u00b7p_E^(8,9),[([p_002])]\u00b7p_P^(8,9),[([p_001])]\u00b7p_P^(9)]", "[[([d2])]\u00b7p_D^(.9),[([p_001])]\u00b7p_P^(.9)]"],
    ["ring_9-ring", "ring", "synchronous", {"d": "d2", "p": "p_001"}, "[[([p_001])]\u00b7p11,[([p_001], [d2])]\u00b7p6,[([d2])]\u00b7p_D^(.9),[([p_001])]\u00b7p_P^(.9)]", "[[([p_001], [d2])]\u00b7p5,[([d2])]\u00b7p_D^(9,10),[([p_001])]\u00b7p_P^(9,10)]"],
    ["tau_deliver home_10", null, "log", {"p_001": "p_001", "d2": "d2", "v1": "v1"}, "[[([d2])]\u00b7p_D^(10),[([d2])]\u00b7p_D^(9,10),[([p_001])]\u00b7p_P^(10),[([p_001])]\u00b7p_P^(9,10),[([v1])]\u00b7p_V^(10)]", "[[([d2])]\u00b7p_D^(.10),[([p_001])]\u00b7p_P^(.10),[([v1])]\u00b7p_V^(.10)]"],
    ["deliver home_10-deliver home", "deliver home", "synchronous", {"v": "v1", "d": "d2", "p": "p_001"}, "[[([p_001], [d2])]\u00b7p5,[([d2])]\u00b7p_D^(.10),[([p_001])]\u00b7p_P^(.10),[([v1])]\u00b7p_V^(.10),[([p_001], [v1])]\u00b7p_v_occ,[([v1])]\u00b7p_v_occ_v]", "[[([p_001])]\u00b7p10,[([d2])]\u00b7p_D^(10,11),[([p_001])]\u00b7p_P^(10,11),[([v1])]\u00b7p_V^(10,11),[([d2])]\u00b7p_d_on,[([v1])]\u00b7p_v_free,[([v1])]\u00b7p_v_free_imm]"],
    ["tau_d_2", null, "model", {"p": "p_002", "v": "v1", "d": "d2"}, "[[([p_002], [v1])]\u00b7p4,[([d2])]\u00b7p_d_on,[([v1], [d2])]\u00b7p_v_d,[([v1])]\u00b7p_v_transit]", "[[([p_002], [d2])]\u00b7p6,[2\u00b7([v1], [d2])]\u00b7p_v_d,[2\u00b7([v1])]\u00b7p_v_transit]"],
    ["tau_destroy_11", null, "log", {"p_001": "p_001", "d2": "d2", "v1": "v1"}, "[[([d2])]\u00b7p_D^(10,11),[([p_001])]\u00b7p_P^(10,11),[([p_001])]\u00b7p_P^(11),[([v1])]\u00b7p_V^(10,11)]", "[[([p_001])]\u00b7p_P^(.11)]"],
    ["destroy_11-destroy", "destroy", "synchronous", {"p": "p_001"}, "[[([p_001])]\u00b7p10,[([p_001])]\u00b7p_P^(.11)]", "[[([p_001])]\u00b7p_P^(11,12)]"],
    ["tau_deliver depot_12", null, "log", {"d2": "d2", "p_001": "p_001", "v1": "v1", "w2": "w2", "p_002": "p_002"}, "[[([d2])]\u00b7p_D^(12),[([p_001])]\u00b7p_P^(11,12),[([p_002])]\u00b7p_P^(12),[([v1])]\u00b7p_V^(12),[([w2])]\u00b7p_W^(12)]", "[[([d2])]\u00b7p_D^(.12),[([p_002])]\u00b7p_P^(.12),[([v1])]\u00b7p_V^(.12),[([w2])]\u00b7p_W^(.12)]"],
    ["deliver depot_12-deliver depot", "deliver depot", "synchronous", {"v": "v1", "d": "d2", "p": "p_002", "w": "w2"}, "[[([p_002])]\u00b7p12,[([p_002], [d2])]\u00b7p6,[([p_002], [w2])]\u00b7p7,[([d2])]\u00b7p_D^(.12),[([p_002])]\u00b7p_P^(.12),[([v1])]\u00b7p_V^(.12),[([w2])]\u00b7p_W^(.12),[([p_002], [v1])]\u00b7p_v_occ,[([v1])]\u00b7p_v_occ_v,[([w2])]\u00b7p_w]", "[[([p_002], [w2])]\u00b7p9,[([d2])]\u00b7p_D^(12,13),[([p_002])]\u00b7p_P^(12,13),[([v1])]\u00b7p_V^(12,13),[([w2])]\u00b7p_W^(12,13),[([d2])]\u00b7p_d_on,[([v1])]\u00b7p_v_free,[([v1])]\u00b7p_v_free_imm]"],
    ["tau_free", null, "model", {"v": "v1", "d": "d2"}, "[[([v1], [d2])]\u00b7p_v_d,[([v1])]\u00b7p_v_free,[([v1])]\u00b7p_v_free_imm,[([v1])]\u00b7p_v_transit]", "[[([v1])]\u00b7p_v_ava]"],
    ["tau_free", null, "model", {"v": "v1", "d": "d2"}, "[[([v1], [d2])]\u00b7p_v_d,[([v1])]\u00b7p_v_free,[([v1])]\u00b7p_v_free_imm,[([v1])]\u00b7p_v_transit]", "[[([v1])]\u00b7p_v_ava]"],
    ["tau_collect_13", null, "log", {"w2": "w2", "p_002": "p_002", "v1": "v1", "d2": "d2"}, "[[([d2])]\u00b7p_D^(12,13),[([p_002])]\u00b7p_P^(12,13),[([p_002])]\u00b7p_P^(13),[([v1])]\u00b7p_V^(12,13),[([w2])]\u00b7p_W^(12,13),[([w2])]\u00b7p_W^(13)]", "[[([p_002])]\u00b7p_P^(.13),[([w2])]\u00b7p_W^(.13)]"],
    ["collect_13-collect", "collect", "synchronous", {"p": "p_002", "w": "w2"}, "[[([p_002], [w2])]\u00b7p9,[([p_002])]\u00b7p_P^(.13),[([w2])]\u00b7p_W^(.13)]", "[[([p_002])]\u00b7p10,[([p_002])]\u00b7p_P^(13,14),[([w2])]\u00b7p_W^(13,14),[([w2])]\u00b7p_w]"],
    ["tau_destroy_14", null, "log", {"p_002": "p_002", "w2": "w2"}, "[[([p_002])]\u00b7p_P^(13,14),[([p_002])]\u00b7p_P^(14),[([w2])]\u00b7p_W^(13,14)]", "[[([p_002])]\u00b7p_P^(.14)]"],
    ["destroy_14-destroy", "destroy", "synchronous", {"p": "p_002"}, "[[([p_002])]\u00b7p10,[([p_002])]\u00b7p_P^(.14)]", "[]"]
  ],
  "r": [
    [0, 1, 1, 1, 1, 1, 1, 1, 1, 1, 1, 1, 1, 1, 1, 1, 1, 1, 1, 1, 1, 1, 1, 1, 1, 1, 1, 1, 1, 1, 1, 1, 1, 1, 1, 1, 1, 1, 1, 1],
    [0, 0, 1, 1, 1, 1, 1, 1, 1, 1, 1, 1, 1, 1, 1, 1, 1, 1, 1, 1, 1, 1, 1, 1, 1, 1, 1, 1, 1, 1, 1, 1, 1, 1, 1, 1, 1, 1, 1, 1],
    [0, 0, 0, 1, 1, 1, 1, 1, 1, 1, 1, 1, 1, 1, 1, 1, 1, 1, 1, 1, 1, 1, 1, 1, 1, 1, 1, 1, 1, 1, 1, 1, 1, 1, 1, 1, 1, 1, 1, 1],
    [0, 0, 0, 0, 1, 1, 1, 1, 1, 1, 1, 1, 1, 1, 1, 1, 1, 1, 1, 1, 1, 1, 1, 1, 1, 1, 1, 1, 1, 1, 1, 1, 1, 1, 1, 1, 1, 1, 1, 1],
    [0, 0, 0, 0, 0, 1, 0, 0, 0, 1, 1, 1, 1, 1, 1, 1, 1, 1, 1, 1, 1, 1, 1, 1, 1, 1, 1, 1, 1, 1, 1, 1, 1, 1, 1, 1, 1, 1, 1, 1],
    [0, 0, 0, 0, 0, 0, 0, 0, 0, 0, 1, 0, 0, 0, 1, 1, 1, 1, 1, 1, 1, 1, 1, 1, 1, 1, 1, 1, 1, 1, 1, 1, 1, 1, 1, 1, 1, 1, 1, 1],
    [0, 0, 0, 0, 0, 0, 0, 1, 1, 1, 1, 1, 1, 1, 1, 1, 1, 1, 1, 1, 1, 1, 1, 1, 1, 1, 1, 1, 1, 1, 1, 1, 1, 1, 1, 1, 1, 1, 1, 1],
    [0, 0, 0, 0, 0, 0, 0, 0, 1, 1, 1, 1, 1, 1, 1, 1, 1, 1, 1, 1, 1, 1, 1, 1, 1, 1, 1, 1, 1, 1, 1, 1, 1, 1, 1, 1, 1, 1, 1, 1],
    [0, 0, 0, 0, 0, 0, 0, 0, 0, 1, 1, 1, 1, 1, 1, 1, 1, 1, 1, 1, 1, 1, 1, 1, 1, 1, 1, 1, 1, 1, 1, 1, 1, 1, 1, 1, 1, 1, 1, 1],
    [0, 0, 0, 0, 0, 0, 0, 0, 0, 0, 1, 1, 1, 1, 1, 1, 1, 1, 1, 1, 1, 1, 1, 1, 1, 1, 1, 1, 1, 1, 1, 1, 1, 1, 1, 1, 1, 1, 1, 1],
    [0, 0, 0, 0, 0, 0, 0, 0, 0, 0, 0, 0, 0, 0, 0, 0, 1, 0, 0, 0, 1, 1, 1, 1, 1, 1, 1, 1, 1, 1, 1, 1, 1, 1, 1, 1, 1, 1, 1, 1],
    [0, 0, 0, 0, 0, 0, 0, 0, 0, 0, 0, 0, 1, 1, 1, 1, 1, 1, 1, 1, 1, 1, 1, 1, 1, 1, 1, 1, 1, 1, 1, 1, 1, 1, 1, 1, 1, 1, 1, 1],
    [0, 0, 0, 0, 0, 0, 0, 0, 0, 0, 0, 0, 0, 1, 1, 1, 1, 1, 1, 1, 1, 1, 1, 1, 1, 1, 1, 1, 1, 1, 1, 1, 1, 1, 1, 1, 1, 1, 1, 1],
    [0, 0, 0, 0, 0, 0, 0, 0, 0, 0, 0, 0, 0, 0, 1, 1, 1, 1, 1, 1, 1, 1, 1, 1, 1, 1, 1, 1, 1, 1, 1, 1, 1, 1, 1, 1, 1, 1, 1, 1],
    [0, 0, 0, 0, 0, 0, 0, 0, 0, 0, 0, 0, 0, 0, 0, 1, 1, 1, 1, 1, 1, 1, 1, 1, 1, 1, 1, 1, 1, 1, 1, 1, 1, 1, 1, 1, 1, 1, 1, 1],
    [0, 0, 0, 0, 0, 0, 0, 0, 0, 0, 0, 0, 0, 0, 0, 0, 0, 0, 0, 0, 1, 1, 1, 1, 1, 1, 1, 1, 1, 1, 1, 1, 1, 1, 1, 1, 1, 1, 1, 1],
    [0, 0, 0, 0, 0, 0, 0, 0, 0, 0, 0, 0, 0, 0, 0, 0, 0, 0, 0, 0, 1, 1, 1, 1, 1, 1, 1, 1, 1, 1, 1, 1, 1, 1, 1, 1, 1, 1, 1, 1],
    [0, 0, 0, 0, 0, 0, 0, 0, 0, 0, 0, 0, 0, 0, 0, 0, 0, 0, 1, 1, 1, 1, 1, 1, 1, 1, 1, 1, 1, 1, 1, 1, 1, 1, 1, 1, 1, 1, 1, 1],
    [0, 0, 0, 0, 0, 0, 0, 0, 0, 0, 0, 0, 0, 0, 0, 0, 0, 0, 0, 1, 1, 1, 1, 1, 1, 1, 1, 1, 1, 1, 1, 1, 1, 1, 1, 1, 1, 1, 1, 1],
    [0, 0, 0, 0, 0, 0, 0, 0, 0, 0, 0, 0, 0, 0, 0, 0, 0, 0, 0, 0, 1, 1, 1, 1, 1, 1, 1, 1, 1, 1, 1, 1, 1, 1, 1, 1, 1, 1, 1, 1],
    [0, 0, 0, 0, 0, 0, 0, 0, 0, 0, 0, 0, 0, 0, 0, 0, 0, 0, 0, 0, 0, 1, 1, 1, 1, 1, 1, 1, 1, 1, 1, 1, 1, 1, 1, 1, 1, 1, 1, 1],
    [0, 0, 0, 0, 0, 0, 0, 0, 0, 0, 0, 0, 0, 0, 0, 0, 0, 0, 0, 0, 0, 0, 1, 0, 0, 0, 1, 1, 1, 1, 1, 1, 1, 1, 1, 1, 1, 1, 1, 1],
    [0, 0, 0, 0, 0, 0, 0, 0, 0, 0, 0, 0, 0, 0, 0, 0, 0, 0, 0, 0, 0, 0, 0, 0, 0, 0, 1, 1, 1, 1, 1, 1, 1, 1, 1, 1, 1, 1, 1, 1],
    [0, 0, 0, 0, 0, 0, 0, 0, 0, 0, 0, 0, 0, 0, 0, 0, 0, 0, 0, 0, 0, 0, 0, 0, 1, 1, 1, 1, 1, 1, 1, 1, 1, 1, 1, 1, 1, 1, 1, 1],
    [0, 0, 0, 0, 0, 0, 0, 0, 0, 0, 0, 0, 0, 0, 0, 0, 0, 0, 0, 0, 0, 0, 0, 0, 0, 1, 1, 1, 1, 1, 1, 1, 1, 1, 1, 1, 1, 1, 1, 1],
    [0, 0, 0, 0, 0, 0, 0, 0, 0, 0, 0, 0, 0, 0, 0, 0, 0, 0, 0, 0, 0, 0, 0, 0, 0, 0, 1, 1, 1, 1, 1, 1, 1, 1, 1, 1, 1, 1, 1, 1],
    [0, 0, 0, 0, 0, 0, 0, 0, 0, 0, 0, 0, 0, 0, 0, 0, 0, 0, 0, 0, 0, 0, 0, 0, 0, 0, 0, 1, 1, 1, 1, 1, 1, 1, 1, 1, 1, 1, 1, 1],
    [0, 0, 0, 0, 0, 0, 0, 0, 0, 0, 0, 0, 0, 0, 0, 0, 0, 0, 0, 0, 0, 0, 0, 0, 0, 0, 0, 0, 1, 1, 1, 1, 1, 1, 1, 1, 1, 1, 1, 1],
    [0, 0, 0, 0, 0, 0, 0, 0, 0, 0, 0, 0, 0, 0, 0, 0, 0, 0, 0, 0, 0, 0, 0, 0, 0, 0, 0, 0, 0, 1, 1, 1, 1, 1, 1, 1, 1, 1, 1, 1],
    [0, 0, 0, 0, 0, 0, 0, 0, 0, 0, 0, 0, 0, 0, 0, 0, 0, 0, 0, 0, 0, 0, 0, 0, 0, 0, 0, 0, 0, 0, 0, 0, 0, 1, 1, 1, 1, 1, 1, 1],
    [0, 0, 0, 0, 0, 0, 0, 0, 0, 0, 0, 0, 0, 0, 0, 0, 0, 0, 0, 0, 0, 0, 0, 0, 0, 0, 0, 0, 0, 0, 0, 1, 1, 1, 1, 1, 1, 1, 1, 1],
    [0, 0, 0, 0, 0, 0, 0, 0, 0, 0, 0, 0, 0, 0, 0, 0, 0, 0, 0, 0, 0, 0, 0, 0, 0, 0, 0, 0, 0, 0, 0, 0, 1, 1, 1, 1, 1, 1, 1, 1],
    [0, 0, 0, 0, 0, 0, 0, 0, 0, 0, 0, 0, 0, 0, 0, 0, 0, 0, 0, 0, 0, 0, 0, 0, 0, 0, 0, 0, 0, 0, 0, 0, 0, 1, 1, 1, 1, 1, 1, 1],
    [0, 0, 0, 0, 0, 0, 0, 0, 0, 0, 0, 0, 0, 0, 0, 0, 0, 0, 0, 0, 0, 0, 0, 0, 0, 0, 0, 0, 0, 0, 0, 0, 0, 0, 1, 1, 1, 1, 1, 1],
    [0, 0, 0, 0, 0, 0, 0, 0, 0, 0, 0, 0, 0, 0, 0, 0, 0, 0, 0, 0, 0, 0, 0, 0, 0, 0, 0, 0, 0, 0, 0, 0, 0, 0, 0, 0, 0, 0, 0, 0],
    [0, 0, 0, 0, 0, 0, 0, 0, 0, 0, 0, 0, 0, 0, 0, 0, 0, 0, 0, 0, 0, 0, 0, 0, 0, 0, 0, 0, 0, 0, 0, 0, 0, 0, 0, 0, 0, 0, 0, 0],
    [0, 0, 0, 0, 0, 0, 0, 0, 0, 0, 0, 0, 0, 0, 0, 0, 0, 0, 0, 0, 0, 0, 0, 0, 0, 0, 0, 0, 0, 0, 0, 0, 0, 0, 0, 0, 0, 1, 1, 1],
    [0, 0, 0, 0, 0, 0, 0, 0, 0, 0, 0, 0, 0, 0, 0, 0, 0, 0, 0, 0, 0, 0, 0, 0, 0, 0, 0, 0, 0, 0, 0, 0, 0, 0, 0, 0, 0, 0, 1, 1],
    [0, 0, 0, 0, 0, 0, 0, 0, 0, 0, 0, 0, 0, 0, 0, 0, 0, 0, 0, 0, 0, 0, 0, 0, 0, 0, 0, 0, 0, 0, 0, 0, 0, 0, 0, 0, 0, 0, 0, 1],
    [0, 0, 0, 0, 0, 0, 0, 0, 0, 0, 0, 0, 0, 0, 0, 0, 0, 0, 0, 0, 0, 0, 0, 0, 0, 0, 0, 0, 0, 0, 0, 0, 0, 0, 0, 0, 0, 0, 0, 0]
  ]
}